EESchema Schematic File Version 4
EELAYER 30 0
EELAYER END
$Descr A4 8268 11693 portrait
encoding utf-8
Sheet 2 4
Title ""
Date ""
Rev ""
Comp ""
Comment1 ""
Comment2 ""
Comment3 ""
Comment4 ""
$EndDescr
Text GLabel 2300 1500 2    50   Output ~ 0
SCL
Text GLabel 2300 1300 2    50   Output ~ 0
SDA
$Comp
L SparkFun-Capacitors:0.1UF-0603-100V-10% C?
U 1 1 5EC473D9
P 1400 6100
AR Path="/5EC473D9" Ref="C?"  Part="1" 
AR Path="/5EC40A6A/5EC473D9" Ref="C?"  Part="1" 
F 0 "C?" V 1740 6150 45  0000 C CNN
F 1 "0.1UF-0603-100V-10%" V 1656 6150 45  0000 C CNN
F 2 "0603" H 1400 6350 20  0001 C CNN
F 3 "" H 1400 6100 50  0001 C CNN
F 4 "CAP-08390" V 1561 6150 60  0000 C CNN "Field4"
	1    1400 6100
	0    -1   1    0   
$EndComp
$Comp
L SparkFun-Capacitors:100UF-POLAR-10X10.5-63V-20% C?
U 1 1 5EC473E0
P 1400 5600
AR Path="/5EC473E0" Ref="C?"  Part="1" 
AR Path="/5EC40A6A/5EC473E0" Ref="C?"  Part="1" 
F 0 "C?" V 1040 5550 45  0000 C CNN
F 1 "100UF-POLAR-10X10.5-63V-20%" V 1124 5550 45  0000 C CNN
F 2 "NIC_10X10.5_CAP" H 1400 5850 20  0001 C CNN
F 3 "" H 1400 5600 50  0001 C CNN
F 4 "CAP-08362" V 1219 5550 60  0000 C CNN "Field4"
	1    1400 5600
	0    1    -1   0   
$EndComp
Text Notes 750  900  0    157  Italic 0
Differential I2C
$Comp
L PCA9615:PCA9615 U?
U 1 1 5EC47433
P 1600 1400
AR Path="/5EC47433" Ref="U?"  Part="1" 
AR Path="/5EC40A6A/5EC47433" Ref="U?"  Part="1" 
F 0 "U?" H 1600 963 60  0000 C CNN
F 1 "PCA9615" H 1600 1069 60  0000 C CNN
F 2 "" H 1600 1400 60  0001 C CNN
F 3 "" H 1600 1400 60  0001 C CNN
	1    1600 1400
	-1   0    0    -1  
$EndComp
Text Notes 700  3000 0    50   ~ 0
Why bother with differential I2C?\n\nUnfortunately, two conductive wires that extend for some \ndistance acts as a "bus capacitor" that  degrades signal \nquality. Using stronger pullup resistors can charge that \nparasitic capacitor quicker but also means the higher current \nthat flows through your fragile sensors, which places a hard \nlimit on such finesses. Also, low-to-high transitions take time\nwhile high-to-low transitions are instantaneous because of\nthe parasitic capacitance.\n\nUsing a differential pair helps reduce \nthe parastic losses and is more able to handle EMI.
Text Notes 700  6850 0    157  Italic 0
Terminal Resistances\n
$Comp
L SparkFun-Switches:JOYSTICK_THUMB S?
U 1 1 5EAF1C58
P 5050 2100
AR Path="/5EAF1C58" Ref="S?"  Part="1" 
AR Path="/5EC40A6A/5EAF1C58" Ref="S?"  Part="1" 
F 0 "S?" H 5328 2145 45  0000 L CNN
F 1 "JOYSTICK_THUMB" H 5328 2061 45  0000 L CNN
F 2 "JOYSTICK" H 5050 2750 20  0001 C CNN
F 3 "" H 5050 2100 50  0001 C CNN
F 4 "COMP-09744" H 5328 1966 60  0000 L CNN "Field4"
	1    5050 2100
	-1   0    0    -1  
$EndComp
Wire Wire Line
	5650 2100 5400 2100
Wire Wire Line
	5400 1700 5650 1700
Wire Wire Line
	5650 1700 5650 2100
Wire Wire Line
	5500 2600 5400 2600
Wire Wire Line
	5400 1900 5500 1900
Wire Wire Line
	5500 1900 5500 2300
Wire Wire Line
	5400 2300 5500 2300
Connection ~ 5500 2300
Wire Wire Line
	5500 2300 5500 2600
$Comp
L SparkFun-Switches:ROCKER_SWITCH-SPST_PTH_RIGHT_ANGLE S?
U 1 1 5EAF1C90
P 5200 5750
AR Path="/5EAF1C90" Ref="S?"  Part="1" 
AR Path="/5EC40A6A/5EAF1C90" Ref="S?"  Part="1" 
F 0 "S?" H 5200 6060 45  0000 C CNN
F 1 "ROCKER_SWITCH-SPST_PTH_RIGHT_ANGLE" H 4750 5950 45  0000 C CNN
F 2 "Switches:RockerSwitch_RA" H 5200 5950 20  0001 C CNN
F 3 "" H 5200 5750 50  0001 C CNN
F 4 "SWCH-08863" H 5100 5850 60  0000 C CNN "Field4"
	1    5200 5750
	1    0    0    -1  
$EndComp
Wire Wire Line
	5900 2200 5400 2200
Wire Wire Line
	5900 1800 5400 1800
Text Notes 6650 900  2    157  Italic 0
Joystick + Button Control\n
Text GLabel 5900 1800 2    50   Input ~ 0
VER
Text GLabel 5900 2200 2    50   Input ~ 0
HOR
Text GLabel 7400 4400 2    50   Input ~ 0
SEL
Text GLabel 7400 4500 2    50   Input ~ 0
UP
Text GLabel 7400 4600 2    50   Input ~ 0
DOWN
Text GLabel 7400 4700 2    50   Input ~ 0
TOP
Text GLabel 7400 4800 2    50   Input ~ 0
BOTTOM
$Comp
L dk_Transistors-FETs-MOSFETs-Single:BSS138 Q?
U 1 1 5EBBD925
P 13000 -2200
F 0 "Q?" V 13161 -2200 60  0000 C CNN
F 1 "BSS138" V 13267 -2200 60  0000 C CNN
F 2 "digikey-footprints:SOT-23-3" H 13200 -2000 60  0001 L CNN
F 3 "https://www.onsemi.com/pub/Collateral/BSS138-D.PDF" H 13200 -1900 60  0001 L CNN
F 4 "BSS138CT-ND" H 13200 -1800 60  0001 L CNN "Digi-Key_PN"
F 5 "BSS138" H 13200 -1700 60  0001 L CNN "MPN"
F 6 "Discrete Semiconductor Products" H 13200 -1600 60  0001 L CNN "Category"
F 7 "Transistors - FETs, MOSFETs - Single" H 13200 -1500 60  0001 L CNN "Family"
F 8 "https://www.onsemi.com/pub/Collateral/BSS138-D.PDF" H 13200 -1400 60  0001 L CNN "DK_Datasheet_Link"
F 9 "/product-detail/en/on-semiconductor/BSS138/BSS138CT-ND/244294" H 13200 -1300 60  0001 L CNN "DK_Detail_Page"
F 10 "MOSFET N-CH 50V 220MA SOT-23" H 13200 -1200 60  0001 L CNN "Description"
F 11 "ON Semiconductor" H 13200 -1100 60  0001 L CNN "Manufacturer"
F 12 "Active" H 13200 -1000 60  0001 L CNN "Status"
	1    13000 -2200
	0    1    1    0   
$EndComp
$Comp
L SparkFun-Resistors:10KOHM-0603-1_10W-1% R?
U 1 1 5EBBEB9B
P 13400 -2400
F 0 "R?" V 13495 -2468 45  0000 R CNN
F 1 "10KOHM-0603-1_10W-1%" V 13411 -2468 45  0000 R CNN
F 2 "0603" H 13400 -2250 20  0001 C CNN
F 3 "" H 13400 -2400 60  0001 C CNN
F 4 "RES-00824" V 13316 -2468 60  0000 R CNN "Field4"
	1    13400 -2400
	0    -1   -1   0   
$EndComp
$Comp
L SparkFun-Resistors:10KOHM-0603-1_10W-1% R?
U 1 1 5EBC0389
P 12600 -2400
F 0 "R?" V 12695 -2468 45  0000 R CNN
F 1 "10KOHM-0603-1_10W-1%" V 12611 -2468 45  0000 R CNN
F 2 "0603" H 12600 -2250 20  0001 C CNN
F 3 "" H 12600 -2400 60  0001 C CNN
F 4 "RES-00824" V 12516 -2468 60  0000 R CNN "Field4"
	1    12600 -2400
	0    1    -1   0   
$EndComp
$Comp
L SparkFun-PowerSymbols:5V #SUPPLY?
U 1 1 5EBC4CEF
P 13400 -2600
F 0 "#SUPPLY?" H 13450 -2600 45  0001 L BNN
F 1 "5V" H 13400 -2430 45  0000 C CNN
F 2 "" H 13400 -2419 60  0000 C CNN
F 3 "" H 13400 -2600 60  0001 C CNN
	1    13400 -2600
	1    0    0    -1  
$EndComp
$Comp
L SparkFun-PowerSymbols:3.3V #SUPPLY?
U 1 1 5EBC56F0
P 12600 -2600
F 0 "#SUPPLY?" H 12650 -2600 45  0001 L BNN
F 1 "3.3V" H 12600 -2430 45  0000 C CNN
F 2 "" H 12600 -2419 60  0000 C CNN
F 3 "" H 12600 -2600 60  0001 C CNN
	1    12600 -2600
	1    0    0    -1  
$EndComp
Wire Wire Line
	12900 -2500 12900 -2600
Wire Wire Line
	12900 -2600 12600 -2600
Connection ~ 12600 -2600
Wire Wire Line
	12600 -2200 12800 -2200
Wire Wire Line
	13400 -2200 13200 -2200
$Comp
L SparkFun-Jumpers:JUMPER-SMT_2_NO JP?
U 1 1 5EC16258
P 13400 -2050
F 0 "JP?" V 13305 -1946 45  0000 L CNN
F 1 "JUMPER-SMT_2_NO" V 13389 -1946 45  0000 L CNN
F 2 "SMT-JUMPER_2_NO" H 13400 -1850 20  0001 C CNN
F 3 "" H 13400 -2050 60  0001 C CNN
F 4 "XXX-00000" V 13484 -1946 60  0000 L CNN "PROD_ID"
	1    13400 -2050
	0    1    1    0   
$EndComp
Connection ~ 13400 -2200
$Comp
L SparkFun-Jumpers:JUMPER-SMT_2_NO JP?
U 1 1 5EC1745A
P 12600 -2050
F 0 "JP?" V 12505 -2154 45  0000 R CNN
F 1 "JUMPER-SMT_2_NO" V 12589 -2154 45  0000 R CNN
F 2 "SMT-JUMPER_2_NO" H 12600 -1850 20  0001 C CNN
F 3 "" H 12600 -2050 60  0001 C CNN
F 4 "XXX-00000" V 12684 -2154 60  0000 R CNN "PROD_ID"
	1    12600 -2050
	0    1    1    0   
$EndComp
Connection ~ 12600 -2200
Wire Wire Line
	13400 -1900 13400 -1800
Wire Wire Line
	13400 -1800 12600 -1800
Wire Wire Line
	12600 -1800 12600 -1900
$Comp
L dk_Transistors-FETs-MOSFETs-Single:BSS138 Q?
U 1 1 5EC55D3B
P 13000 -3350
F 0 "Q?" V 13161 -3350 60  0000 C CNN
F 1 "BSS138" V 13267 -3350 60  0000 C CNN
F 2 "digikey-footprints:SOT-23-3" H 13200 -3150 60  0001 L CNN
F 3 "https://www.onsemi.com/pub/Collateral/BSS138-D.PDF" H 13200 -3050 60  0001 L CNN
F 4 "BSS138CT-ND" H 13200 -2950 60  0001 L CNN "Digi-Key_PN"
F 5 "BSS138" H 13200 -2850 60  0001 L CNN "MPN"
F 6 "Discrete Semiconductor Products" H 13200 -2750 60  0001 L CNN "Category"
F 7 "Transistors - FETs, MOSFETs - Single" H 13200 -2650 60  0001 L CNN "Family"
F 8 "https://www.onsemi.com/pub/Collateral/BSS138-D.PDF" H 13200 -2550 60  0001 L CNN "DK_Datasheet_Link"
F 9 "/product-detail/en/on-semiconductor/BSS138/BSS138CT-ND/244294" H 13200 -2450 60  0001 L CNN "DK_Detail_Page"
F 10 "MOSFET N-CH 50V 220MA SOT-23" H 13200 -2350 60  0001 L CNN "Description"
F 11 "ON Semiconductor" H 13200 -2250 60  0001 L CNN "Manufacturer"
F 12 "Active" H 13200 -2150 60  0001 L CNN "Status"
	1    13000 -3350
	0    1    1    0   
$EndComp
$Comp
L SparkFun-Resistors:10KOHM-0603-1_10W-1% R?
U 1 1 5EC55D42
P 13400 -3550
F 0 "R?" V 13495 -3618 45  0000 R CNN
F 1 "10KOHM-0603-1_10W-1%" V 13411 -3618 45  0000 R CNN
F 2 "0603" H 13400 -3400 20  0001 C CNN
F 3 "" H 13400 -3550 60  0001 C CNN
F 4 "RES-00824" V 13316 -3618 60  0000 R CNN "Field4"
	1    13400 -3550
	0    -1   -1   0   
$EndComp
$Comp
L SparkFun-Resistors:10KOHM-0603-1_10W-1% R?
U 1 1 5EC55D49
P 12600 -3550
F 0 "R?" V 12695 -3618 45  0000 R CNN
F 1 "10KOHM-0603-1_10W-1%" V 12611 -3618 45  0000 R CNN
F 2 "0603" H 12600 -3400 20  0001 C CNN
F 3 "" H 12600 -3550 60  0001 C CNN
F 4 "RES-00824" V 12516 -3618 60  0000 R CNN "Field4"
	1    12600 -3550
	0    1    -1   0   
$EndComp
$Comp
L SparkFun-PowerSymbols:5V #SUPPLY?
U 1 1 5EC55D4F
P 13400 -3750
F 0 "#SUPPLY?" H 13450 -3750 45  0001 L BNN
F 1 "5V" H 13400 -3580 45  0000 C CNN
F 2 "" H 13400 -3569 60  0000 C CNN
F 3 "" H 13400 -3750 60  0001 C CNN
	1    13400 -3750
	1    0    0    -1  
$EndComp
$Comp
L SparkFun-PowerSymbols:3.3V #SUPPLY?
U 1 1 5EC55D55
P 12600 -3750
F 0 "#SUPPLY?" H 12650 -3750 45  0001 L BNN
F 1 "3.3V" H 12600 -3580 45  0000 C CNN
F 2 "" H 12600 -3569 60  0000 C CNN
F 3 "" H 12600 -3750 60  0001 C CNN
	1    12600 -3750
	1    0    0    -1  
$EndComp
Wire Wire Line
	12900 -3650 12900 -3750
Wire Wire Line
	12900 -3750 12600 -3750
Connection ~ 12600 -3750
Wire Wire Line
	12600 -3350 12800 -3350
Wire Wire Line
	13400 -3350 13200 -3350
Connection ~ 12600 -3350
Connection ~ 13400 -3350
$Comp
L SparkFun-Jumpers:JUMPER-SMT_2_NO JP?
U 1 1 5EC55D61
P 13400 -3200
F 0 "JP?" V 13305 -3096 45  0000 L CNN
F 1 "JUMPER-SMT_2_NO" V 13389 -3096 45  0000 L CNN
F 2 "SMT-JUMPER_2_NO" H 13400 -3000 20  0001 C CNN
F 3 "" H 13400 -3200 60  0001 C CNN
F 4 "XXX-00000" V 13484 -3096 60  0000 L CNN "PROD_ID"
	1    13400 -3200
	0    1    1    0   
$EndComp
$Comp
L SparkFun-Jumpers:JUMPER-SMT_2_NO JP?
U 1 1 5EC55D69
P 12600 -3200
F 0 "JP?" V 12505 -3304 45  0000 R CNN
F 1 "JUMPER-SMT_2_NO" V 12589 -3304 45  0000 R CNN
F 2 "SMT-JUMPER_2_NO" H 12600 -3000 20  0001 C CNN
F 3 "" H 12600 -3200 60  0001 C CNN
F 4 "XXX-00000" V 12684 -3304 60  0000 R CNN "PROD_ID"
	1    12600 -3200
	0    1    1    0   
$EndComp
Wire Wire Line
	13400 -3050 13400 -2950
Wire Wire Line
	12600 -2950 12600 -3050
Wire Wire Line
	13400 -2950 12600 -2950
Wire Wire Line
	12600 -3350 11350 -3350
Wire Wire Line
	13400 -2950 14600 -2950
Connection ~ 13400 -2950
Wire Wire Line
	13400 -1800 14500 -1800
Connection ~ 13400 -1800
Text Notes 11750 -4100 0    157  Italic 0
Logic Level Shifters
Wire Wire Line
	11350 -2200 12600 -2200
Text Label 2250 1400 2    47   ~ 0
EN
Wire Wire Line
	2250 1400 2100 1400
Text Label 2250 1200 2    47   ~ 0
VDDA
Wire Wire Line
	2250 1200 2100 1200
Text Label 1100 1200 2    47   ~ 0
VDDB
Wire Wire Line
	1500 5600 1700 5600
$Comp
L SparkFun-PowerSymbols:GND #GND?
U 1 1 5EF6F1B2
P 1700 5600
F 0 "#GND?" H 1750 5550 45  0001 L BNN
F 1 "GND" H 1700 5430 45  0000 C CNN
F 2 "" H 1700 5500 60  0001 C CNN
F 3 "" H 1700 5500 60  0001 C CNN
	1    1700 5600
	0    -1   -1   0   
$EndComp
Wire Wire Line
	1500 6100 1700 6100
$Comp
L SparkFun-PowerSymbols:GND #GND?
U 1 1 5EF95092
P 1700 6100
F 0 "#GND?" H 1750 6050 45  0001 L BNN
F 1 "GND" H 1700 5930 45  0000 C CNN
F 2 "" H 1700 6000 60  0001 C CNN
F 3 "" H 1700 6000 60  0001 C CNN
	1    1700 6100
	0    -1   -1   0   
$EndComp
$Comp
L SparkFun-Capacitors:0.1UF-0603-100V-10% C?
U 1 1 5EF998DE
P 2650 6100
AR Path="/5EF998DE" Ref="C?"  Part="1" 
AR Path="/5EC40A6A/5EF998DE" Ref="C?"  Part="1" 
F 0 "C?" V 2990 6150 45  0000 C CNN
F 1 "0.1UF-0603-100V-10%" V 2906 6150 45  0000 C CNN
F 2 "0603" H 2650 6350 20  0001 C CNN
F 3 "" H 2650 6100 50  0001 C CNN
F 4 "CAP-08390" V 2811 6150 60  0000 C CNN "Field4"
	1    2650 6100
	0    -1   1    0   
$EndComp
$Comp
L SparkFun-Capacitors:100UF-POLAR-10X10.5-63V-20% C?
U 1 1 5EF998E5
P 2650 5600
AR Path="/5EF998E5" Ref="C?"  Part="1" 
AR Path="/5EC40A6A/5EF998E5" Ref="C?"  Part="1" 
F 0 "C?" V 2290 5550 45  0000 C CNN
F 1 "100UF-POLAR-10X10.5-63V-20%" V 2374 5550 45  0000 C CNN
F 2 "NIC_10X10.5_CAP" H 2650 5850 20  0001 C CNN
F 3 "" H 2650 5600 50  0001 C CNN
F 4 "CAP-08362" V 2469 5550 60  0000 C CNN "Field4"
	1    2650 5600
	0    1    -1   0   
$EndComp
Text Label 2150 5600 0    47   ~ 0
VDDB
Wire Wire Line
	2750 5600 2950 5600
Wire Wire Line
	2150 5600 2450 5600
$Comp
L SparkFun-PowerSymbols:GND #GND?
U 1 1 5EF998EE
P 2950 5600
F 0 "#GND?" H 3000 5550 45  0001 L BNN
F 1 "GND" H 2950 5430 45  0000 C CNN
F 2 "" H 2950 5500 60  0001 C CNN
F 3 "" H 2950 5500 60  0001 C CNN
	1    2950 5600
	0    -1   -1   0   
$EndComp
Text Label 2150 6100 0    47   ~ 0
VDDB
Wire Wire Line
	2150 6100 2450 6100
Wire Wire Line
	2750 6100 2950 6100
$Comp
L SparkFun-PowerSymbols:GND #GND?
U 1 1 5EF998F7
P 2950 6100
F 0 "#GND?" H 3000 6050 45  0001 L BNN
F 1 "GND" H 2950 5930 45  0000 C CNN
F 2 "" H 2950 6000 60  0001 C CNN
F 3 "" H 2950 6000 60  0001 C CNN
	1    2950 6100
	0    -1   -1   0   
$EndComp
$Comp
L SparkFun-Jumpers:JUMPER-SMT_3_2-NC JP?
U 1 1 5F028E52
P 2600 5000
F 0 "JP?" V 2830 5000 45  0000 C CNN
F 1 "JUMPER-SMT_3_2-NC" V 2746 5000 45  0000 C CNN
F 2 "SMT-JUMPER_3_2-NC" H 2600 5250 20  0001 C CNN
F 3 "" H 2600 5000 60  0001 C CNN
F 4 "" V 2757 5000 60  0000 C CNN "PROD_ID"
	1    2600 5000
	0    -1   -1   0   
$EndComp
Text GLabel 2950 5000 2    50   Output ~ 0
SDA
Text GLabel 2950 5250 2    50   Output ~ 0
SCL
Wire Wire Line
	2950 5250 2600 5250
Wire Wire Line
	2600 5250 2600 5150
$Comp
L SparkFun-Connectors:RJ45-8 J?
U 1 1 5F04E0D6
P 1950 3750
F 0 "J?" H 1222 4005 45  0000 R CNN
F 1 "RJ45-8" H 1222 4089 45  0000 R CNN
F 2 "RJ45-8" H 1950 4700 20  0001 C CNN
F 3 "" H 1950 3750 50  0001 C CNN
F 4 "CONN-08506" H 1222 4184 60  0000 R CNN "Field4"
	1    1950 3750
	-1   0    0    1   
$EndComp
NoConn ~ 1850 3950
NoConn ~ 1850 4250
Text Label 800  4150 0    47   ~ 0
VDDB
Wire Wire Line
	800  4150 1100 4150
$Comp
L SparkFun-PowerSymbols:GND #GND?
U 1 1 5F06C342
P 1850 4050
AR Path="/5F06C342" Ref="#GND?"  Part="1" 
AR Path="/5EC40A6A/5F06C342" Ref="#GND?"  Part="1" 
F 0 "#GND?" H 1900 4000 45  0001 L BNN
F 1 "GND" H 1850 3880 45  0000 C CNN
F 2 "" H 1850 3950 60  0001 C CNN
F 3 "" H 1850 3950 60  0001 C CNN
	1    1850 4050
	0    1    1    0   
$EndComp
Wire Wire Line
	2300 1500 2100 1500
Text Notes 850  3450 0    157  ~ 0
RJ-45 Connector\n
Text Label 2350 7800 2    50   ~ 0
DSDA+
Text Label 2350 8600 2    50   ~ 0
DSDA-
Text Label 1850 4450 2    50   ~ 0
DSDA+
Text Label 1850 4350 2    50   ~ 0
DSDA-
Text Label 1850 3850 2    50   ~ 0
DSCL+
Text Label 1850 3750 2    50   ~ 0
DSCL-
Text Label 1100 1500 2    50   ~ 0
DSCL+
Text Label 1100 1600 2    50   ~ 0
DSCL-
Text Label 1100 1300 2    50   ~ 0
DSDA+
Text Label 1100 1400 2    50   ~ 0
DSDA-
$Comp
L SparkFun-Jumpers:JUMPER-SMT_2_NO JP?
U 1 1 5F1DEAD4
P 1400 4850
F 0 "JP?" H 1400 5080 45  0000 C CNN
F 1 "JUMPER-SMT_2_NO" H 1400 4996 45  0000 C CNN
F 2 "SMT-JUMPER_2_NO" H 1400 5050 20  0001 C CNN
F 3 "" H 1400 4850 60  0001 C CNN
F 4 "" H 1400 5007 60  0000 C CNN "PROD_ID"
	1    1400 4850
	1    0    0    -1  
$EndComp
Text Label 1850 4850 2    47   ~ 0
VDDB
Wire Wire Line
	1850 4850 1550 4850
$Comp
L SparkFun-PowerSymbols:5V #SUPPLY?
U 1 1 5F1DEADC
P 1050 4850
F 0 "#SUPPLY?" H 1100 4850 45  0001 L BNN
F 1 "5V" H 1050 5020 45  0000 C CNN
F 2 "" H 1050 5031 60  0000 C CNN
F 3 "" H 1050 4850 60  0001 C CNN
	1    1050 4850
	0    -1   -1   0   
$EndComp
Wire Wire Line
	1050 4850 1250 4850
Text Label 1850 5250 2    47   ~ 0
VDDB
Wire Wire Line
	1850 5250 1550 5250
Wire Wire Line
	1050 5250 1250 5250
$Comp
L SparkFun-PowerSymbols:3.3V #SUPPLY?
U 1 1 5F1DEAED
P 1050 5250
F 0 "#SUPPLY?" H 1100 5250 45  0001 L BNN
F 1 "3.3V" H 1050 5420 45  0000 C CNN
F 2 "" H 1050 5431 60  0000 C CNN
F 3 "" H 1050 5250 60  0001 C CNN
	1    1050 5250
	0    -1   -1   0   
$EndComp
$Comp
L SparkFun-Jumpers:JUMPER-SMT_2_NC JP?
U 1 1 5F1F17EB
P 1400 5250
F 0 "JP?" H 1400 5480 45  0000 C CNN
F 1 "JUMPER-SMT_2_NC" H 1400 5396 45  0000 C CNN
F 2 "SMT-JUMPER_2_NC" H 1400 5450 20  0001 C CNN
F 3 "" H 1400 5250 60  0001 C CNN
F 4 "" H 1400 5407 60  0000 C CNN "PROD_ID"
	1    1400 5250
	1    0    0    -1  
$EndComp
$Comp
L SparkFun-Resistors:4.7KOHM-0603-1_10W-1% R?
U 1 1 5F20744A
P 1800 8300
AR Path="/5F20744A" Ref="R?"  Part="1" 
AR Path="/5EC40A6A/5F20744A" Ref="R?"  Part="1" 
F 0 "R?" V 1705 8368 45  0000 L CNN
F 1 "4.7KOHM-0603-1_10W-1%" V 1789 8368 45  0000 L CNN
F 2 "0603" H 1800 8450 20  0001 C CNN
F 3 "" H 1800 8300 60  0001 C CNN
F 4 "RES-07857" V 1884 8368 60  0000 L CNN "Field4"
	1    1800 8300
	0    -1   -1   0   
$EndComp
$Comp
L SparkFun-Resistors:4.7KOHM-0603-1_10W-1% R?
U 1 1 5F207451
P 1800 9100
AR Path="/5F207451" Ref="R?"  Part="1" 
AR Path="/5EC40A6A/5F207451" Ref="R?"  Part="1" 
F 0 "R?" V 1705 9168 45  0000 L CNN
F 1 "4.7KOHM-0603-1_10W-1%" V 1789 9168 45  0000 L CNN
F 2 "0603" H 1800 9250 20  0001 C CNN
F 3 "" H 1800 9100 60  0001 C CNN
F 4 "RES-07857" V 1884 9168 60  0000 L CNN "Field4"
	1    1800 9100
	0    -1   -1   0   
$EndComp
$Comp
L SparkFun-Resistors:4.7KOHM-0603-1_10W-1% R?
U 1 1 5F207458
P 1800 7500
AR Path="/5F207458" Ref="R?"  Part="1" 
AR Path="/5EC40A6A/5F207458" Ref="R?"  Part="1" 
F 0 "R?" V 1705 7568 45  0000 L CNN
F 1 "4.7KOHM-0603-1_10W-1%" V 1789 7568 45  0000 L CNN
F 2 "0603" H 1800 7650 20  0001 C CNN
F 3 "" H 1800 7500 60  0001 C CNN
F 4 "RES-07857" V 1884 7568 60  0000 L CNN "Field4"
	1    1800 7500
	0    -1   -1   0   
$EndComp
$Comp
L SparkFun-Jumpers:JUMPER-SMT_2_NO JP?
U 1 1 5F20745F
P 1450 8600
F 0 "JP?" H 1450 8830 45  0000 C CNN
F 1 "JUMPER-SMT_2_NO" H 1450 8746 45  0000 C CNN
F 2 "SMT-JUMPER_2_NO" H 1450 8800 20  0001 C CNN
F 3 "" H 1450 8600 60  0001 C CNN
F 4 "" H 1450 8757 60  0000 C CNN "PROD_ID"
	1    1450 8600
	-1   0    0    1   
$EndComp
$Comp
L SparkFun-Jumpers:JUMPER-SMT_2_NO JP?
U 1 1 5F207466
P 1450 7800
F 0 "JP?" H 1450 8030 45  0000 C CNN
F 1 "JUMPER-SMT_2_NO" H 1450 7946 45  0000 C CNN
F 2 "SMT-JUMPER_2_NO" H 1450 8000 20  0001 C CNN
F 3 "" H 1450 7800 60  0001 C CNN
F 4 "" H 1450 7957 60  0000 C CNN "PROD_ID"
	1    1450 7800
	-1   0    0    1   
$EndComp
Wire Wire Line
	1800 8500 1800 8600
Wire Wire Line
	1800 7700 1800 7800
Wire Wire Line
	1050 7800 1300 7800
Wire Wire Line
	1300 8600 1050 8600
Wire Wire Line
	1600 7800 1800 7800
Connection ~ 1800 7800
Wire Wire Line
	1800 7800 1800 8100
Wire Wire Line
	1600 8600 1800 8600
Connection ~ 1800 8600
Wire Wire Line
	1800 8600 1800 8900
Text Label 1800 7050 3    47   ~ 0
VDDB
Wire Wire Line
	1800 7050 1800 7300
$Comp
L SparkFun-PowerSymbols:GND #GND?
U 1 1 5F2115ED
P 1800 9600
AR Path="/5F2115ED" Ref="#GND?"  Part="1" 
AR Path="/5EC40A6A/5F2115ED" Ref="#GND?"  Part="1" 
F 0 "#GND?" H 1850 9550 45  0001 L BNN
F 1 "GND" H 1800 9430 45  0000 C CNN
F 2 "" H 1800 9500 60  0001 C CNN
F 3 "" H 1800 9500 60  0001 C CNN
	1    1800 9600
	1    0    0    -1  
$EndComp
$Comp
L SparkFun-Jumpers:JUMPER-SMT_2_NO JP?
U 1 1 5F2115F4
P 1800 9450
F 0 "JP?" V 1758 9554 45  0000 L CNN
F 1 "JUMPER-SMT_2_NO" V 1842 9554 45  0000 L CNN
F 2 "SMT-JUMPER_2_NO" H 1800 9650 20  0001 C CNN
F 3 "" H 1800 9450 60  0001 C CNN
F 4 "" V 1884 9554 60  0000 L CNN "PROD_ID"
	1    1800 9450
	0    -1   -1   0   
$EndComp
Text Label 1050 7800 2    50   ~ 0
DSCL+
Text Label 1050 8600 2    50   ~ 0
DSCL-
$Comp
L SparkFun-Resistors:4.7KOHM-0603-1_10W-1% R?
U 1 1 5F2662E6
P 3100 8300
AR Path="/5F2662E6" Ref="R?"  Part="1" 
AR Path="/5EC40A6A/5F2662E6" Ref="R?"  Part="1" 
F 0 "R?" V 3005 8368 45  0000 L CNN
F 1 "4.7KOHM-0603-1_10W-1%" V 3089 8368 45  0000 L CNN
F 2 "0603" H 3100 8450 20  0001 C CNN
F 3 "" H 3100 8300 60  0001 C CNN
F 4 "RES-07857" V 3184 8368 60  0000 L CNN "Field4"
	1    3100 8300
	0    -1   -1   0   
$EndComp
$Comp
L SparkFun-Resistors:4.7KOHM-0603-1_10W-1% R?
U 1 1 5F2662ED
P 3100 9100
AR Path="/5F2662ED" Ref="R?"  Part="1" 
AR Path="/5EC40A6A/5F2662ED" Ref="R?"  Part="1" 
F 0 "R?" V 3005 9168 45  0000 L CNN
F 1 "4.7KOHM-0603-1_10W-1%" V 3089 9168 45  0000 L CNN
F 2 "0603" H 3100 9250 20  0001 C CNN
F 3 "" H 3100 9100 60  0001 C CNN
F 4 "RES-07857" V 3184 9168 60  0000 L CNN "Field4"
	1    3100 9100
	0    -1   -1   0   
$EndComp
$Comp
L SparkFun-Resistors:4.7KOHM-0603-1_10W-1% R?
U 1 1 5F2662F4
P 3100 7500
AR Path="/5F2662F4" Ref="R?"  Part="1" 
AR Path="/5EC40A6A/5F2662F4" Ref="R?"  Part="1" 
F 0 "R?" V 3005 7568 45  0000 L CNN
F 1 "4.7KOHM-0603-1_10W-1%" V 3089 7568 45  0000 L CNN
F 2 "0603" H 3100 7650 20  0001 C CNN
F 3 "" H 3100 7500 60  0001 C CNN
F 4 "RES-07857" V 3184 7568 60  0000 L CNN "Field4"
	1    3100 7500
	0    -1   -1   0   
$EndComp
$Comp
L SparkFun-Jumpers:JUMPER-SMT_2_NO JP?
U 1 1 5F2662FB
P 2750 8600
F 0 "JP?" H 2750 8830 45  0000 C CNN
F 1 "JUMPER-SMT_2_NO" H 2750 8746 45  0000 C CNN
F 2 "SMT-JUMPER_2_NO" H 2750 8800 20  0001 C CNN
F 3 "" H 2750 8600 60  0001 C CNN
F 4 "" H 2750 8757 60  0000 C CNN "PROD_ID"
	1    2750 8600
	-1   0    0    1   
$EndComp
$Comp
L SparkFun-Jumpers:JUMPER-SMT_2_NO JP?
U 1 1 5F266302
P 2750 7800
F 0 "JP?" H 2750 8030 45  0000 C CNN
F 1 "JUMPER-SMT_2_NO" H 2750 7946 45  0000 C CNN
F 2 "SMT-JUMPER_2_NO" H 2750 8000 20  0001 C CNN
F 3 "" H 2750 7800 60  0001 C CNN
F 4 "" H 2750 7957 60  0000 C CNN "PROD_ID"
	1    2750 7800
	-1   0    0    1   
$EndComp
Wire Wire Line
	3100 8500 3100 8600
Wire Wire Line
	3100 7700 3100 7800
Wire Wire Line
	2350 7800 2600 7800
Wire Wire Line
	2600 8600 2350 8600
Wire Wire Line
	2900 7800 3100 7800
Connection ~ 3100 7800
Wire Wire Line
	3100 7800 3100 8100
Wire Wire Line
	2900 8600 3100 8600
Connection ~ 3100 8600
Wire Wire Line
	3100 8600 3100 8900
Text Label 3100 7050 3    47   ~ 0
VDDB
Wire Wire Line
	3100 7050 3100 7300
$Comp
L SparkFun-PowerSymbols:GND #GND?
U 1 1 5F266314
P 3100 9600
AR Path="/5F266314" Ref="#GND?"  Part="1" 
AR Path="/5EC40A6A/5F266314" Ref="#GND?"  Part="1" 
F 0 "#GND?" H 3150 9550 45  0001 L BNN
F 1 "GND" H 3100 9430 45  0000 C CNN
F 2 "" H 3100 9500 60  0001 C CNN
F 3 "" H 3100 9500 60  0001 C CNN
	1    3100 9600
	1    0    0    -1  
$EndComp
$Comp
L SparkFun-Jumpers:JUMPER-SMT_2_NO JP?
U 1 1 5F26631B
P 3100 9450
F 0 "JP?" V 3058 9554 45  0000 L CNN
F 1 "JUMPER-SMT_2_NO" V 3142 9554 45  0000 L CNN
F 2 "SMT-JUMPER_2_NO" H 3100 9650 20  0001 C CNN
F 3 "" H 3100 9450 60  0001 C CNN
F 4 "" V 3184 9554 60  0000 L CNN "PROD_ID"
	1    3100 9450
	0    -1   -1   0   
$EndComp
$Comp
L SparkFun-PowerSymbols:3.3V #SUPPLY?
U 1 1 5F29FA68
P 1050 5600
F 0 "#SUPPLY?" H 1100 5600 45  0001 L BNN
F 1 "3.3V" H 1050 5770 45  0000 C CNN
F 2 "" H 1050 5781 60  0000 C CNN
F 3 "" H 1050 5600 60  0001 C CNN
	1    1050 5600
	0    -1   -1   0   
$EndComp
$Comp
L SparkFun-PowerSymbols:3.3V #SUPPLY?
U 1 1 5F2A28CB
P 1050 6100
F 0 "#SUPPLY?" H 1100 6100 45  0001 L BNN
F 1 "3.3V" H 1050 6270 45  0000 C CNN
F 2 "" H 1050 6281 60  0000 C CNN
F 3 "" H 1050 6100 60  0001 C CNN
	1    1050 6100
	0    -1   -1   0   
$EndComp
Wire Wire Line
	1050 5600 1200 5600
Wire Wire Line
	1200 6100 1050 6100
Wire Wire Line
	2100 1300 2300 1300
$Comp
L SparkFun-PowerSymbols:3.3V #SUPPLY?
U 1 1 5F2DD93B
P 2250 5000
F 0 "#SUPPLY?" H 2300 5000 45  0001 L BNN
F 1 "3.3V" H 2250 5170 45  0000 C CNN
F 2 "" H 2250 5181 60  0000 C CNN
F 3 "" H 2250 5000 60  0001 C CNN
	1    2250 5000
	0    -1   -1   0   
$EndComp
Wire Wire Line
	2250 5000 2400 5000
Wire Wire Line
	2800 5000 2950 5000
Wire Notes Line
	600  6550 600  9950
Wire Notes Line
	600  9950 3400 9950
Wire Notes Line
	3400 9950 3400 6550
Wire Notes Line
	3400 6550 600  6550
Wire Notes Line
	600  3100 600  6500
Wire Notes Line
	3400 3100 600  3100
Wire Notes Line
	600  6500 3400 6500
Wire Notes Line
	3400 6500 3400 3100
Text Notes 850  3550 0    50   ~ 0
Using RJ-45 cables CAT-5 cables
$Comp
L SparkFun-Resistors:1KOHM-0603-1_10W-1% R?
U 1 1 5F3E52BF
P 4900 6050
F 0 "R?" V 4805 5982 45  0000 R CNN
F 1 "1KOHM-0603-1_10W-1%" V 4889 5982 45  0000 R CNN
F 2 "0603" H 4900 6200 20  0001 C CNN
F 3 "" H 4900 6050 60  0001 C CNN
F 4 "RES-07856" V 4984 5982 60  0000 R CNN "Field4"
	1    4900 6050
	0    1    1    0   
$EndComp
$Comp
L SparkFun-Capacitors:0.1UF-0603-25V-5% C?
U 1 1 5F40B75E
P 5500 6050
F 0 "C?" H 5608 6195 45  0000 L CNN
F 1 "0.1UF-0603-25V-5%" H 5608 6111 45  0000 L CNN
F 2 "0603" H 5500 6300 20  0001 C CNN
F 3 "" H 5500 6050 50  0001 C CNN
F 4 "CAP-08604" H 5608 6016 60  0000 L CNN "Field4"
	1    5500 6050
	1    0    0    -1  
$EndComp
Wire Wire Line
	5500 6150 5500 6250
Wire Wire Line
	5500 5850 5500 5750
Wire Wire Line
	5500 5750 5400 5750
Wire Wire Line
	5000 5750 4900 5750
Wire Wire Line
	4900 5750 4900 5850
$Comp
L SparkFun-Resistors:10KOHM-0603-1_10W-1% R?
U 1 1 5F41C99A
P 5500 5450
F 0 "R?" V 5405 5518 45  0000 L CNN
F 1 "10KOHM-0603-1_10W-1%" V 5489 5518 45  0000 L CNN
F 2 "0603" H 5500 5600 20  0001 C CNN
F 3 "" H 5500 5450 60  0001 C CNN
F 4 "RES-00824" V 5584 5518 60  0000 L CNN "Field4"
	1    5500 5450
	0    1    1    0   
$EndComp
Wire Wire Line
	5500 5750 5500 5650
Connection ~ 5500 5750
$Comp
L SparkFun-Switches:ROCKER_SWITCH-SPST_PTH_RIGHT_ANGLE S?
U 1 1 5F446F64
P 5200 6900
AR Path="/5F446F64" Ref="S?"  Part="1" 
AR Path="/5EC40A6A/5F446F64" Ref="S?"  Part="1" 
F 0 "S?" H 5200 7210 45  0000 C CNN
F 1 "ROCKER_SWITCH-SPST_PTH_RIGHT_ANGLE" H 4750 7100 45  0000 C CNN
F 2 "Switches:RockerSwitch_RA" H 5200 7100 20  0001 C CNN
F 3 "" H 5200 6900 50  0001 C CNN
F 4 "SWCH-08863" H 5100 7000 60  0000 C CNN "Field4"
	1    5200 6900
	1    0    0    -1  
$EndComp
$Comp
L SparkFun-Resistors:1KOHM-0603-1_10W-1% R?
U 1 1 5F446F71
P 4900 7200
F 0 "R?" V 4805 7132 45  0000 R CNN
F 1 "1KOHM-0603-1_10W-1%" V 4889 7132 45  0000 R CNN
F 2 "0603" H 4900 7350 20  0001 C CNN
F 3 "" H 4900 7200 60  0001 C CNN
F 4 "RES-07856" V 4984 7132 60  0000 R CNN "Field4"
	1    4900 7200
	0    1    1    0   
$EndComp
$Comp
L SparkFun-Capacitors:0.1UF-0603-25V-5% C?
U 1 1 5F446F78
P 5500 7200
F 0 "C?" H 5608 7345 45  0000 L CNN
F 1 "0.1UF-0603-25V-5%" H 5608 7261 45  0000 L CNN
F 2 "0603" H 5500 7450 20  0001 C CNN
F 3 "" H 5500 7200 50  0001 C CNN
F 4 "CAP-08604" H 5608 7166 60  0000 L CNN "Field4"
	1    5500 7200
	1    0    0    -1  
$EndComp
Wire Wire Line
	5500 7300 5500 7400
Wire Wire Line
	5500 7000 5500 6900
Wire Wire Line
	5500 6900 5400 6900
Wire Wire Line
	5000 6900 4900 6900
Wire Wire Line
	4900 6900 4900 7000
Wire Wire Line
	5500 6900 5500 6800
Connection ~ 5500 6900
$Comp
L SparkFun-Resistors:10KOHM-0603-1_10W-1% R?
U 1 1 5F446F8A
P 5500 6600
F 0 "R?" V 5405 6668 45  0000 L CNN
F 1 "10KOHM-0603-1_10W-1%" V 5489 6668 45  0000 L CNN
F 2 "0603" H 5500 6750 20  0001 C CNN
F 3 "" H 5500 6600 60  0001 C CNN
F 4 "RES-00824" V 5584 6668 60  0000 L CNN "Field4"
	1    5500 6600
	0    1    1    0   
$EndComp
$Comp
L SparkFun-Switches:ROCKER_SWITCH-SPST_PTH_RIGHT_ANGLE S?
U 1 1 5F4668A0
P 5200 4600
AR Path="/5F4668A0" Ref="S?"  Part="1" 
AR Path="/5EC40A6A/5F4668A0" Ref="S?"  Part="1" 
F 0 "S?" H 5200 4910 45  0000 C CNN
F 1 "ROCKER_SWITCH-SPST_PTH_RIGHT_ANGLE" H 4750 4800 45  0000 C CNN
F 2 "Switches:RockerSwitch_RA" H 5200 4800 20  0001 C CNN
F 3 "" H 5200 4600 50  0001 C CNN
F 4 "SWCH-08863" H 5100 4700 60  0000 C CNN "Field4"
	1    5200 4600
	1    0    0    -1  
$EndComp
$Comp
L SparkFun-Resistors:1KOHM-0603-1_10W-1% R?
U 1 1 5F4668A7
P 4900 4900
F 0 "R?" V 4805 4832 45  0000 R CNN
F 1 "1KOHM-0603-1_10W-1%" V 4889 4832 45  0000 R CNN
F 2 "0603" H 4900 5050 20  0001 C CNN
F 3 "" H 4900 4900 60  0001 C CNN
F 4 "RES-07856" V 4984 4832 60  0000 R CNN "Field4"
	1    4900 4900
	0    1    1    0   
$EndComp
$Comp
L SparkFun-Capacitors:0.1UF-0603-25V-5% C?
U 1 1 5F4668AE
P 5500 4900
F 0 "C?" H 5608 5045 45  0000 L CNN
F 1 "0.1UF-0603-25V-5%" H 5608 4961 45  0000 L CNN
F 2 "0603" H 5500 5150 20  0001 C CNN
F 3 "" H 5500 4900 50  0001 C CNN
F 4 "CAP-08604" H 5608 4866 60  0000 L CNN "Field4"
	1    5500 4900
	1    0    0    -1  
$EndComp
Wire Wire Line
	5500 5000 5500 5100
Wire Wire Line
	5500 4700 5500 4600
Wire Wire Line
	5500 4600 5400 4600
Wire Wire Line
	5000 4600 4900 4600
Wire Wire Line
	4900 4600 4900 4700
Wire Wire Line
	5500 4600 5500 4500
Connection ~ 5500 4600
$Comp
L SparkFun-Resistors:10KOHM-0603-1_10W-1% R?
U 1 1 5F4668BC
P 5500 4300
F 0 "R?" V 5405 4368 45  0000 L CNN
F 1 "10KOHM-0603-1_10W-1%" V 5489 4368 45  0000 L CNN
F 2 "0603" H 5500 4450 20  0001 C CNN
F 3 "" H 5500 4300 60  0001 C CNN
F 4 "RES-00824" V 5584 4368 60  0000 L CNN "Field4"
	1    5500 4300
	0    1    1    0   
$EndComp
$Comp
L SparkFun-Switches:ROCKER_SWITCH-SPST_PTH_RIGHT_ANGLE S?
U 1 1 5F46A92C
P 5200 3450
AR Path="/5F46A92C" Ref="S?"  Part="1" 
AR Path="/5EC40A6A/5F46A92C" Ref="S?"  Part="1" 
F 0 "S?" H 5200 3760 45  0000 C CNN
F 1 "ROCKER_SWITCH-SPST_PTH_RIGHT_ANGLE" H 4750 3650 45  0000 C CNN
F 2 "Switches:RockerSwitch_RA" H 5200 3650 20  0001 C CNN
F 3 "" H 5200 3450 50  0001 C CNN
F 4 "SWCH-08863" H 5100 3550 60  0000 C CNN "Field4"
	1    5200 3450
	1    0    0    -1  
$EndComp
$Comp
L SparkFun-Resistors:1KOHM-0603-1_10W-1% R?
U 1 1 5F46A933
P 4900 3750
F 0 "R?" V 4805 3682 45  0000 R CNN
F 1 "1KOHM-0603-1_10W-1%" V 4889 3682 45  0000 R CNN
F 2 "0603" H 4900 3900 20  0001 C CNN
F 3 "" H 4900 3750 60  0001 C CNN
F 4 "RES-07856" V 4984 3682 60  0000 R CNN "Field4"
	1    4900 3750
	0    1    1    0   
$EndComp
$Comp
L SparkFun-Capacitors:0.1UF-0603-25V-5% C?
U 1 1 5F46A93A
P 5500 3750
F 0 "C?" H 5608 3895 45  0000 L CNN
F 1 "0.1UF-0603-25V-5%" H 5608 3811 45  0000 L CNN
F 2 "0603" H 5500 4000 20  0001 C CNN
F 3 "" H 5500 3750 50  0001 C CNN
F 4 "CAP-08604" H 5608 3716 60  0000 L CNN "Field4"
	1    5500 3750
	1    0    0    -1  
$EndComp
Wire Wire Line
	5500 3850 5500 3950
Wire Wire Line
	5500 3550 5500 3450
Wire Wire Line
	5500 3450 5400 3450
Wire Wire Line
	5000 3450 4900 3450
Wire Wire Line
	4900 3450 4900 3550
Wire Wire Line
	5500 3450 5500 3350
Connection ~ 5500 3450
$Comp
L SparkFun-Resistors:10KOHM-0603-1_10W-1% R?
U 1 1 5F46A948
P 5500 3150
F 0 "R?" V 5405 3218 45  0000 L CNN
F 1 "10KOHM-0603-1_10W-1%" V 5489 3218 45  0000 L CNN
F 2 "0603" H 5500 3300 20  0001 C CNN
F 3 "" H 5500 3150 60  0001 C CNN
F 4 "RES-00824" V 5584 3218 60  0000 L CNN "Field4"
	1    5500 3150
	0    1    1    0   
$EndComp
Wire Wire Line
	5500 3950 4900 3950
Wire Wire Line
	5500 5100 4900 5100
Wire Wire Line
	5500 6250 4900 6250
Wire Wire Line
	5500 7400 4900 7400
Wire Wire Line
	4900 3950 3850 3950
Wire Wire Line
	3850 7400 4900 7400
Connection ~ 4900 3950
Connection ~ 4900 7400
Wire Wire Line
	4900 6250 3850 6250
Connection ~ 4900 6250
Connection ~ 3850 6250
Wire Wire Line
	3850 6250 3850 7400
Wire Wire Line
	4900 5100 3850 5100
Connection ~ 4900 5100
Connection ~ 3850 5100
Wire Wire Line
	3850 5100 3850 6250
Wire Wire Line
	3850 3950 3850 5100
Wire Wire Line
	5500 2950 3650 2950
Wire Wire Line
	3650 2950 3650 4100
Wire Wire Line
	5500 4100 3650 4100
Connection ~ 3650 4100
Wire Wire Line
	5500 5250 3650 5250
Wire Wire Line
	3650 4100 3650 5250
Wire Wire Line
	5500 6400 3650 6400
Wire Wire Line
	3650 6400 3650 5250
Connection ~ 3650 5250
$Comp
L SparkFun-PowerSymbols:3.3V #SUPPLY?
U 1 1 5F4A45CE
P 3650 1450
F 0 "#SUPPLY?" H 3700 1450 45  0001 L BNN
F 1 "3.3V" H 3650 1620 45  0000 C CNN
F 2 "" H 3650 1631 60  0000 C CNN
F 3 "" H 3650 1450 60  0001 C CNN
	1    3650 1450
	1    0    0    -1  
$EndComp
$Comp
L SparkFun-PowerSymbols:GND #GND?
U 1 1 5F4A91AD
P 3850 7400
AR Path="/5F4A91AD" Ref="#GND?"  Part="1" 
AR Path="/5EC40A6A/5F4A91AD" Ref="#GND?"  Part="1" 
F 0 "#GND?" H 3900 7350 45  0001 L BNN
F 1 "GND" H 3850 7230 45  0000 C CNN
F 2 "" H 3850 7300 60  0001 C CNN
F 3 "" H 3850 7300 60  0001 C CNN
	1    3850 7400
	1    0    0    -1  
$EndComp
$Comp
L dk_Logic-Gates-and-Inverters:SN74HC14N U?
U 1 1 5F4B31BA
P 7100 4700
F 0 "U?" H 6950 5350 60  0000 C CNN
F 1 "SN74HC14N" H 6750 5250 60  0000 C CNN
F 2 "digikey-footprints:DIP-14_W3mm" H 7300 4900 60  0001 L CNN
F 3 "http://www.ti.com/general/docs/suppproductinfo.tsp?distId=10&gotoUrl=http%3A%2F%2Fwww.ti.com%2Flit%2Fgpn%2Fsn74hc14" H 7300 5000 60  0001 L CNN
F 4 "296-1577-5-ND" H 7300 5100 60  0001 L CNN "Digi-Key_PN"
F 5 "SN74HC14N" H 7300 5200 60  0001 L CNN "MPN"
F 6 "Integrated Circuits (ICs)" H 7300 5300 60  0001 L CNN "Category"
F 7 "Logic - Gates and Inverters" H 7300 5400 60  0001 L CNN "Family"
F 8 "http://www.ti.com/general/docs/suppproductinfo.tsp?distId=10&gotoUrl=http%3A%2F%2Fwww.ti.com%2Flit%2Fgpn%2Fsn74hc14" H 7300 5500 60  0001 L CNN "DK_Datasheet_Link"
F 9 "/product-detail/en/texas-instruments/SN74HC14N/296-1577-5-ND/277223" H 7300 5600 60  0001 L CNN "DK_Detail_Page"
F 10 "IC INVERTER SCHMITT 6CH 14DIP" H 7300 5700 60  0001 L CNN "Description"
F 11 "Texas Instruments" H 7300 5800 60  0001 L CNN "Manufacturer"
F 12 "Active" H 7300 5900 60  0001 L CNN "Status"
	1    7100 4700
	1    0    0    -1  
$EndComp
NoConn ~ 7400 4900
$Comp
L SparkFun-PowerSymbols:GND #GND?
U 1 1 5F52935E
P 7100 5200
AR Path="/5F52935E" Ref="#GND?"  Part="1" 
AR Path="/5EC40A6A/5F52935E" Ref="#GND?"  Part="1" 
F 0 "#GND?" H 7150 5150 45  0001 L BNN
F 1 "GND" H 7100 5030 45  0000 C CNN
F 2 "" H 7100 5100 60  0001 C CNN
F 3 "" H 7100 5100 60  0001 C CNN
	1    7100 5200
	1    0    0    -1  
$EndComp
Connection ~ 3850 7400
Wire Wire Line
	5650 1700 5650 1450
Wire Wire Line
	5650 1450 3650 1450
Wire Wire Line
	3650 1450 3650 2950
Connection ~ 5650 1700
Connection ~ 3650 2950
Connection ~ 3650 1450
Wire Wire Line
	3850 3950 3850 2800
Wire Wire Line
	3850 2800 5500 2800
Wire Wire Line
	5500 2800 5500 2600
Connection ~ 3850 3950
Connection ~ 5500 2600
Wire Wire Line
	5500 4600 6800 4600
Wire Wire Line
	5500 3450 6600 3450
Wire Wire Line
	6600 3450 6600 4500
Wire Wire Line
	6600 4500 6800 4500
Wire Wire Line
	6700 2500 6700 4400
Wire Wire Line
	6700 4400 6800 4400
Wire Wire Line
	5400 2500 6700 2500
Wire Wire Line
	5500 5750 6600 5750
Wire Wire Line
	6600 5750 6600 4700
Wire Wire Line
	6600 4700 6800 4700
Wire Wire Line
	5500 6900 6700 6900
Wire Wire Line
	6700 6900 6700 4800
Wire Wire Line
	6700 4800 6800 4800
NoConn ~ 6800 4900
$Comp
L SparkFun-Jumpers:JUMPER-SMT_2_NC JP?
U 1 1 5F6AD6B7
P 1250 4150
F 0 "JP?" H 1250 4380 45  0000 C CNN
F 1 "JUMPER-SMT_2_NC" H 1250 4296 45  0000 C CNN
F 2 "SMT-JUMPER_2_NC" H 1250 4350 20  0001 C CNN
F 3 "" H 1250 4150 60  0001 C CNN
F 4 "" H 1250 4307 60  0000 C CNN "PROD_ID"
	1    1250 4150
	1    0    0    -1  
$EndComp
Wire Wire Line
	1400 4150 1850 4150
$EndSCHEMATC
