EESchema Schematic File Version 4
EELAYER 30 0
EELAYER END
$Descr A4 8268 11693 portrait
encoding utf-8
Sheet 4 6
Title "Lab Lifting Platform"
Date ""
Rev ""
Comp "Heriot Watt University, Dubai"
Comment1 ""
Comment2 ""
Comment3 ""
Comment4 ""
$EndDescr
Text GLabel 2950 4100 2    50   Output ~ 0
SCL
Text GLabel 2950 3900 2    50   Output ~ 0
SDA
$Comp
L SparkFun-Capacitors:0.1UF-0603-100V-10% C?
U 1 1 5EC473D9
P 1850 9050
AR Path="/5EC473D9" Ref="C?"  Part="1" 
AR Path="/5EC40A6A/5EC473D9" Ref="C13"  Part="1" 
F 0 "C13" V 2190 9100 45  0000 C CNN
F 1 "0.1UF-0603-100V-10%" V 2106 9100 45  0000 C CNN
F 2 "0603" H 1850 9300 20  0001 C CNN
F 3 "" H 1850 9050 50  0001 C CNN
F 4 "CAP-08390" V 2011 9100 60  0000 C CNN "Field4"
	1    1850 9050
	0    -1   1    0   
$EndComp
$Comp
L SparkFun-Capacitors:100UF-POLAR-10X10.5-63V-20% C?
U 1 1 5EC473E0
P 1850 8550
AR Path="/5EC473E0" Ref="C?"  Part="1" 
AR Path="/5EC40A6A/5EC473E0" Ref="C12"  Part="1" 
F 0 "C12" V 1490 8500 45  0000 C CNN
F 1 "100UF-POLAR-10X10.5-63V-20%" V 1574 8500 45  0000 C CNN
F 2 "NIC_10X10.5_CAP" H 1850 8800 20  0001 C CNN
F 3 "" H 1850 8550 50  0001 C CNN
F 4 "CAP-08362" V 1669 8500 60  0000 C CNN "Field4"
	1    1850 8550
	0    1    -1   0   
$EndComp
Text Notes 1350 3400 0    157  Italic 0
Differential I2C
$Comp
L PCA9615:PCA9615 U?
U 1 1 5EC47433
P 2250 4000
AR Path="/5EC47433" Ref="U?"  Part="1" 
AR Path="/5EC40A6A/5EC47433" Ref="U5"  Part="1" 
F 0 "U5" H 2250 3563 60  0000 C CNN
F 1 "PCA9615" H 2250 3669 60  0000 C CNN
F 2 "" H 2250 4000 60  0001 C CNN
F 3 "" H 2250 4000 60  0001 C CNN
	1    2250 4000
	-1   0    0    -1  
$EndComp
Text Notes 1150 5800 0    50   ~ 0
Why bother with differential I2C?\n\nUnfortunately, two conductive wires that extend for some \ndistance acts as a "bus capacitor" that  degrades signal \nquality. Using stronger pullup resistors can charge that \nparasitic capacitor quicker but also means the higher current \nthat flows through your fragile sensors, which places a hard \nlimit on such finesses. Also, low-to-high transitions take time\nwhile high-to-low transitions are instantaneous because of\nthe parasitic capacitance.\n\nUsing a differential pair helps reduce \nthe parastic losses and is more able to handle EMI.
Text Notes 4500 2850 0    157  Italic 0
Terminal Resistances\n
$Comp
L SparkFun-PowerSymbols:5V #SUPPLY0115
U 1 1 5EC55D4F
P 5600 1700
F 0 "#SUPPLY0115" H 5650 1700 45  0001 L BNN
F 1 "5V" H 5600 1870 45  0000 C CNN
F 2 "" H 5600 1881 60  0000 C CNN
F 3 "" H 5600 1700 60  0001 C CNN
	1    5600 1700
	1    0    0    -1  
$EndComp
$Comp
L SparkFun-PowerSymbols:3.3V #SUPPLY0116
U 1 1 5EC55D55
P 5400 1700
F 0 "#SUPPLY0116" H 5450 1700 45  0001 L BNN
F 1 "3.3V" H 5400 1870 45  0000 C CNN
F 2 "" H 5400 1881 60  0000 C CNN
F 3 "" H 5400 1700 60  0001 C CNN
	1    5400 1700
	1    0    0    -1  
$EndComp
$Comp
L SparkFun-Jumpers:JUMPER-SMT_2_NO JP10
U 1 1 5EC55D61
P 5600 1850
F 0 "JP10" V 5505 1954 45  0000 L CNN
F 1 "JUMPER-SMT_2_NO" V 5589 1954 45  0000 L CNN
F 2 "SMT-JUMPER_2_NO" H 5600 2050 20  0001 C CNN
F 3 "" H 5600 1850 60  0001 C CNN
F 4 "" V 5684 1954 60  0000 L CNN "PROD_ID"
	1    5600 1850
	0    1    1    0   
$EndComp
$Comp
L SparkFun-Jumpers:JUMPER-SMT_2_NO JP5
U 1 1 5EC55D69
P 5400 1850
F 0 "JP5" V 5305 1746 45  0000 R CNN
F 1 "JUMPER-SMT_2_NO" V 5389 1746 45  0000 R CNN
F 2 "SMT-JUMPER_2_NO" H 5400 2050 20  0001 C CNN
F 3 "" H 5400 1850 60  0001 C CNN
F 4 "" V 5484 1746 60  0000 R CNN "PROD_ID"
	1    5400 1850
	0    1    1    0   
$EndComp
Text Notes 4500 1250 0    157  Italic 0
Bus Voltage Selection
Text Label 2900 4000 2    47   ~ 0
EN
Wire Wire Line
	2900 4000 2750 4000
Text Label 2900 3800 2    47   ~ 0
VDDA
Wire Wire Line
	2900 3800 2750 3800
Text Label 1750 3800 2    47   ~ 0
VDDB
Wire Wire Line
	1950 8550 2150 8550
$Comp
L SparkFun-PowerSymbols:GND #GND0119
U 1 1 5EF6F1B2
P 2150 8550
F 0 "#GND0119" H 2200 8500 45  0001 L BNN
F 1 "GND" H 2150 8380 45  0000 C CNN
F 2 "" H 2150 8450 60  0001 C CNN
F 3 "" H 2150 8450 60  0001 C CNN
	1    2150 8550
	0    -1   -1   0   
$EndComp
Wire Wire Line
	1950 9050 2150 9050
$Comp
L SparkFun-PowerSymbols:GND #GND0120
U 1 1 5EF95092
P 2150 9050
F 0 "#GND0120" H 2200 9000 45  0001 L BNN
F 1 "GND" H 2150 8880 45  0000 C CNN
F 2 "" H 2150 8950 60  0001 C CNN
F 3 "" H 2150 8950 60  0001 C CNN
	1    2150 9050
	0    -1   -1   0   
$EndComp
$Comp
L SparkFun-Capacitors:0.1UF-0603-100V-10% C?
U 1 1 5EF998DE
P 3100 9050
AR Path="/5EF998DE" Ref="C?"  Part="1" 
AR Path="/5EC40A6A/5EF998DE" Ref="C15"  Part="1" 
F 0 "C15" V 3440 9100 45  0000 C CNN
F 1 "0.1UF-0603-100V-10%" V 3356 9100 45  0000 C CNN
F 2 "0603" H 3100 9300 20  0001 C CNN
F 3 "" H 3100 9050 50  0001 C CNN
F 4 "CAP-08390" V 3261 9100 60  0000 C CNN "Field4"
	1    3100 9050
	0    -1   1    0   
$EndComp
$Comp
L SparkFun-Capacitors:100UF-POLAR-10X10.5-63V-20% C?
U 1 1 5EF998E5
P 3100 8550
AR Path="/5EF998E5" Ref="C?"  Part="1" 
AR Path="/5EC40A6A/5EF998E5" Ref="C14"  Part="1" 
F 0 "C14" V 2740 8500 45  0000 C CNN
F 1 "100UF-POLAR-10X10.5-63V-20%" V 2824 8500 45  0000 C CNN
F 2 "NIC_10X10.5_CAP" H 3100 8800 20  0001 C CNN
F 3 "" H 3100 8550 50  0001 C CNN
F 4 "CAP-08362" V 2919 8500 60  0000 C CNN "Field4"
	1    3100 8550
	0    1    -1   0   
$EndComp
Text Label 2600 8550 0    47   ~ 0
VDDB
Wire Wire Line
	3200 8550 3400 8550
Wire Wire Line
	2600 8550 2900 8550
$Comp
L SparkFun-PowerSymbols:GND #GND0121
U 1 1 5EF998EE
P 3400 8550
F 0 "#GND0121" H 3450 8500 45  0001 L BNN
F 1 "GND" H 3400 8380 45  0000 C CNN
F 2 "" H 3400 8450 60  0001 C CNN
F 3 "" H 3400 8450 60  0001 C CNN
	1    3400 8550
	0    -1   -1   0   
$EndComp
Text Label 2600 9050 0    47   ~ 0
VDDB
Wire Wire Line
	2600 9050 2900 9050
Wire Wire Line
	3200 9050 3400 9050
$Comp
L SparkFun-PowerSymbols:GND #GND0122
U 1 1 5EF998F7
P 3400 9050
F 0 "#GND0122" H 3450 9000 45  0001 L BNN
F 1 "GND" H 3400 8880 45  0000 C CNN
F 2 "" H 3400 8950 60  0001 C CNN
F 3 "" H 3400 8950 60  0001 C CNN
	1    3400 9050
	0    -1   -1   0   
$EndComp
$Comp
L SparkFun-Jumpers:JUMPER-SMT_3_2-NC JP4
U 1 1 5F028E52
P 3050 7950
F 0 "JP4" V 3280 7950 45  0000 C CNN
F 1 "JUMPER-SMT_3_2-NC" V 3196 7950 45  0000 C CNN
F 2 "SMT-JUMPER_3_2-NC" H 3050 8200 20  0001 C CNN
F 3 "" H 3050 7950 60  0001 C CNN
F 4 "" V 3207 7950 60  0000 C CNN "PROD_ID"
	1    3050 7950
	0    -1   -1   0   
$EndComp
Text GLabel 3400 7950 2    50   Output ~ 0
SDA
Text GLabel 3400 8200 2    50   Output ~ 0
SCL
Wire Wire Line
	3400 8200 3050 8200
Wire Wire Line
	3050 8200 3050 8100
$Comp
L SparkFun-Connectors:RJ45-8 J1
U 1 1 5F04E0D6
P 2400 6700
F 0 "J1" H 1672 6955 45  0000 R CNN
F 1 "RJ45-8" H 1672 7039 45  0000 R CNN
F 2 "RJ45-8" H 2400 7650 20  0001 C CNN
F 3 "" H 2400 6700 50  0001 C CNN
F 4 "CONN-08506" H 1672 7134 60  0000 R CNN "Field4"
	1    2400 6700
	-1   0    0    1   
$EndComp
NoConn ~ 2300 6900
NoConn ~ 2300 7200
Text Label 1250 7100 0    47   ~ 0
VDDB
Wire Wire Line
	1250 7100 1550 7100
$Comp
L SparkFun-PowerSymbols:GND #GND?
U 1 1 5F06C342
P 2300 7000
AR Path="/5F06C342" Ref="#GND?"  Part="1" 
AR Path="/5EC40A6A/5F06C342" Ref="#GND0123"  Part="1" 
F 0 "#GND0123" H 2350 6950 45  0001 L BNN
F 1 "GND" H 2300 6830 45  0000 C CNN
F 2 "" H 2300 6900 60  0001 C CNN
F 3 "" H 2300 6900 60  0001 C CNN
	1    2300 7000
	0    1    1    0   
$EndComp
Wire Wire Line
	2950 4100 2750 4100
Text Notes 1300 6400 0    157  ~ 0
RJ-45 Connector\n
Text Label 6150 3800 2    50   ~ 0
DSDA+
Text Label 6150 4600 2    50   ~ 0
DSDA-
Text Label 2300 7400 2    50   ~ 0
DSDA+
Text Label 2300 7300 2    50   ~ 0
DSDA-
Text Label 2300 6800 2    50   ~ 0
DSCL+
Text Label 2300 6700 2    50   ~ 0
DSCL-
Text Label 1750 4100 2    50   ~ 0
DSCL+
Text Label 1750 4200 2    50   ~ 0
DSCL-
Text Label 1750 3900 2    50   ~ 0
DSDA+
Text Label 1750 4000 2    50   ~ 0
DSDA-
$Comp
L SparkFun-Jumpers:JUMPER-SMT_2_NO JP2
U 1 1 5F1DEAD4
P 1850 7800
F 0 "JP2" H 1850 8030 45  0000 C CNN
F 1 "JUMPER-SMT_2_NO" H 1850 7946 45  0000 C CNN
F 2 "SMT-JUMPER_2_NO" H 1850 8000 20  0001 C CNN
F 3 "" H 1850 7800 60  0001 C CNN
F 4 "" H 1850 7957 60  0000 C CNN "PROD_ID"
	1    1850 7800
	1    0    0    -1  
$EndComp
Text Label 2300 7800 2    47   ~ 0
VDDB
Wire Wire Line
	2300 7800 2000 7800
$Comp
L SparkFun-PowerSymbols:5V #SUPPLY0117
U 1 1 5F1DEADC
P 1500 7800
F 0 "#SUPPLY0117" H 1550 7800 45  0001 L BNN
F 1 "5V" H 1500 7970 45  0000 C CNN
F 2 "" H 1500 7981 60  0000 C CNN
F 3 "" H 1500 7800 60  0001 C CNN
	1    1500 7800
	0    -1   -1   0   
$EndComp
Wire Wire Line
	1500 7800 1700 7800
Text Label 2300 8200 2    47   ~ 0
VDDB
Wire Wire Line
	2300 8200 2000 8200
Wire Wire Line
	1500 8200 1700 8200
$Comp
L SparkFun-PowerSymbols:3.3V #SUPPLY0118
U 1 1 5F1DEAED
P 1500 8200
F 0 "#SUPPLY0118" H 1550 8200 45  0001 L BNN
F 1 "3.3V" H 1500 8370 45  0000 C CNN
F 2 "" H 1500 8381 60  0000 C CNN
F 3 "" H 1500 8200 60  0001 C CNN
	1    1500 8200
	0    -1   -1   0   
$EndComp
$Comp
L SparkFun-Jumpers:JUMPER-SMT_2_NC JP3
U 1 1 5F1F17EB
P 1850 8200
F 0 "JP3" H 1850 8430 45  0000 C CNN
F 1 "JUMPER-SMT_2_NC" H 1850 8346 45  0000 C CNN
F 2 "SMT-JUMPER_2_NC" H 1850 8400 20  0001 C CNN
F 3 "" H 1850 8200 60  0001 C CNN
F 4 "" H 1850 8357 60  0000 C CNN "PROD_ID"
	1    1850 8200
	1    0    0    -1  
$EndComp
$Comp
L SparkFun-Resistors:4.7KOHM-0603-1_10W-1% R?
U 1 1 5F20744A
P 5600 4300
AR Path="/5F20744A" Ref="R?"  Part="1" 
AR Path="/5EC40A6A/5F20744A" Ref="R21"  Part="1" 
F 0 "R21" V 5505 4368 45  0000 L CNN
F 1 "4.7KOHM-0603-1_10W-1%" V 5589 4368 45  0000 L CNN
F 2 "0603" H 5600 4450 20  0001 C CNN
F 3 "" H 5600 4300 60  0001 C CNN
F 4 "RES-07857" V 5684 4368 60  0000 L CNN "Field4"
	1    5600 4300
	0    -1   -1   0   
$EndComp
$Comp
L SparkFun-Resistors:4.7KOHM-0603-1_10W-1% R?
U 1 1 5F207451
P 5600 5100
AR Path="/5F207451" Ref="R?"  Part="1" 
AR Path="/5EC40A6A/5F207451" Ref="R22"  Part="1" 
F 0 "R22" V 5505 5168 45  0000 L CNN
F 1 "4.7KOHM-0603-1_10W-1%" V 5589 5168 45  0000 L CNN
F 2 "0603" H 5600 5250 20  0001 C CNN
F 3 "" H 5600 5100 60  0001 C CNN
F 4 "RES-07857" V 5684 5168 60  0000 L CNN "Field4"
	1    5600 5100
	0    -1   -1   0   
$EndComp
$Comp
L SparkFun-Resistors:4.7KOHM-0603-1_10W-1% R?
U 1 1 5F207458
P 5600 3500
AR Path="/5F207458" Ref="R?"  Part="1" 
AR Path="/5EC40A6A/5F207458" Ref="R20"  Part="1" 
F 0 "R20" V 5505 3568 45  0000 L CNN
F 1 "4.7KOHM-0603-1_10W-1%" V 5589 3568 45  0000 L CNN
F 2 "0603" H 5600 3650 20  0001 C CNN
F 3 "" H 5600 3500 60  0001 C CNN
F 4 "RES-07857" V 5684 3568 60  0000 L CNN "Field4"
	1    5600 3500
	0    -1   -1   0   
$EndComp
$Comp
L SparkFun-Jumpers:JUMPER-SMT_2_NO JP8
U 1 1 5F20745F
P 5250 4600
F 0 "JP8" H 5250 4830 45  0000 C CNN
F 1 "JUMPER-SMT_2_NO" H 5250 4746 45  0000 C CNN
F 2 "SMT-JUMPER_2_NO" H 5250 4800 20  0001 C CNN
F 3 "" H 5250 4600 60  0001 C CNN
F 4 "" H 5250 4757 60  0000 C CNN "PROD_ID"
	1    5250 4600
	-1   0    0    1   
$EndComp
$Comp
L SparkFun-Jumpers:JUMPER-SMT_2_NO JP7
U 1 1 5F207466
P 5250 3800
F 0 "JP7" H 5250 4030 45  0000 C CNN
F 1 "JUMPER-SMT_2_NO" H 5250 3946 45  0000 C CNN
F 2 "SMT-JUMPER_2_NO" H 5250 4000 20  0001 C CNN
F 3 "" H 5250 3800 60  0001 C CNN
F 4 "" H 5250 3957 60  0000 C CNN "PROD_ID"
	1    5250 3800
	-1   0    0    1   
$EndComp
Wire Wire Line
	5600 4500 5600 4600
Wire Wire Line
	5600 3700 5600 3800
Wire Wire Line
	4850 3800 5100 3800
Wire Wire Line
	5100 4600 4850 4600
Wire Wire Line
	5400 3800 5600 3800
Connection ~ 5600 3800
Wire Wire Line
	5600 3800 5600 4100
Wire Wire Line
	5400 4600 5600 4600
Connection ~ 5600 4600
Wire Wire Line
	5600 4600 5600 4900
Text Label 5600 3050 3    47   ~ 0
VDDB
Wire Wire Line
	5600 3050 5600 3300
$Comp
L SparkFun-PowerSymbols:GND #GND?
U 1 1 5F2115ED
P 5600 5600
AR Path="/5F2115ED" Ref="#GND?"  Part="1" 
AR Path="/5EC40A6A/5F2115ED" Ref="#GND0124"  Part="1" 
F 0 "#GND0124" H 5650 5550 45  0001 L BNN
F 1 "GND" H 5600 5430 45  0000 C CNN
F 2 "" H 5600 5500 60  0001 C CNN
F 3 "" H 5600 5500 60  0001 C CNN
	1    5600 5600
	1    0    0    -1  
$EndComp
$Comp
L SparkFun-Jumpers:JUMPER-SMT_2_NO JP9
U 1 1 5F2115F4
P 5600 5450
F 0 "JP9" V 5558 5554 45  0000 L CNN
F 1 "JUMPER-SMT_2_NO" V 5642 5554 45  0000 L CNN
F 2 "SMT-JUMPER_2_NO" H 5600 5650 20  0001 C CNN
F 3 "" H 5600 5450 60  0001 C CNN
F 4 "" V 5684 5554 60  0000 L CNN "PROD_ID"
	1    5600 5450
	0    -1   -1   0   
$EndComp
Text Label 4850 3800 2    50   ~ 0
DSCL+
Text Label 4850 4600 2    50   ~ 0
DSCL-
$Comp
L SparkFun-Resistors:4.7KOHM-0603-1_10W-1% R?
U 1 1 5F2662E6
P 6900 4300
AR Path="/5F2662E6" Ref="R?"  Part="1" 
AR Path="/5EC40A6A/5F2662E6" Ref="R26"  Part="1" 
F 0 "R26" V 6805 4368 45  0000 L CNN
F 1 "4.7KOHM-0603-1_10W-1%" V 6889 4368 45  0000 L CNN
F 2 "0603" H 6900 4450 20  0001 C CNN
F 3 "" H 6900 4300 60  0001 C CNN
F 4 "RES-07857" V 6984 4368 60  0000 L CNN "Field4"
	1    6900 4300
	0    -1   -1   0   
$EndComp
$Comp
L SparkFun-Resistors:4.7KOHM-0603-1_10W-1% R?
U 1 1 5F2662ED
P 6900 5100
AR Path="/5F2662ED" Ref="R?"  Part="1" 
AR Path="/5EC40A6A/5F2662ED" Ref="R27"  Part="1" 
F 0 "R27" V 6805 5168 45  0000 L CNN
F 1 "4.7KOHM-0603-1_10W-1%" V 6889 5168 45  0000 L CNN
F 2 "0603" H 6900 5250 20  0001 C CNN
F 3 "" H 6900 5100 60  0001 C CNN
F 4 "RES-07857" V 6984 5168 60  0000 L CNN "Field4"
	1    6900 5100
	0    -1   -1   0   
$EndComp
$Comp
L SparkFun-Resistors:4.7KOHM-0603-1_10W-1% R?
U 1 1 5F2662F4
P 6900 3500
AR Path="/5F2662F4" Ref="R?"  Part="1" 
AR Path="/5EC40A6A/5F2662F4" Ref="R25"  Part="1" 
F 0 "R25" V 6805 3568 45  0000 L CNN
F 1 "4.7KOHM-0603-1_10W-1%" V 6889 3568 45  0000 L CNN
F 2 "0603" H 6900 3650 20  0001 C CNN
F 3 "" H 6900 3500 60  0001 C CNN
F 4 "RES-07857" V 6984 3568 60  0000 L CNN "Field4"
	1    6900 3500
	0    -1   -1   0   
$EndComp
$Comp
L SparkFun-Jumpers:JUMPER-SMT_2_NO JP13
U 1 1 5F2662FB
P 6550 4600
F 0 "JP13" H 6550 4830 45  0000 C CNN
F 1 "JUMPER-SMT_2_NO" H 6550 4746 45  0000 C CNN
F 2 "SMT-JUMPER_2_NO" H 6550 4800 20  0001 C CNN
F 3 "" H 6550 4600 60  0001 C CNN
F 4 "" H 6550 4757 60  0000 C CNN "PROD_ID"
	1    6550 4600
	-1   0    0    1   
$EndComp
$Comp
L SparkFun-Jumpers:JUMPER-SMT_2_NO JP12
U 1 1 5F266302
P 6550 3800
F 0 "JP12" H 6550 4030 45  0000 C CNN
F 1 "JUMPER-SMT_2_NO" H 6550 3946 45  0000 C CNN
F 2 "SMT-JUMPER_2_NO" H 6550 4000 20  0001 C CNN
F 3 "" H 6550 3800 60  0001 C CNN
F 4 "" H 6550 3957 60  0000 C CNN "PROD_ID"
	1    6550 3800
	-1   0    0    1   
$EndComp
Wire Wire Line
	6900 4500 6900 4600
Wire Wire Line
	6900 3700 6900 3800
Wire Wire Line
	6150 3800 6400 3800
Wire Wire Line
	6400 4600 6150 4600
Wire Wire Line
	6700 3800 6900 3800
Connection ~ 6900 3800
Wire Wire Line
	6900 3800 6900 4100
Wire Wire Line
	6700 4600 6900 4600
Connection ~ 6900 4600
Wire Wire Line
	6900 4600 6900 4900
Text Label 6900 3050 3    47   ~ 0
VDDB
Wire Wire Line
	6900 3050 6900 3300
$Comp
L SparkFun-PowerSymbols:GND #GND?
U 1 1 5F266314
P 6900 5600
AR Path="/5F266314" Ref="#GND?"  Part="1" 
AR Path="/5EC40A6A/5F266314" Ref="#GND0125"  Part="1" 
F 0 "#GND0125" H 6950 5550 45  0001 L BNN
F 1 "GND" H 6900 5430 45  0000 C CNN
F 2 "" H 6900 5500 60  0001 C CNN
F 3 "" H 6900 5500 60  0001 C CNN
	1    6900 5600
	1    0    0    -1  
$EndComp
$Comp
L SparkFun-Jumpers:JUMPER-SMT_2_NO JP14
U 1 1 5F26631B
P 6900 5450
F 0 "JP14" V 6858 5554 45  0000 L CNN
F 1 "JUMPER-SMT_2_NO" V 6942 5554 45  0000 L CNN
F 2 "SMT-JUMPER_2_NO" H 6900 5650 20  0001 C CNN
F 3 "" H 6900 5450 60  0001 C CNN
F 4 "" V 6984 5554 60  0000 L CNN "PROD_ID"
	1    6900 5450
	0    -1   -1   0   
$EndComp
$Comp
L SparkFun-PowerSymbols:3.3V #SUPPLY0119
U 1 1 5F29FA68
P 1500 8550
F 0 "#SUPPLY0119" H 1550 8550 45  0001 L BNN
F 1 "3.3V" H 1500 8720 45  0000 C CNN
F 2 "" H 1500 8731 60  0000 C CNN
F 3 "" H 1500 8550 60  0001 C CNN
	1    1500 8550
	0    -1   -1   0   
$EndComp
$Comp
L SparkFun-PowerSymbols:3.3V #SUPPLY0120
U 1 1 5F2A28CB
P 1500 9050
F 0 "#SUPPLY0120" H 1550 9050 45  0001 L BNN
F 1 "3.3V" H 1500 9220 45  0000 C CNN
F 2 "" H 1500 9231 60  0000 C CNN
F 3 "" H 1500 9050 60  0001 C CNN
	1    1500 9050
	0    -1   -1   0   
$EndComp
Wire Wire Line
	1500 8550 1650 8550
Wire Wire Line
	1650 9050 1500 9050
Wire Wire Line
	2750 3900 2950 3900
$Comp
L SparkFun-PowerSymbols:3.3V #SUPPLY0121
U 1 1 5F2DD93B
P 2700 7950
F 0 "#SUPPLY0121" H 2750 7950 45  0001 L BNN
F 1 "3.3V" H 2700 8120 45  0000 C CNN
F 2 "" H 2700 8131 60  0000 C CNN
F 3 "" H 2700 7950 60  0001 C CNN
	1    2700 7950
	0    -1   -1   0   
$EndComp
Wire Wire Line
	2700 7950 2850 7950
Wire Wire Line
	3250 7950 3400 7950
Wire Notes Line
	4400 2550 4400 5950
Wire Notes Line
	4400 5950 7200 5950
Wire Notes Line
	7200 5950 7200 2550
Wire Notes Line
	7200 2550 4400 2550
Wire Notes Line
	1050 6050 1050 9450
Wire Notes Line
	3850 6050 1050 6050
Wire Notes Line
	1050 9450 3850 9450
Wire Notes Line
	3850 9450 3850 6050
Text Notes 1300 6500 0    50   ~ 0
Using RJ-45 cables CAT-5 cables
$Comp
L SparkFun-Jumpers:JUMPER-SMT_2_NC JP1
U 1 1 5F6AD6B7
P 1700 7100
F 0 "JP1" H 1700 7330 45  0000 C CNN
F 1 "JUMPER-SMT_2_NC" H 1700 7246 45  0000 C CNN
F 2 "SMT-JUMPER_2_NC" H 1700 7300 20  0001 C CNN
F 3 "" H 1700 7100 60  0001 C CNN
F 4 "" H 1700 7257 60  0000 C CNN "PROD_ID"
	1    1700 7100
	1    0    0    -1  
$EndComp
Wire Wire Line
	1850 7100 2300 7100
Text Notes 1050 2600 0    50   ~ 0
Inter-Integrated Circuit (I2C)\n\nSDA: Serial Data, used to send and receive data\nSCL: Serial Clock, used to carry clock signal\n\nSynchronous protocol with only two wires. \nUsed quite a bit to interface with sensors.\n\n
Text Label 5700 2250 0    47   ~ 0
VDDB
Wire Wire Line
	5400 2250 5600 2250
Wire Wire Line
	5400 2000 5400 2250
Wire Wire Line
	5600 2000 5600 2250
Connection ~ 5600 2250
Wire Wire Line
	5600 2250 5700 2250
Wire Notes Line
	7200 850  4400 850 
Wire Notes Line
	4400 850  4400 2500
Wire Notes Line
	4400 2500 7200 2500
Wire Notes Line
	7200 2500 7200 850 
Text Notes -300 -700 0    157  ~ 0
TODO I2C Basics and common pitfalls
Wire Notes Line
	3850 3100 1050 3100
Wire Notes Line
	1050 6000 3850 6000
Wire Notes Line
	3850 6000 3850 3100
Wire Notes Line
	1050 3100 1050 6000
Text Notes 4300 6350 0    157  ~ 0
Double ended ethernet\n
$EndSCHEMATC
