EESchema Schematic File Version 4
EELAYER 30 0
EELAYER END
$Descr A4 8268 11693 portrait
encoding utf-8
Sheet 1 6
Title "Lab Lifting Platform"
Date ""
Rev ""
Comp "Heriot Watt University, Dubai"
Comment1 ""
Comment2 ""
Comment3 ""
Comment4 ""
$EndDescr
Text GLabel 3100 3400 2    50   Input ~ 0
SCL
Text GLabel 3100 3300 2    50   Input ~ 0
SDA
$Comp
L SparkFun-PowerSymbols:GND #GND0101
U 1 1 5EC4B0B4
P 1600 5250
F 0 "#GND0101" H 1650 5200 45  0001 L BNN
F 1 "GND" H 1600 5080 45  0000 C CNN
F 2 "" H 1600 5150 60  0001 C CNN
F 3 "" H 1600 5150 60  0001 C CNN
	1    1600 5250
	1    0    0    -1  
$EndComp
Wire Wire Line
	1700 4800 1600 4800
Wire Wire Line
	1600 4800 1600 4900
Wire Wire Line
	1700 4900 1600 4900
Connection ~ 1600 4900
Wire Wire Line
	1600 4900 1600 5000
Wire Wire Line
	1700 5000 1600 5000
Connection ~ 1600 5000
Wire Wire Line
	1600 5000 1600 5100
Wire Wire Line
	1700 5100 1600 5100
Connection ~ 1600 5100
Wire Wire Line
	1600 5100 1600 5250
$Comp
L SparkFun-LED:LED-BLUE0603 D1
U 1 1 5EC4B759
P 1600 6350
F 0 "D1" V 1910 6300 45  0000 C CNN
F 1 "LED-BLUE0603" V 1826 6300 45  0000 C CNN
F 2 "LED-0603" V 1900 6350 20  0001 C CNN
F 3 "" H 1600 6350 50  0001 C CNN
F 4 "DIO-08575" V 1731 6300 60  0000 C CNN "Field4"
	1    1600 6350
	0    -1   -1   0   
$EndComp
$Comp
L SparkFun-PowerSymbols:GND #GND0102
U 1 1 5EC4D4E3
P 2750 6500
F 0 "#GND0102" H 2800 6450 45  0001 L BNN
F 1 "GND" H 2750 6330 45  0000 C CNN
F 2 "" H 2750 6400 60  0001 C CNN
F 3 "" H 2750 6400 60  0001 C CNN
	1    2750 6500
	1    0    0    -1  
$EndComp
$Sheet
S 4850 4150 2150 350 
U 5EB96250
F0 "MotorDriver" 50
F1 "MotorDriver.sch" 50
$EndSheet
Text GLabel 3100 4100 2    47   Input ~ 0
STEP
Text GLabel 3100 4200 2    47   Input ~ 0
DIR
Text GLabel 3100 3600 2    50   Input ~ 0
SEL
Text GLabel 3100 2200 2    50   Input ~ 0
UP
Text GLabel 3100 2300 2    50   Input ~ 0
DOWN
Text GLabel 3100 2400 2    50   Input ~ 0
TOP
Text GLabel 3100 2500 2    50   Input ~ 0
BOTTOM
Text GLabel 3100 2600 2    50   Input ~ 0
VER
Text GLabel 3100 2700 2    50   Input ~ 0
HOR
Text Notes 4900 4400 0    157  ~ 0
Motor Driver
Text Notes 4900 3350 0    157  ~ 0
JOYSTICK\n
$Sheet
S 4850 4700 2150 350 
U 5EBB5EBC
F0 "Power Supply" 50
F1 "PowerSupply.sch" 50
$EndSheet
Text Notes 4900 2300 0    157  ~ 0
I2C\n
$Sheet
S 4850 2000 2150 350 
U 5EC40A6A
F0 "Communication" 50
F1 "I2C.sch" 50
$EndSheet
$Sheet
S 4850 3100 2150 350 
U 5F7937B3
F0 "UserInterface" 47
F1 "UserInterface.sch" 47
$EndSheet
Text Notes 3650 10300 0    157  ~ 0
Lab Lifting Platform
Text Notes 4900 4950 0    157  ~ 0
Power\n
Text GLabel 3100 3500 2    47   Input ~ 0
KEEPALIVE
Text GLabel 1700 3500 0    47   Input ~ 0
D+
Text GLabel 1700 3600 0    47   Input ~ 0
D-
$Sheet
S 4850 2550 2150 350 
U 5EAD2425
F0 "USB" 47
F1 "USB.sch" 47
$EndSheet
Text Notes 4900 2800 0    157  ~ 0
USB\n
Text GLabel 1700 3100 0    47   Input ~ 0
USB_BUS
Text GLabel 1700 3200 0    47   Input ~ 0
USB_VCC
Text GLabel 1700 4700 0    47   Input ~ 0
USB_GND
Text GLabel 1700 3300 0    47   Input ~ 0
USB_CAP
Text GLabel 1700 4000 0    47   Input ~ 0
XTAL1
Text GLabel 1700 4200 0    47   Input ~ 0
XTAL2
$Comp
L SparkFun-PowerSymbols:VCC #SUPPLY0132
U 1 1 5EB2C227
P 1650 2400
F 0 "#SUPPLY0132" H 1700 2400 45  0001 L BNN
F 1 "VCC" H 1650 2570 45  0000 C CNN
F 2 "" H 1650 2581 60  0000 C CNN
F 3 "" H 1650 2400 60  0001 C CNN
	1    1650 2400
	0    -1   -1   0   
$EndComp
Wire Wire Line
	1700 2600 1650 2600
Wire Wire Line
	1650 2600 1650 2500
Wire Wire Line
	1650 2500 1700 2500
Wire Wire Line
	1700 2300 1650 2300
Wire Wire Line
	1650 2300 1650 2400
Wire Wire Line
	1650 2400 1700 2400
Wire Wire Line
	1650 2400 1650 2500
Connection ~ 1650 2400
Connection ~ 1650 2500
Text GLabel 1700 4400 0    47   Input ~ 0
HWB
$Comp
L SparkFun-PowerSymbols:VCC #SUPPLY0133
U 1 1 5EB3C433
P 1250 6150
F 0 "#SUPPLY0133" H 1300 6150 45  0001 L BNN
F 1 "VCC" H 1250 6320 45  0000 C CNN
F 2 "" H 1250 6331 60  0000 C CNN
F 3 "" H 1250 6150 60  0001 C CNN
	1    1250 6150
	1    0    0    -1  
$EndComp
$Comp
L SparkFun-Resistors:1KOHM-0603-1_10W-1% R?
U 1 1 5EB3D2D2
P 2400 6350
F 0 "R?" H 2400 6650 45  0000 C CNN
F 1 "1KOHM-0603-1_10W-1%" H 2400 6566 45  0000 C CNN
F 2 "0603" H 2400 6500 20  0001 C CNN
F 3 "" H 2400 6350 60  0001 C CNN
F 4 "RES-07856" H 2400 6471 60  0000 C CNN "Field4"
	1    2400 6350
	1    0    0    -1  
$EndComp
Wire Wire Line
	2750 6500 2750 6350
Wire Wire Line
	2750 6350 2600 6350
Wire Wire Line
	2200 6350 1800 6350
Wire Wire Line
	1250 6150 1250 6350
Wire Wire Line
	1250 6350 1500 6350
Text GLabel 1500 6900 0    47   Input ~ 0
RESET
Text GLabel 1500 6900 0    47   Input ~ 0
RESET
$Comp
L SW-gElectroMech:SPST_MOM SW?
U 1 1 5EB3FD6F
P 1700 6900
F 0 "SW?" H 1700 7185 50  0000 C CNN
F 1 "SPST_MOM" H 1700 7094 50  0000 C CNN
F 2 "" H 1700 7100 50  0001 C CNN
F 3 "" H 1700 7100 50  0001 C CNN
	1    1700 6900
	1    0    0    -1  
$EndComp
$Comp
L SparkFun-PowerSymbols:GND #GND0140
U 1 1 5EB40891
P 1900 6900
F 0 "#GND0140" H 1950 6850 45  0001 L BNN
F 1 "GND" H 1900 6730 45  0000 C CNN
F 2 "" H 1900 6800 60  0001 C CNN
F 3 "" H 1900 6800 60  0001 C CNN
	1    1900 6900
	0    -1   -1   0   
$EndComp
Text GLabel 3100 3800 2    47   Input ~ 0
PE6
Text GLabel 1450 7350 0    47   Input ~ 0
PE6
$Comp
L SparkFun-LED:LED-RED0603 D?
U 1 1 5EB41E3C
P 1650 7350
F 0 "D?" V 1960 7300 45  0000 C CNN
F 1 "LED-RED0603" V 1876 7300 45  0000 C CNN
F 2 "LED-0603" V 1450 7350 20  0001 C CNN
F 3 "" H 1650 7350 50  0001 C CNN
F 4 "DIO-00819" V 1781 7300 60  0000 C CNN "Field4"
	1    1650 7350
	0    -1   -1   0   
$EndComp
$Comp
L SparkFun-Resistors:1KOHM-0603-1_10W-1% R?
U 1 1 5EB428EB
P 2500 7350
F 0 "R?" H 2500 7650 45  0000 C CNN
F 1 "1KOHM-0603-1_10W-1%" H 2500 7566 45  0000 C CNN
F 2 "0603" H 2500 7500 20  0001 C CNN
F 3 "" H 2500 7350 60  0001 C CNN
F 4 "RES-07856" H 2500 7471 60  0000 C CNN "Field4"
	1    2500 7350
	1    0    0    -1  
$EndComp
$Comp
L SparkFun-PowerSymbols:GND #GND0141
U 1 1 5EB43074
P 2700 7350
F 0 "#GND0141" H 2750 7300 45  0001 L BNN
F 1 "GND" H 2700 7180 45  0000 C CNN
F 2 "" H 2700 7250 60  0001 C CNN
F 3 "" H 2700 7250 60  0001 C CNN
	1    2700 7350
	0    -1   -1   0   
$EndComp
Wire Wire Line
	1850 7350 2300 7350
Wire Wire Line
	1550 7350 1450 7350
Wire Wire Line
	3150 7150 3150 7200
Wire Wire Line
	3150 6300 3150 6350
Wire Wire Line
	3150 6800 3150 6850
Connection ~ 3150 6800
Wire Wire Line
	3100 6800 3150 6800
Wire Wire Line
	3150 6750 3150 6800
$Comp
L SparkFun-PowerSymbols:GND #GND0142
U 1 1 5EB37B04
P 3150 7200
F 0 "#GND0142" H 3200 7150 45  0001 L BNN
F 1 "GND" H 3150 7030 45  0000 C CNN
F 2 "" H 3150 7100 60  0001 C CNN
F 3 "" H 3150 7100 60  0001 C CNN
	1    3150 7200
	1    0    0    -1  
$EndComp
$Comp
L SparkFun-Jumpers:JUMPER-SMT_2_NO JP?
U 1 1 5EB36FC7
P 3150 7000
F 0 "JP?" V 3055 7104 45  0000 L CNN
F 1 "JUMPER-SMT_2_NO" V 3139 7104 45  0000 L CNN
F 2 "SMT-JUMPER_2_NO" H 3150 7200 20  0001 C CNN
F 3 "" H 3150 7000 60  0001 C CNN
F 4 "XXX-00000" V 3234 7104 60  0000 L CNN "PROD_ID"
	1    3150 7000
	0    1    1    0   
$EndComp
$Comp
L SparkFun-PowerSymbols:VCC #SUPPLY0134
U 1 1 5EB36BD7
P 3150 6300
F 0 "#SUPPLY0134" H 3200 6300 45  0001 L BNN
F 1 "VCC" H 3150 6470 45  0000 C CNN
F 2 "" H 3150 6481 60  0000 C CNN
F 3 "" H 3150 6300 60  0001 C CNN
	1    3150 6300
	1    0    0    -1  
$EndComp
$Comp
L SparkFun-Resistors:10KOHM-0603-1_10W-1% R?
U 1 1 5EB35786
P 3150 6550
F 0 "R?" V 3055 6618 45  0000 L CNN
F 1 "10KOHM-0603-1_10W-1%" V 3139 6618 45  0000 L CNN
F 2 "0603" H 3150 6700 20  0001 C CNN
F 3 "" H 3150 6550 60  0001 C CNN
F 4 "RES-00824" V 3234 6618 60  0000 L CNN "Field4"
	1    3150 6550
	0    1    1    0   
$EndComp
Text GLabel 3100 6800 0    47   Input ~ 0
HWB
$Comp
L SparkFun-IC-Microcontroller:ATMEGA32U4 U1
U 1 1 5F415082
P 2400 3650
F 0 "U1" H 2868 5460 45  0000 C CNN
F 1 "ATMEGA32U4" H 2868 5376 45  0000 C CNN
F 2 "QFN-44" H 2400 5300 20  0001 C CNN
F 3 "" H 2400 3650 50  0001 C CNN
F 4 "IC-10828" H 2868 5281 60  0000 C CNN "Field4"
	1    2400 3650
	1    0    0    -1  
$EndComp
Text GLabel 1700 2700 0    47   Input ~ 0
AREF
Text GLabel 1500 1650 1    47   Input ~ 0
USB_ID
$Comp
L SparkFun-Resistors:10KOHM-0603-1_10W-1% R?
U 1 1 5EB560AD
P 1500 1850
F 0 "R?" V 1405 1918 45  0000 L CNN
F 1 "10KOHM-0603-1_10W-1%" V 1489 1918 45  0000 L CNN
F 2 "0603" H 1500 2000 20  0001 C CNN
F 3 "" H 1500 1850 60  0001 C CNN
F 4 "RES-00824" V 1584 1918 60  0000 L CNN "Field4"
	1    1500 1850
	0    1    1    0   
$EndComp
Wire Wire Line
	1500 2050 1500 2200
Wire Wire Line
	1500 2200 1700 2200
NoConn ~ 3100 4000
NoConn ~ 3100 4300
NoConn ~ 3100 4400
NoConn ~ 3100 4500
NoConn ~ 3100 4600
NoConn ~ 3100 4700
NoConn ~ 3100 4800
NoConn ~ 3100 5000
NoConn ~ 3100 3100
NoConn ~ 3100 3200
NoConn ~ 3100 3700
NoConn ~ 3100 3900
Text Notes 1000 8450 0    157  ~ 0
Link to Arduino Code that explains how flags are used.\nMinor description of protocols used
Text GLabel 1450 2200 0    47   Input ~ 0
RESET
Text GLabel 1450 2200 0    47   Input ~ 0
RESET
Wire Wire Line
	1500 2200 1450 2200
Connection ~ 1500 2200
$EndSCHEMATC
