EESchema Schematic File Version 4
EELAYER 30 0
EELAYER END
$Descr A4 8268 11693 portrait
encoding utf-8
Sheet 3 6
Title "Lab Lifting Platform"
Date ""
Rev ""
Comp "Heriot Watt University, Dubai"
Comment1 ""
Comment2 ""
Comment3 ""
Comment4 ""
$EndDescr
$Comp
L SparkFun-IC-Power:V_REG_AP2112K-3.3V U3
U 1 1 5EA59D8D
P 2850 2450
F 0 "U3" H 2850 3010 45  0000 C CNN
F 1 "V_REG_AP2112K-3.3V" H 2850 2926 45  0000 C CNN
F 2 "SOT23-5" H 2850 2850 20  0001 C CNN
F 3 "" H 2850 2450 60  0001 C CNN
F 4 "VREG-12457" H 2850 2831 60  0000 C CNN "Field4"
	1    2850 2450
	1    0    0    -1  
$EndComp
$Comp
L SparkFun-PowerSymbols:GND #GND0113
U 1 1 5EA5A0EC
P 2350 2800
F 0 "#GND0113" H 2400 2750 45  0001 L BNN
F 1 "GND" H 2350 2630 45  0000 C CNN
F 2 "" H 2350 2700 60  0001 C CNN
F 3 "" H 2350 2700 60  0001 C CNN
	1    2350 2800
	1    0    0    -1  
$EndComp
Wire Wire Line
	2500 2650 2350 2650
Wire Wire Line
	2350 2650 2350 2450
Wire Wire Line
	2350 2250 2500 2250
Wire Wire Line
	2500 2450 2350 2450
Connection ~ 2350 2450
Wire Wire Line
	2350 2450 2350 2250
Wire Wire Line
	2350 2650 2350 2800
Connection ~ 2350 2650
$Comp
L SparkFun-Capacitors:0.1UF-0603-25V-5% C5
U 1 1 5EA5A97E
P 1750 2600
F 0 "C5" H 1858 2745 45  0000 L CNN
F 1 "0.1UF-0603-25V-5%" H 1858 2661 45  0000 L CNN
F 2 "0603" H 1750 2850 20  0001 C CNN
F 3 "" H 1750 2600 50  0001 C CNN
F 4 "CAP-08604" H 1858 2566 60  0000 L CNN "Field4"
	1    1750 2600
	-1   0    0    -1  
$EndComp
$Comp
L SparkFun-PowerSymbols:GND #GND0114
U 1 1 5EA5B9FB
P 1750 2800
F 0 "#GND0114" H 1800 2750 45  0001 L BNN
F 1 "GND" H 1750 2630 45  0000 C CNN
F 2 "" H 1750 2700 60  0001 C CNN
F 3 "" H 1750 2700 60  0001 C CNN
	1    1750 2800
	1    0    0    -1  
$EndComp
Wire Wire Line
	2350 2250 1750 2250
Connection ~ 2350 2250
Wire Wire Line
	1750 2700 1750 2800
Wire Wire Line
	1750 2400 1750 2250
$Comp
L SparkFun-Capacitors:2.2UF-0603-10V-20% C9
U 1 1 5EA5C675
P 4100 2550
F 0 "C9" H 4208 2695 45  0000 L CNN
F 1 "2.2UF-0603-10V-20%" H 4208 2611 45  0000 L CNN
F 2 "0603" H 4100 2800 20  0001 C CNN
F 3 "" H 4100 2550 50  0001 C CNN
F 4 "CAP-07888" H 4208 2516 60  0000 L CNN "Field4"
	1    4100 2550
	-1   0    0    -1  
$EndComp
$Comp
L SparkFun-PowerSymbols:GND #GND0115
U 1 1 5EA5D41C
P 4100 2800
F 0 "#GND0115" H 4150 2750 45  0001 L BNN
F 1 "GND" H 4100 2630 45  0000 C CNN
F 2 "" H 4100 2700 60  0001 C CNN
F 3 "" H 4100 2700 60  0001 C CNN
	1    4100 2800
	1    0    0    -1  
$EndComp
Wire Wire Line
	4100 2650 4100 2800
Wire Wire Line
	4100 2250 4100 2350
NoConn ~ 3200 2650
Text Notes 900  2450 0    47   ~ 0
AP2112K-3.3V\n\nIout(max): 600mA\nVin(max) :6.5V\nVdrop(max): 250mV\nIq: 55uA
Text Notes 900  1500 0    157  Italic 0
3.3V linear regulator
$Comp
L SparkFun-PowerSymbols:3.3V #SUPPLY0110
U 1 1 5EA5DB36
P 4100 2100
F 0 "#SUPPLY0110" H 4150 2100 45  0001 L BNN
F 1 "3.3V" H 4100 2270 45  0000 C CNN
F 2 "" H 4100 2281 60  0000 C CNN
F 3 "" H 4100 2100 60  0001 C CNN
	1    4100 2100
	1    0    0    -1  
$EndComp
Wire Wire Line
	1750 2100 1750 2250
Connection ~ 1750 2250
Wire Wire Line
	4100 2100 4100 2250
Connection ~ 4100 2250
Text Notes 900  1800 0    47   ~ 0
While switch-mode converters are more efficient, \nlinear regulators are cheaper when it comes to \npowering small microcontrollers.  
Text Notes 900  3800 0    47   ~ 0
The AP2112 is a CMOS process low dropout linear regulator with enable function. \nThe regulator delivers a guaranteed 600mA (min.) continuous load current.\n\nPin 3 is Chip Enable, High for normal, Low for standby mode.\nPin 4 is Adjust Output but is inert for this model. \nIt is recommended to use X7R or X5R dielectric capacitor if \n1 uF ceramic capacitor is selected.
$Comp
L mp2307:MP2307 U4
U 1 1 5EA63C79
P 4100 5050
F 0 "U4" H 4544 5096 50  0000 L CNN
F 1 "MP2307" H 4544 5005 50  0000 L CNN
F 2 "kicad-libraries:SOP8" H 4350 5400 50  0001 L CNN
F 3 "https://cdn-shop.adafruit.com/datasheets/MP2307_r1.9.pdf" H 4100 5050 50  0001 C CNN
	1    4100 5050
	1    0    0    -1  
$EndComp
$Comp
L SparkFun-Resistors:100KOHM-0603-1_10W-1% R13
U 1 1 5EA645F4
P 3200 4950
F 0 "R13" H 3200 5250 45  0000 C CNN
F 1 "100KOHM-0603-1_10W-1%" H 3200 5166 45  0000 C CNN
F 2 "0603" H 3200 5100 20  0001 C CNN
F 3 "" H 3200 4950 60  0001 C CNN
F 4 "RES-07828" H 3200 5071 60  0000 C CNN "Field4"
	1    3200 4950
	1    0    0    -1  
$EndComp
$Comp
L SparkFun-Capacitors:10UF-0603-6.3V-20% C4
U 1 1 5EA64D3A
P 2600 5350
F 0 "C4" H 2708 5495 45  0000 L CNN
F 1 "10UF-0603-6.3V-20%" H 2708 5411 45  0000 L CNN
F 2 "0603" H 2600 5600 20  0001 C CNN
F 3 "" H 2600 5350 50  0001 C CNN
F 4 "CAP-11015" H 2708 5316 60  0000 L CNN "Field4"
	1    2600 5350
	-1   0    0    -1  
$EndComp
$Comp
L SparkFun-Capacitors:10NF-0603-50V-10% C7
U 1 1 5EA654A6
P 4200 4650
F 0 "C7" H 4308 4795 45  0000 L CNN
F 1 "10NF-0603-50V-10%" H 4308 4711 45  0000 L CNN
F 2 "0603" H 4200 4900 20  0001 C CNN
F 3 "" H 4200 4650 50  0001 C CNN
F 4 "CAP-00867" H 4308 4616 60  0000 L CNN "Field4"
	1    4200 4650
	1    0    0    -1  
$EndComp
$Comp
L dk_Fixed-Inductors:82103C L1
U 1 1 5EA65877
P 6350 4950
F 0 "L1" H 6350 5197 60  0000 C CNN
F 1 "82103C" H 6350 5091 60  0000 C CNN
F 2 "digikey-footprints:1206" H 6550 5150 60  0001 L CNN
F 3 "https://www.murata-ps.com/data/magnetics/kmp_8200c.pdf" H 6550 5250 60  0001 L CNN
F 4 "811-2473-1-ND" H 6550 5350 60  0001 L CNN "Digi-Key_PN"
F 5 "82103C" H 6550 5450 60  0001 L CNN "MPN"
F 6 "Inductors, Coils, Chokes" H 6550 5550 60  0001 L CNN "Category"
F 7 "Fixed Inductors" H 6550 5650 60  0001 L CNN "Family"
F 8 "https://www.murata-ps.com/data/magnetics/kmp_8200c.pdf" H 6550 5750 60  0001 L CNN "DK_Datasheet_Link"
F 9 "/product-detail/en/murata-power-solutions-inc/82103C/811-2473-1-ND/3178544" H 6550 5850 60  0001 L CNN "DK_Detail_Page"
F 10 "FIXED IND 10UH 500MA 400 MOHM" H 6550 5950 60  0001 L CNN "Description"
F 11 "Murata Power Solutions Inc." H 6550 6050 60  0001 L CNN "Manufacturer"
F 12 "Active" H 6550 6150 60  0001 L CNN "Status"
	1    6350 4950
	1    0    0    -1  
$EndComp
$Comp
L SparkFun-Resistors:10KOHM-0603-1_10W-1% R16
U 1 1 5EA6697B
P 6000 5950
F 0 "R16" H 6000 6250 45  0000 C CNN
F 1 "10KOHM-0603-1_10W-1%" H 6000 6166 45  0000 C CNN
F 2 "0603" H 6000 6100 20  0001 C CNN
F 3 "" H 6000 5950 60  0001 C CNN
F 4 "RES-00824" H 6000 6071 60  0000 C CNN "Field4"
	1    6000 5950
	1    0    0    -1  
$EndComp
$Comp
L SparkFun-Capacitors:3.3NF-0603-100V-10% C8
U 1 1 5EA69229
P 4200 5550
F 0 "C8" H 4308 5695 45  0000 L CNN
F 1 "3.3NF-0603-100V-10%" H 4308 5611 45  0000 L CNN
F 2 "0603" H 4200 5800 20  0001 C CNN
F 3 "" H 4200 5550 50  0001 C CNN
F 4 "CAP-09633" H 4308 5516 60  0000 L CNN "Field4"
	1    4200 5550
	1    0    0    -1  
$EndComp
$Comp
L SparkFun-Resistors:6.8KOHM-0603-1_10W-1% R14
U 1 1 5EA69BA2
P 4200 5850
F 0 "R14" V 4105 5918 45  0000 L CNN
F 1 "6.8KOHM-0603-1_10W-1%" V 4189 5918 45  0000 L CNN
F 2 "0603" H 4200 6000 20  0001 C CNN
F 3 "" H 4200 5850 60  0001 C CNN
F 4 "RES-08597" V 4284 5918 60  0000 L CNN "Field4"
	1    4200 5850
	0    1    1    0   
$EndComp
$Comp
L SparkFun-PowerSymbols:GND #GND0116
U 1 1 5EA6EE2C
P 4000 6200
F 0 "#GND0116" H 4050 6150 45  0001 L BNN
F 1 "GND" H 4000 6030 45  0000 C CNN
F 2 "" H 4000 6100 60  0001 C CNN
F 3 "" H 4000 6100 60  0001 C CNN
	1    4000 6200
	1    0    0    -1  
$EndComp
Wire Wire Line
	4000 5350 4000 6050
Wire Wire Line
	4000 6050 4200 6050
$Comp
L SparkFun-Capacitors:22UF-0805-6.3V-20% C11
U 1 1 5EA71790
P 6900 5950
F 0 "C11" V 6560 6000 45  0000 C CNN
F 1 "22UF-0805-6.3V-20%" V 6644 6000 45  0000 C CNN
F 2 "0805" H 6900 6200 20  0001 C CNN
F 3 "" H 6900 5950 50  0001 C CNN
F 4 "CAP-08402" V 6739 6000 60  0000 C CNN "Field4"
	1    6900 5950
	0    1    1    0   
$EndComp
Wire Wire Line
	5800 5950 5450 5950
Wire Wire Line
	6800 5950 6200 5950
Wire Wire Line
	7100 5950 7450 5950
Wire Wire Line
	3400 4950 3700 4950
Wire Wire Line
	2600 4950 2600 5150
$Comp
L SparkFun-PowerSymbols:GND #GND0117
U 1 1 5EA88894
P 2600 5450
F 0 "#GND0117" H 2650 5400 45  0001 L BNN
F 1 "GND" H 2600 5280 45  0000 C CNN
F 2 "" H 2600 5350 60  0001 C CNN
F 3 "" H 2600 5350 60  0001 C CNN
	1    2600 5450
	1    0    0    -1  
$EndComp
$Comp
L SparkFun-Capacitors:0.1UF-0603-25V-5% C6
U 1 1 5EA88FEE
P 3700 5250
F 0 "C6" H 3592 5205 45  0000 R CNN
F 1 "0.1UF-0603-25V-5%" H 3592 5289 45  0000 R CNN
F 2 "0603" H 3700 5500 20  0001 C CNN
F 3 "" H 3700 5250 50  0001 C CNN
F 4 "CAP-08604" H 3592 5384 60  0000 R CNN "Field4"
	1    3700 5250
	1    0    0    1   
$EndComp
$Comp
L SparkFun-PowerSymbols:GND #GND0118
U 1 1 5EA8A4C9
P 3700 5450
F 0 "#GND0118" H 3750 5400 45  0001 L BNN
F 1 "GND" H 3700 5280 45  0000 C CNN
F 2 "" H 3700 5350 60  0001 C CNN
F 3 "" H 3700 5350 60  0001 C CNN
	1    3700 5450
	1    0    0    -1  
$EndComp
Wire Wire Line
	4000 6200 4000 6050
Connection ~ 4000 6050
Wire Wire Line
	2600 4950 3000 4950
Wire Wire Line
	4000 4750 4000 4450
Wire Wire Line
	4000 4450 2600 4450
Wire Wire Line
	2600 4450 2600 4950
Connection ~ 2600 4950
Wire Wire Line
	6800 4450 6800 4950
$Comp
L SparkFun-PowerSymbols:VIN #SUPPLY0111
U 1 1 5EA8F44D
P 2600 4300
F 0 "#SUPPLY0111" H 2650 4300 45  0001 L BNN
F 1 "VIN" H 2600 4470 45  0000 C CNN
F 2 "" H 2600 4481 60  0000 C CNN
F 3 "" H 2600 4300 60  0001 C CNN
	1    2600 4300
	1    0    0    -1  
$EndComp
$Comp
L SparkFun-Resistors:43KOHM-0603-1_10W-1% R15
U 1 1 5EA9144E
P 6000 5450
F 0 "R15" H 6000 5750 45  0000 C CNN
F 1 "43KOHM-0603-1_10W-1%" H 6000 5666 45  0000 C CNN
F 2 "0603" H 6000 5600 20  0001 C CNN
F 3 "" H 6000 5450 60  0001 C CNN
F 4 "RES-07858" H 6000 5571 60  0000 C CNN "Field4"
	1    6000 5450
	1    0    0    -1  
$EndComp
$Comp
L SparkFun-Resistors:1.2MOHM-0603-1_10W-1% R17
U 1 1 5EA92AAD
P 6950 5450
F 0 "R17" H 6950 5750 45  0000 C CNN
F 1 "1.2MOHM-0603-1_10W-1%" H 6950 5666 45  0000 C CNN
F 2 "0603" H 6950 5600 20  0001 C CNN
F 3 "" H 6950 5450 60  0001 C CNN
F 4 "RES-10055" H 6950 5571 60  0000 C CNN "Field4"
	1    6950 5450
	1    0    0    -1  
$EndComp
Wire Wire Line
	5450 5450 5800 5450
Wire Wire Line
	6200 5450 6750 5450
Wire Wire Line
	7150 5450 7450 5450
Connection ~ 7450 5450
Wire Wire Line
	7450 5450 7450 5950
Wire Wire Line
	2600 4300 2600 4450
Connection ~ 2600 4450
$Comp
L dk_Diodes-Rectifiers-Single:1N4148 D2
U 1 1 5EA9BA78
P 6300 4450
F 0 "D2" H 6350 4675 50  0000 C CNN
F 1 "1N4148" H 6350 4584 50  0000 C CNN
F 2 "digikey-footprints:Diode_DO-35_P10mm" H 6500 4650 60  0001 L CNN
F 3 "https://www.onsemi.com/pub/Collateral/1N914-D.PDF" H 6500 4750 60  0001 L CNN
F 4 "1N4148FS-ND" H 6500 4850 60  0001 L CNN "Digi-Key_PN"
F 5 "1N4148" H 6500 4950 60  0001 L CNN "MPN"
F 6 "Discrete Semiconductor Products" H 6500 5050 60  0001 L CNN "Category"
F 7 "Diodes - Rectifiers - Single" H 6500 5150 60  0001 L CNN "Family"
F 8 "https://www.onsemi.com/pub/Collateral/1N914-D.PDF" H 6500 5250 60  0001 L CNN "DK_Datasheet_Link"
F 9 "/product-detail/en/on-semiconductor/1N4148/1N4148FS-ND/458603" H 6500 5350 60  0001 L CNN "DK_Detail_Page"
F 10 "DIODE GEN PURP 100V 200MA DO35" H 6500 5450 60  0001 L CNN "Description"
F 11 "ON Semiconductor" H 6500 5550 60  0001 L CNN "Manufacturer"
F 12 "Active" H 6500 5650 60  0001 L CNN "Status"
	1    6300 4450
	1    0    0    -1  
$EndComp
Wire Wire Line
	5450 5950 5450 5450
Wire Wire Line
	6550 4950 6800 4950
Wire Wire Line
	6500 4450 6800 4450
Connection ~ 6800 4450
Wire Wire Line
	4500 4950 6150 4950
Wire Wire Line
	7450 4450 7450 5450
Wire Wire Line
	6800 4450 7450 4450
Wire Wire Line
	4500 5150 5450 5150
Wire Wire Line
	5450 5150 5450 5450
Connection ~ 5450 5450
$Comp
L SparkFun-PowerSymbols:5V #SUPPLY0112
U 1 1 5EABE242
P 7450 4300
F 0 "#SUPPLY0112" H 7500 4300 45  0001 L BNN
F 1 "5V" H 7450 4470 45  0000 C CNN
F 2 "" H 7450 4481 60  0000 C CNN
F 3 "" H 7450 4300 60  0001 C CNN
	1    7450 4300
	1    0    0    -1  
$EndComp
Wire Wire Line
	7450 4300 7450 4450
Connection ~ 7450 4450
Text Notes 4400 1050 0    157  Italic 0
Latching Power Switch
$Comp
L dk_Transistors-Bipolar-BJT-Single:2N3904 Q?
U 1 1 5EB64EC6
P 6950 2500
AR Path="/5EBB5EBC/5EB64EC6" Ref="Q?"  Part="1" 
AR Path="/5F7E9A9C/5EB64EC6" Ref="Q?"  Part="1" 
F 0 "Q?" H 7138 2553 60  0000 L CNN
F 1 "2N3904" H 7138 2447 60  0000 L CNN
F 2 "digikey-footprints:TO-92-3" H 7150 2700 60  0001 L CNN
F 3 "https://my.centralsemi.com/get_document.php?cmp=1&mergetype=pd&mergepath=pd&pdf_id=LSSGP072.PDF" H 7150 2800 60  0001 L CNN
F 4 "2N3904CS-ND" H 7150 2900 60  0001 L CNN "Digi-Key_PN"
F 5 "2N3904" H 7150 3000 60  0001 L CNN "MPN"
F 6 "Discrete Semiconductor Products" H 7150 3100 60  0001 L CNN "Category"
F 7 "Transistors - Bipolar (BJT) - Single" H 7150 3200 60  0001 L CNN "Family"
F 8 "https://my.centralsemi.com/get_document.php?cmp=1&mergetype=pd&mergepath=pd&pdf_id=LSSGP072.PDF" H 7150 3300 60  0001 L CNN "DK_Datasheet_Link"
F 9 "/product-detail/en/central-semiconductor-corp/2N3904/2N3904CS-ND/4806876" H 7150 3400 60  0001 L CNN "DK_Detail_Page"
F 10 "TRANS NPN 40V TO-92" H 7150 3500 60  0001 L CNN "Description"
F 11 "Central Semiconductor Corp" H 7150 3600 60  0001 L CNN "Manufacturer"
F 12 "Active" H 7150 3700 60  0001 L CNN "Status"
	1    6950 2500
	1    0    0    -1  
$EndComp
$Comp
L dk_Diodes-Rectifiers-Single:1N5819 D?
U 1 1 5EB64ED5
P 5950 3300
AR Path="/5EBB5EBC/5EB64ED5" Ref="D?"  Part="1" 
AR Path="/5F7E9A9C/5EB64ED5" Ref="D?"  Part="1" 
F 0 "D?" H 5950 3537 60  0000 C CNN
F 1 "1N5819" H 5950 3431 60  0000 C CNN
F 2 "digikey-footprints:DO-41" H 6150 3500 60  0001 L CNN
F 3 "https://www.onsemi.com/pub/Collateral/1N5817-D.PDF" H 6150 3600 60  0001 L CNN
F 4 "1N5819FSCT-ND" H 6150 3700 60  0001 L CNN "Digi-Key_PN"
F 5 "1N5819" H 6150 3800 60  0001 L CNN "MPN"
F 6 "Discrete Semiconductor Products" H 6150 3900 60  0001 L CNN "Category"
F 7 "Diodes - Rectifiers - Single" H 6150 4000 60  0001 L CNN "Family"
F 8 "https://www.onsemi.com/pub/Collateral/1N5817-D.PDF" H 6150 4100 60  0001 L CNN "DK_Datasheet_Link"
F 9 "/product-detail/en/on-semiconductor/1N5819/1N5819FSCT-ND/965482" H 6150 4200 60  0001 L CNN "DK_Detail_Page"
F 10 "DIODE SCHOTTKY 40V 1A DO41" H 6150 4300 60  0001 L CNN "Description"
F 11 "ON Semiconductor" H 6150 4400 60  0001 L CNN "Manufacturer"
F 12 "Active" H 6150 4500 60  0001 L CNN "Status"
	1    5950 3300
	1    0    0    -1  
$EndComp
$Comp
L SparkFun-Resistors:220KOHM-0603-1_10W-1% R?
U 1 1 5EB64EDC
P 4950 2800
AR Path="/5EBB5EBC/5EB64EDC" Ref="R?"  Part="1" 
AR Path="/5F7E9A9C/5EB64EDC" Ref="R?"  Part="1" 
F 0 "R?" H 4950 3100 45  0000 C CNN
F 1 "220KOHM-0603-1_10W-1%" H 4950 3016 45  0000 C CNN
F 2 "0603" H 4950 2950 20  0001 C CNN
F 3 "" H 4950 2800 60  0001 C CNN
F 4 "RES-08969" H 4950 2921 60  0000 C CNN "Field4"
	1    4950 2800
	1    0    0    -1  
$EndComp
$Comp
L SparkFun-Resistors:100KOHM-0603-1_10W-1% R?
U 1 1 5EB64EE3
P 5950 2050
AR Path="/5EBB5EBC/5EB64EE3" Ref="R?"  Part="1" 
AR Path="/5F7E9A9C/5EB64EE3" Ref="R?"  Part="1" 
F 0 "R?" H 5950 2350 45  0000 C CNN
F 1 "100KOHM-0603-1_10W-1%" H 5950 2266 45  0000 C CNN
F 2 "0603" H 5950 2200 20  0001 C CNN
F 3 "" H 5950 2050 60  0001 C CNN
F 4 "RES-07828" H 5950 2171 60  0000 C CNN "Field4"
	1    5950 2050
	1    0    0    -1  
$EndComp
$Comp
L dk_Pushbutton-Switches:GPTS203211B S?
U 1 1 5EB64EF2
P 4900 1550
AR Path="/5EBB5EBC/5EB64EF2" Ref="S?"  Part="1" 
AR Path="/5F7E9A9C/5EB64EF2" Ref="S?"  Part="1" 
F 0 "S?" H 4900 1825 50  0000 C CNN
F 1 "GPTS203211B" H 4900 1734 50  0000 C CNN
F 2 "digikey-footprints:PushButton_12x12mm_THT_GPTS203211B" H 5100 1750 50  0001 L CNN
F 3 "http://switches-connectors-custom.cwind.com/Asset/GPTS203211BR2.pdf" H 5100 1850 60  0001 L CNN
F 4 "CW181-ND" H 5100 1950 60  0001 L CNN "Digi-Key_PN"
F 5 "GPTS203211B" H 5100 2050 60  0001 L CNN "MPN"
F 6 "Switches" H 5100 2150 60  0001 L CNN "Category"
F 7 "Pushbutton Switches" H 5100 2250 60  0001 L CNN "Family"
F 8 "http://switches-connectors-custom.cwind.com/Asset/GPTS203211BR2.pdf" H 5100 2350 60  0001 L CNN "DK_Datasheet_Link"
F 9 "/product-detail/en/cw-industries/GPTS203211B/CW181-ND/3190590" H 5100 2450 60  0001 L CNN "DK_Detail_Page"
F 10 "SWITCH PUSHBUTTON SPST 1A 30V" H 5100 2550 60  0001 L CNN "Description"
F 11 "CW Industries" H 5100 2650 60  0001 L CNN "Manufacturer"
F 12 "Active" H 5100 2750 60  0001 L CNN "Status"
	1    4900 1550
	1    0    0    -1  
$EndComp
$Comp
L SparkFun-PowerSymbols:GND #GND0104
U 1 1 5EB64EF8
P 5350 2800
AR Path="/5EBB5EBC/5EB64EF8" Ref="#GND0104"  Part="1" 
AR Path="/5F7E9A9C/5EB64EF8" Ref="#GND?"  Part="1" 
F 0 "#GND0104" H 5400 2750 45  0001 L BNN
F 1 "GND" H 5350 2630 45  0000 C CNN
F 2 "" H 5350 2700 60  0001 C CNN
F 3 "" H 5350 2700 60  0001 C CNN
	1    5350 2800
	0    -1   -1   0   
$EndComp
$Comp
L SparkFun-Resistors:10KOHM-0603-1_10W-1% R?
U 1 1 5EB64EFF
P 4950 3300
AR Path="/5EBB5EBC/5EB64EFF" Ref="R?"  Part="1" 
AR Path="/5F7E9A9C/5EB64EFF" Ref="R?"  Part="1" 
F 0 "R?" H 4950 3600 45  0000 C CNN
F 1 "10KOHM-0603-1_10W-1%" H 4950 3516 45  0000 C CNN
F 2 "0603" H 4950 3450 20  0001 C CNN
F 3 "" H 4950 3300 60  0001 C CNN
F 4 "RES-00824" H 4950 3421 60  0000 C CNN "Field4"
	1    4950 3300
	1    0    0    -1  
$EndComp
$Comp
L SparkFun-Resistors:100KOHM-0603-1_10W-1% R?
U 1 1 5EB64F06
P 6950 3300
AR Path="/5EBB5EBC/5EB64F06" Ref="R?"  Part="1" 
AR Path="/5F7E9A9C/5EB64F06" Ref="R?"  Part="1" 
F 0 "R?" H 6950 3600 45  0000 C CNN
F 1 "100KOHM-0603-1_10W-1%" H 6950 3516 45  0000 C CNN
F 2 "0603" H 6950 3450 20  0001 C CNN
F 3 "" H 6950 3300 60  0001 C CNN
F 4 "RES-07828" H 6950 3421 60  0000 C CNN "Field4"
	1    6950 3300
	1    0    0    -1  
$EndComp
Wire Wire Line
	4450 3300 4750 3300
Wire Wire Line
	4450 2800 4750 2800
Wire Wire Line
	5150 3300 5750 3300
Wire Wire Line
	6150 3300 6450 3300
$Comp
L SparkFun-PowerSymbols:GND #GND0128
U 1 1 5EB64F11
P 7150 3300
AR Path="/5EBB5EBC/5EB64F11" Ref="#GND0128"  Part="1" 
AR Path="/5F7E9A9C/5EB64F11" Ref="#GND?"  Part="1" 
F 0 "#GND0128" H 7200 3250 45  0001 L BNN
F 1 "GND" H 7150 3130 45  0000 C CNN
F 2 "" H 7150 3200 60  0001 C CNN
F 3 "" H 7150 3200 60  0001 C CNN
	1    7150 3300
	0    -1   -1   0   
$EndComp
$Comp
L dk_Diodes-Rectifiers-Single:1N5819 D?
U 1 1 5EB64F20
P 5950 3800
AR Path="/5EBB5EBC/5EB64F20" Ref="D?"  Part="1" 
AR Path="/5F7E9A9C/5EB64F20" Ref="D?"  Part="1" 
F 0 "D?" H 5950 4037 60  0000 C CNN
F 1 "1N5819" H 5950 3931 60  0000 C CNN
F 2 "digikey-footprints:DO-41" H 6150 4000 60  0001 L CNN
F 3 "https://www.onsemi.com/pub/Collateral/1N5817-D.PDF" H 6150 4100 60  0001 L CNN
F 4 "1N5819FSCT-ND" H 6150 4200 60  0001 L CNN "Digi-Key_PN"
F 5 "1N5819" H 6150 4300 60  0001 L CNN "MPN"
F 6 "Discrete Semiconductor Products" H 6150 4400 60  0001 L CNN "Category"
F 7 "Diodes - Rectifiers - Single" H 6150 4500 60  0001 L CNN "Family"
F 8 "https://www.onsemi.com/pub/Collateral/1N5817-D.PDF" H 6150 4600 60  0001 L CNN "DK_Datasheet_Link"
F 9 "/product-detail/en/on-semiconductor/1N5819/1N5819FSCT-ND/965482" H 6150 4700 60  0001 L CNN "DK_Detail_Page"
F 10 "DIODE SCHOTTKY 40V 1A DO41" H 6150 4800 60  0001 L CNN "Description"
F 11 "ON Semiconductor" H 6150 4900 60  0001 L CNN "Manufacturer"
F 12 "Active" H 6150 5000 60  0001 L CNN "Status"
	1    5950 3800
	1    0    0    -1  
$EndComp
Wire Wire Line
	6150 3800 6450 3800
Wire Wire Line
	6450 3800 6450 3300
Connection ~ 6450 3300
Wire Wire Line
	6450 3300 6750 3300
$Comp
L SparkFun-PowerSymbols:GND #GND0129
U 1 1 5EB64F2A
P 7050 2700
AR Path="/5EBB5EBC/5EB64F2A" Ref="#GND0129"  Part="1" 
AR Path="/5F7E9A9C/5EB64F2A" Ref="#GND?"  Part="1" 
F 0 "#GND0129" H 7100 2650 45  0001 L BNN
F 1 "GND" H 7050 2530 45  0000 C CNN
F 2 "" H 7050 2600 60  0001 C CNN
F 3 "" H 7050 2600 60  0001 C CNN
	1    7050 2700
	1    0    0    -1  
$EndComp
Wire Wire Line
	6450 3300 6450 2500
Wire Wire Line
	6450 2500 6750 2500
Wire Wire Line
	5150 2800 5350 2800
$Comp
L SparkFun-DiscreteSemi:MOSFET_PCH-NDP6020P Q?
U 1 1 5EB64F34
P 6950 1650
AR Path="/5EBB5EBC/5EB64F34" Ref="Q?"  Part="1" 
AR Path="/5F7E9A9C/5EB64F34" Ref="Q?"  Part="1" 
F 0 "Q?" V 7347 1650 45  0000 C CNN
F 1 "MOSFET_PCH-NDP6020P" V 7263 1650 45  0000 C CNN
F 2 "TO220V" H 6950 1850 20  0001 C CNN
F 3 "" H 6950 1650 50  0001 C CNN
F 4 "TRANS-13060" V 7168 1650 60  0000 C CNN "Field4"
	1    6950 1650
	0    1    -1   0   
$EndComp
Wire Wire Line
	6850 2050 6850 1850
Wire Wire Line
	6150 2050 6850 2050
Wire Wire Line
	6850 2050 7050 2050
Connection ~ 6850 2050
Wire Wire Line
	5750 2050 5450 2050
Wire Wire Line
	5450 2050 5450 1550
Wire Wire Line
	5450 1550 6750 1550
Text GLabel 5750 3800 0    47   Input ~ 0
KEEPALIVE
Text Notes 4450 1150 0    47   ~ 0
The KEEPALIVE must be HIGH to keep power flowing
Wire Wire Line
	7050 2050 7050 2300
Wire Wire Line
	5450 1550 5100 1550
Connection ~ 5450 1550
Wire Wire Line
	4700 1550 4450 1550
Text Notes 2800 4350 0    157  Italic 0
Buck Converter
$Comp
L SparkFun-PowerSymbols:5V #SUPPLY0108
U 1 1 5EB76778
P 4450 1450
F 0 "#SUPPLY0108" H 4500 1450 45  0001 L BNN
F 1 "5V" H 4450 1620 45  0000 C CNN
F 2 "" H 4450 1631 60  0000 C CNN
F 3 "" H 4450 1450 60  0001 C CNN
	1    4450 1450
	1    0    0    -1  
$EndComp
$Comp
L SparkFun-PowerSymbols:VCC #SUPPLY0109
U 1 1 5EB7B20B
P 7150 1550
F 0 "#SUPPLY0109" H 7200 1550 45  0001 L BNN
F 1 "VCC" V 7150 1678 45  0000 L CNN
F 2 "" V 7192 1678 60  0000 L CNN
F 3 "" H 7150 1550 60  0001 C CNN
	1    7150 1550
	0    1    1    0   
$EndComp
Wire Wire Line
	4450 1450 4450 1550
$Comp
L SparkFun-PowerSymbols:VCC #SUPPLY?
U 1 1 5EB9309C
P 2550 9050
AR Path="/5EB96250/5EB9309C" Ref="#SUPPLY?"  Part="1" 
AR Path="/5EBB5EBC/5EB9309C" Ref="#SUPPLY0113"  Part="1" 
AR Path="/5EB9309C" Ref="#SUPPLY?"  Part="1" 
AR Path="/5F7E9A9C/5EB9309C" Ref="#SUPPLY?"  Part="1" 
F 0 "#SUPPLY0113" H 2600 9050 45  0001 L BNN
F 1 "VCC" H 2550 9220 45  0000 C CNN
F 2 "" H 2550 9231 60  0000 C CNN
F 3 "" H 2550 9050 60  0001 C CNN
	1    2550 9050
	1    0    0    -1  
$EndComp
$Comp
L SparkFun-PowerSymbols:GND #GND?
U 1 1 5EB930A2
P 2550 9350
AR Path="/5EB96250/5EB930A2" Ref="#GND?"  Part="1" 
AR Path="/5EBB5EBC/5EB930A2" Ref="#GND0130"  Part="1" 
AR Path="/5EB930A2" Ref="#GND?"  Part="1" 
AR Path="/5F7E9A9C/5EB930A2" Ref="#GND?"  Part="1" 
F 0 "#GND0130" H 2600 9300 45  0001 L BNN
F 1 "GND" H 2550 9180 45  0000 C CNN
F 2 "" H 2550 9250 60  0001 C CNN
F 3 "" H 2550 9250 60  0001 C CNN
	1    2550 9350
	1    0    0    -1  
$EndComp
$Comp
L SparkFun-Capacitors:0.1UF-0603-100V-10% C?
U 1 1 5EB930AF
P 2550 9150
AR Path="/5EB930AF" Ref="C?"  Part="1" 
AR Path="/5EB96250/5EB930AF" Ref="C?"  Part="1" 
AR Path="/5EBB5EBC/5EB930AF" Ref="C?"  Part="1" 
AR Path="/5F7E9A9C/5EB930AF" Ref="C?"  Part="1" 
F 0 "C?" H 2658 9295 45  0000 L CNN
F 1 "0.1UF-0603-100V-10%" H 2658 9211 45  0000 L CNN
F 2 "0603" H 2550 9400 20  0001 C CNN
F 3 "" H 2550 9150 50  0001 C CNN
F 4 "CAP-08390" H 2658 9116 60  0000 L CNN "Field4"
	1    2550 9150
	1    0    0    1   
$EndComp
Text Notes 1200 7450 0    47   ~ 0
Monitor the voltage and current and sends back\ninformation to master. Useful for logs
Text Notes 1150 7250 0    157  Italic 0
Power Monitor
$Comp
L SparkFun-PowerSymbols:VCC #SUPPLY?
U 1 1 5EB93167
P 2550 8200
AR Path="/5EB96250/5EB93167" Ref="#SUPPLY?"  Part="1" 
AR Path="/5EBB5EBC/5EB93167" Ref="#SUPPLY0114"  Part="1" 
AR Path="/5EB93167" Ref="#SUPPLY?"  Part="1" 
AR Path="/5F7E9A9C/5EB93167" Ref="#SUPPLY?"  Part="1" 
F 0 "#SUPPLY0114" H 2600 8200 45  0001 L BNN
F 1 "VCC" H 2550 8370 45  0000 C CNN
F 2 "" H 2550 8381 60  0000 C CNN
F 3 "" H 2550 8200 60  0001 C CNN
	1    2550 8200
	1    0    0    -1  
$EndComp
$Comp
L SparkFun-PowerSymbols:GND #GND?
U 1 1 5EB9316D
P 2550 8500
AR Path="/5EB96250/5EB9316D" Ref="#GND?"  Part="1" 
AR Path="/5EBB5EBC/5EB9316D" Ref="#GND0131"  Part="1" 
AR Path="/5EB9316D" Ref="#GND?"  Part="1" 
AR Path="/5F7E9A9C/5EB9316D" Ref="#GND?"  Part="1" 
F 0 "#GND0131" H 2600 8450 45  0001 L BNN
F 1 "GND" H 2550 8330 45  0000 C CNN
F 2 "" H 2550 8400 60  0001 C CNN
F 3 "" H 2550 8400 60  0001 C CNN
	1    2550 8500
	1    0    0    -1  
$EndComp
$Comp
L SparkFun-Capacitors:0.1UF-0603-100V-10% C?
U 1 1 5EB93174
P 2550 8300
AR Path="/5EB93174" Ref="C?"  Part="1" 
AR Path="/5EB96250/5EB93174" Ref="C?"  Part="1" 
AR Path="/5EBB5EBC/5EB93174" Ref="C?"  Part="1" 
AR Path="/5F7E9A9C/5EB93174" Ref="C?"  Part="1" 
F 0 "C?" H 2658 8445 45  0000 L CNN
F 1 "0.1UF-0603-100V-10%" H 2658 8361 45  0000 L CNN
F 2 "0603" H 2550 8550 20  0001 C CNN
F 3 "" H 2550 8300 50  0001 C CNN
F 4 "CAP-08390" H 2658 8266 60  0000 L CNN "Field4"
	1    2550 8300
	1    0    0    1   
$EndComp
Connection ~ 4450 1550
Wire Wire Line
	4450 1550 4450 2800
Connection ~ 4450 2800
Wire Wire Line
	4450 2800 4450 3300
Wire Wire Line
	3200 2250 4100 2250
Wire Notes Line
	800  1200 800  3900
Wire Notes Line
	800  3900 4250 3900
Wire Notes Line
	4250 3900 4250 1200
Wire Notes Line
	4250 1200 800  1200
Wire Notes Line
	4350 750  4350 3900
Wire Notes Line
	4350 3900 7600 3900
Wire Notes Line
	7600 3900 7600 750 
Wire Notes Line
	7600 750  4350 750 
$Comp
L SparkFun-PowerSymbols:GND #GND?
U 1 1 5EBC8ABD
P 6250 8700
AR Path="/5EB96250/5EBC8ABD" Ref="#GND?"  Part="1" 
AR Path="/5EBB5EBC/5EBC8ABD" Ref="#GND0132"  Part="1" 
AR Path="/5EBC8ABD" Ref="#GND?"  Part="1" 
AR Path="/5F7E9A9C/5EBC8ABD" Ref="#GND?"  Part="1" 
F 0 "#GND0132" H 6300 8650 45  0001 L BNN
F 1 "GND" H 6250 8530 45  0000 C CNN
F 2 "" H 6250 8600 60  0001 C CNN
F 3 "" H 6250 8600 60  0001 C CNN
	1    6250 8700
	0    1    1    0   
$EndComp
Wire Wire Line
	6250 8700 6400 8700
$Comp
L SparkFun-PowerSymbols:5V #SUPPLY0123
U 1 1 5EBC6B99
P 6400 8600
F 0 "#SUPPLY0123" H 6450 8600 45  0001 L BNN
F 1 "5V" H 6400 8770 45  0000 C CNN
F 2 "" H 6400 8781 60  0000 C CNN
F 3 "" H 6400 8600 60  0001 C CNN
	1    6400 8600
	0    -1   -1   0   
$EndComp
Text GLabel 6400 7100 0    47   Output ~ 0
OUT1A
Text GLabel 6400 7200 0    47   Output ~ 0
OUT1B
$Comp
L SparkFun-PowerSymbols:GND #GND?
U 1 1 5EB93161
P 4650 9550
AR Path="/5EB96250/5EB93161" Ref="#GND?"  Part="1" 
AR Path="/5EBB5EBC/5EB93161" Ref="#GND0133"  Part="1" 
AR Path="/5EB93161" Ref="#GND?"  Part="1" 
AR Path="/5F7E9A9C/5EB93161" Ref="#GND?"  Part="1" 
F 0 "#GND0133" H 4700 9500 45  0001 L BNN
F 1 "GND" H 4650 9380 45  0000 C CNN
F 2 "" H 4650 9450 60  0001 C CNN
F 3 "" H 4650 9450 60  0001 C CNN
	1    4650 9550
	1    0    0    -1  
$EndComp
$Comp
L SparkFun-PowerSymbols:GND #GND?
U 1 1 5EB9315B
P 5150 9550
AR Path="/5EB96250/5EB9315B" Ref="#GND?"  Part="1" 
AR Path="/5EBB5EBC/5EB9315B" Ref="#GND0134"  Part="1" 
AR Path="/5EB9315B" Ref="#GND?"  Part="1" 
AR Path="/5F7E9A9C/5EB9315B" Ref="#GND?"  Part="1" 
F 0 "#GND0134" H 5200 9500 45  0001 L BNN
F 1 "GND" H 5150 9380 45  0000 C CNN
F 2 "" H 5150 9450 60  0001 C CNN
F 3 "" H 5150 9450 60  0001 C CNN
	1    5150 9550
	1    0    0    -1  
$EndComp
Wire Wire Line
	4650 9000 4650 9150
Connection ~ 4650 9000
Wire Wire Line
	6400 9000 4650 9000
Connection ~ 5150 9100
Wire Wire Line
	5150 8850 5150 9100
Wire Wire Line
	4650 8850 4650 9000
Wire Wire Line
	5150 9100 5150 9150
Wire Wire Line
	6400 9100 5150 9100
$Comp
L SparkFun-PowerSymbols:VCC #SUPPLY?
U 1 1 5EB9314D
P 5150 8550
AR Path="/5EB96250/5EB9314D" Ref="#SUPPLY?"  Part="1" 
AR Path="/5EBB5EBC/5EB9314D" Ref="#SUPPLY0124"  Part="1" 
AR Path="/5EB9314D" Ref="#SUPPLY?"  Part="1" 
AR Path="/5F7E9A9C/5EB9314D" Ref="#SUPPLY?"  Part="1" 
F 0 "#SUPPLY0124" H 5200 8550 45  0001 L BNN
F 1 "VCC" H 5150 8720 45  0000 C CNN
F 2 "" H 5150 8731 60  0000 C CNN
F 3 "" H 5150 8550 60  0001 C CNN
	1    5150 8550
	1    0    0    -1  
$EndComp
$Comp
L SparkFun-PowerSymbols:VCC #SUPPLY?
U 1 1 5EB93147
P 4650 8550
AR Path="/5EB96250/5EB93147" Ref="#SUPPLY?"  Part="1" 
AR Path="/5EBB5EBC/5EB93147" Ref="#SUPPLY0125"  Part="1" 
AR Path="/5EB93147" Ref="#SUPPLY?"  Part="1" 
AR Path="/5F7E9A9C/5EB93147" Ref="#SUPPLY?"  Part="1" 
F 0 "#SUPPLY0125" H 4700 8550 45  0001 L BNN
F 1 "VCC" H 4650 8720 45  0000 C CNN
F 2 "" H 4650 8731 60  0000 C CNN
F 3 "" H 4650 8550 60  0001 C CNN
	1    4650 8550
	1    0    0    -1  
$EndComp
$Comp
L SparkFun-Resistors:10KOHM-0603-1_10W-1% R?
U 1 1 5EB93141
P 4650 9350
AR Path="/5F7E9A9C/5EB93141" Ref="R?"  Part="1" 
AR Path="/5EBB5EBC/5EB93141" Ref="R?"  Part="1" 
F 0 "R?" V 4555 9418 45  0000 L CNN
F 1 "10KOHM-0603-1_10W-1%" V 4639 9418 45  0000 L CNN
F 2 "0603" H 4650 9500 20  0001 C CNN
F 3 "" H 4650 9350 60  0001 C CNN
F 4 "RES-00824" V 4734 9418 60  0000 L CNN "Field4"
	1    4650 9350
	0    -1   1    0   
$EndComp
$Comp
L SparkFun-Resistors:10KOHM-0603-1_10W-1% R?
U 1 1 5EB9313A
P 5150 9350
AR Path="/5F7E9A9C/5EB9313A" Ref="R?"  Part="1" 
AR Path="/5EBB5EBC/5EB9313A" Ref="R?"  Part="1" 
F 0 "R?" V 5055 9418 45  0000 L CNN
F 1 "10KOHM-0603-1_10W-1%" V 5139 9418 45  0000 L CNN
F 2 "0603" H 5150 9500 20  0001 C CNN
F 3 "" H 5150 9350 60  0001 C CNN
F 4 "RES-00824" V 5234 9418 60  0000 L CNN "Field4"
	1    5150 9350
	0    1    1    0   
$EndComp
$Comp
L SparkFun-Jumpers:JUMPER-SMT_2_NO JP?
U 1 1 5EB93133
P 4650 8700
AR Path="/5F7E9A9C/5EB93133" Ref="JP?"  Part="1" 
AR Path="/5EBB5EBC/5EB93133" Ref="JP?"  Part="1" 
F 0 "JP?" V 4745 8596 45  0000 R CNN
F 1 "JUMPER-SMT_2_NO" V 4661 8596 45  0000 R CNN
F 2 "SMT-JUMPER_2_NO" H 4650 8900 20  0001 C CNN
F 3 "" H 4650 8700 60  0001 C CNN
F 4 "XXX-00000" V 4566 8596 60  0000 R CNN "PROD_ID"
	1    4650 8700
	0    1    -1   0   
$EndComp
$Comp
L SparkFun-Jumpers:JUMPER-SMT_2_NO JP?
U 1 1 5EB9312C
P 5150 8700
AR Path="/5F7E9A9C/5EB9312C" Ref="JP?"  Part="1" 
AR Path="/5EBB5EBC/5EB9312C" Ref="JP?"  Part="1" 
F 0 "JP?" V 5245 8596 45  0000 R CNN
F 1 "JUMPER-SMT_2_NO" V 5161 8596 45  0000 R CNN
F 2 "SMT-JUMPER_2_NO" H 5150 8900 20  0001 C CNN
F 3 "" H 5150 8700 60  0001 C CNN
F 4 "XXX-00000" V 5066 8596 60  0000 R CNN "PROD_ID"
	1    5150 8700
	0    -1   -1   0   
$EndComp
$Comp
L SparkFun-PowerSymbols:VCC #SUPPLY?
U 1 1 5EB93125
P 6800 8400
AR Path="/5EB96250/5EB93125" Ref="#SUPPLY?"  Part="1" 
AR Path="/5EBB5EBC/5EB93125" Ref="#SUPPLY0126"  Part="1" 
AR Path="/5EB93125" Ref="#SUPPLY?"  Part="1" 
AR Path="/5F7E9A9C/5EB93125" Ref="#SUPPLY?"  Part="1" 
F 0 "#SUPPLY0126" H 6850 8400 45  0001 L BNN
F 1 "VCC" H 6800 8570 45  0000 C CNN
F 2 "" H 6800 8581 60  0000 C CNN
F 3 "" H 6800 8400 60  0001 C CNN
	1    6800 8400
	1    0    0    -1  
$EndComp
Text GLabel 6400 8900 0    50   BiDi ~ 0
SDA
Text GLabel 6400 8800 0    50   BiDi ~ 0
SCL
$Comp
L dk_PMIC-Current-Regulation-Management:INA219AIDCNR U?
U 1 1 5EB9311D
P 6800 8800
AR Path="/5EB96250/5EB9311D" Ref="U?"  Part="1" 
AR Path="/5EBB5EBC/5EB9311D" Ref="U?"  Part="1" 
AR Path="/5EB9311D" Ref="U?"  Part="1" 
AR Path="/5F7E9A9C/5EB9311D" Ref="U?"  Part="1" 
F 0 "U?" H 6928 8803 60  0000 L CNN
F 1 "INA219AIDCNR" H 6928 8697 60  0000 L CNN
F 2 "digikey-footprints:SOT-23-8" H 7000 9000 60  0001 L CNN
F 3 "http://www.ti.com/general/docs/suppproductinfo.tsp?distId=10&gotoUrl=http%3A%2F%2Fwww.ti.com%2Flit%2Fgpn%2Fina219" H 7000 9100 60  0001 L CNN
F 4 "296-23770-1-ND" H 7000 9200 60  0001 L CNN "Digi-Key_PN"
F 5 "INA219AIDCNR" H 7000 9300 60  0001 L CNN "MPN"
F 6 "Integrated Circuits (ICs)" H 7000 9400 60  0001 L CNN "Category"
F 7 "PMIC - Current Regulation/Management" H 7000 9500 60  0001 L CNN "Family"
F 8 "http://www.ti.com/general/docs/suppproductinfo.tsp?distId=10&gotoUrl=http%3A%2F%2Fwww.ti.com%2Flit%2Fgpn%2Fina219" H 7000 9600 60  0001 L CNN "DK_Datasheet_Link"
F 9 "/product-detail/en/texas-instruments/INA219AIDCNR/296-23770-1-ND/1952550" H 7000 9700 60  0001 L CNN "DK_Detail_Page"
F 10 "IC CURRENT MONITOR 1% SOT23-8" H 7000 9800 60  0001 L CNN "Description"
F 11 "Texas Instruments" H 7000 9900 60  0001 L CNN "Manufacturer"
F 12 "Active" H 7000 10000 60  0001 L CNN "Status"
	1    6800 8800
	1    0    0    -1  
$EndComp
$Comp
L SparkFun-PowerSymbols:GND #GND?
U 1 1 5EB9310E
P 6800 9300
AR Path="/5EB96250/5EB9310E" Ref="#GND?"  Part="1" 
AR Path="/5EBB5EBC/5EB9310E" Ref="#GND0135"  Part="1" 
AR Path="/5EB9310E" Ref="#GND?"  Part="1" 
AR Path="/5F7E9A9C/5EB9310E" Ref="#GND?"  Part="1" 
F 0 "#GND0135" H 6850 9250 45  0001 L BNN
F 1 "GND" H 6800 9130 45  0000 C CNN
F 2 "" H 6800 9200 60  0001 C CNN
F 3 "" H 6800 9200 60  0001 C CNN
	1    6800 9300
	1    0    0    -1  
$EndComp
$Comp
L SparkFun-PowerSymbols:GND #GND?
U 1 1 5EB93108
P 4650 8050
AR Path="/5EB96250/5EB93108" Ref="#GND?"  Part="1" 
AR Path="/5EBB5EBC/5EB93108" Ref="#GND0136"  Part="1" 
AR Path="/5EB93108" Ref="#GND?"  Part="1" 
AR Path="/5F7E9A9C/5EB93108" Ref="#GND?"  Part="1" 
F 0 "#GND0136" H 4700 8000 45  0001 L BNN
F 1 "GND" H 4650 7880 45  0000 C CNN
F 2 "" H 4650 7950 60  0001 C CNN
F 3 "" H 4650 7950 60  0001 C CNN
	1    4650 8050
	1    0    0    -1  
$EndComp
$Comp
L SparkFun-PowerSymbols:GND #GND?
U 1 1 5EB93102
P 5150 8050
AR Path="/5EB96250/5EB93102" Ref="#GND?"  Part="1" 
AR Path="/5EBB5EBC/5EB93102" Ref="#GND0137"  Part="1" 
AR Path="/5EB93102" Ref="#GND?"  Part="1" 
AR Path="/5F7E9A9C/5EB93102" Ref="#GND?"  Part="1" 
F 0 "#GND0137" H 5200 8000 45  0001 L BNN
F 1 "GND" H 5150 7880 45  0000 C CNN
F 2 "" H 5150 7950 60  0001 C CNN
F 3 "" H 5150 7950 60  0001 C CNN
	1    5150 8050
	1    0    0    -1  
$EndComp
Wire Wire Line
	4650 7500 4650 7650
Connection ~ 4650 7500
Wire Wire Line
	6400 7500 4650 7500
Connection ~ 5150 7600
Wire Wire Line
	5150 7350 5150 7600
Wire Wire Line
	4650 7350 4650 7500
Wire Wire Line
	5150 7600 5150 7650
Wire Wire Line
	6400 7600 5150 7600
$Comp
L SparkFun-PowerSymbols:VCC #SUPPLY?
U 1 1 5EB930F0
P 5150 7050
AR Path="/5EB96250/5EB930F0" Ref="#SUPPLY?"  Part="1" 
AR Path="/5EBB5EBC/5EB930F0" Ref="#SUPPLY0127"  Part="1" 
AR Path="/5EB930F0" Ref="#SUPPLY?"  Part="1" 
AR Path="/5F7E9A9C/5EB930F0" Ref="#SUPPLY?"  Part="1" 
F 0 "#SUPPLY0127" H 5200 7050 45  0001 L BNN
F 1 "VCC" H 5150 7220 45  0000 C CNN
F 2 "" H 5150 7231 60  0000 C CNN
F 3 "" H 5150 7050 60  0001 C CNN
	1    5150 7050
	1    0    0    -1  
$EndComp
$Comp
L SparkFun-PowerSymbols:VCC #SUPPLY?
U 1 1 5EB930EA
P 4650 7050
AR Path="/5EB96250/5EB930EA" Ref="#SUPPLY?"  Part="1" 
AR Path="/5EBB5EBC/5EB930EA" Ref="#SUPPLY0128"  Part="1" 
AR Path="/5EB930EA" Ref="#SUPPLY?"  Part="1" 
AR Path="/5F7E9A9C/5EB930EA" Ref="#SUPPLY?"  Part="1" 
F 0 "#SUPPLY0128" H 4700 7050 45  0001 L BNN
F 1 "VCC" H 4650 7220 45  0000 C CNN
F 2 "" H 4650 7231 60  0000 C CNN
F 3 "" H 4650 7050 60  0001 C CNN
	1    4650 7050
	1    0    0    -1  
$EndComp
$Comp
L SparkFun-Resistors:10KOHM-0603-1_10W-1% R?
U 1 1 5EB930E4
P 4650 7850
AR Path="/5F7E9A9C/5EB930E4" Ref="R?"  Part="1" 
AR Path="/5EBB5EBC/5EB930E4" Ref="R?"  Part="1" 
F 0 "R?" V 4555 7918 45  0000 L CNN
F 1 "10KOHM-0603-1_10W-1%" V 4639 7918 45  0000 L CNN
F 2 "0603" H 4650 8000 20  0001 C CNN
F 3 "" H 4650 7850 60  0001 C CNN
F 4 "RES-00824" V 4734 7918 60  0000 L CNN "Field4"
	1    4650 7850
	0    -1   1    0   
$EndComp
$Comp
L SparkFun-Resistors:10KOHM-0603-1_10W-1% R?
U 1 1 5EB930DD
P 5150 7850
AR Path="/5F7E9A9C/5EB930DD" Ref="R?"  Part="1" 
AR Path="/5EBB5EBC/5EB930DD" Ref="R?"  Part="1" 
F 0 "R?" V 5055 7918 45  0000 L CNN
F 1 "10KOHM-0603-1_10W-1%" V 5139 7918 45  0000 L CNN
F 2 "0603" H 5150 8000 20  0001 C CNN
F 3 "" H 5150 7850 60  0001 C CNN
F 4 "RES-00824" V 5234 7918 60  0000 L CNN "Field4"
	1    5150 7850
	0    1    1    0   
$EndComp
$Comp
L SparkFun-Jumpers:JUMPER-SMT_2_NO JP?
U 1 1 5EB930D6
P 4650 7200
AR Path="/5F7E9A9C/5EB930D6" Ref="JP?"  Part="1" 
AR Path="/5EBB5EBC/5EB930D6" Ref="JP?"  Part="1" 
F 0 "JP?" V 4745 7096 45  0000 R CNN
F 1 "JUMPER-SMT_2_NO" V 4661 7096 45  0000 R CNN
F 2 "SMT-JUMPER_2_NO" H 4650 7400 20  0001 C CNN
F 3 "" H 4650 7200 60  0001 C CNN
F 4 "XXX-00000" V 4566 7096 60  0000 R CNN "PROD_ID"
	1    4650 7200
	0    1    -1   0   
$EndComp
$Comp
L SparkFun-Jumpers:JUMPER-SMT_2_NO JP?
U 1 1 5EB930CF
P 5150 7200
AR Path="/5F7E9A9C/5EB930CF" Ref="JP?"  Part="1" 
AR Path="/5EBB5EBC/5EB930CF" Ref="JP?"  Part="1" 
F 0 "JP?" V 5245 7096 45  0000 R CNN
F 1 "JUMPER-SMT_2_NO" V 5161 7096 45  0000 R CNN
F 2 "SMT-JUMPER_2_NO" H 5150 7400 20  0001 C CNN
F 3 "" H 5150 7200 60  0001 C CNN
F 4 "XXX-00000" V 5066 7096 60  0000 R CNN "PROD_ID"
	1    5150 7200
	0    -1   -1   0   
$EndComp
$Comp
L SparkFun-PowerSymbols:VCC #SUPPLY?
U 1 1 5EB930C8
P 6800 6900
AR Path="/5EB96250/5EB930C8" Ref="#SUPPLY?"  Part="1" 
AR Path="/5EBB5EBC/5EB930C8" Ref="#SUPPLY0129"  Part="1" 
AR Path="/5EB930C8" Ref="#SUPPLY?"  Part="1" 
AR Path="/5F7E9A9C/5EB930C8" Ref="#SUPPLY?"  Part="1" 
F 0 "#SUPPLY0129" H 6850 6900 45  0001 L BNN
F 1 "VCC" H 6800 7070 45  0000 C CNN
F 2 "" H 6800 7081 60  0000 C CNN
F 3 "" H 6800 6900 60  0001 C CNN
	1    6800 6900
	1    0    0    -1  
$EndComp
Text GLabel 6400 7400 0    50   BiDi ~ 0
SDA
Text GLabel 6400 7300 0    50   BiDi ~ 0
SCL
$Comp
L dk_PMIC-Current-Regulation-Management:INA219AIDCNR U?
U 1 1 5EB930BE
P 6800 7300
AR Path="/5EB96250/5EB930BE" Ref="U?"  Part="1" 
AR Path="/5EBB5EBC/5EB930BE" Ref="U?"  Part="1" 
AR Path="/5EB930BE" Ref="U?"  Part="1" 
AR Path="/5F7E9A9C/5EB930BE" Ref="U?"  Part="1" 
F 0 "U?" H 6928 7303 60  0000 L CNN
F 1 "INA219AIDCNR" H 6928 7197 60  0000 L CNN
F 2 "digikey-footprints:SOT-23-8" H 7000 7500 60  0001 L CNN
F 3 "http://www.ti.com/general/docs/suppproductinfo.tsp?distId=10&gotoUrl=http%3A%2F%2Fwww.ti.com%2Flit%2Fgpn%2Fina219" H 7000 7600 60  0001 L CNN
F 4 "296-23770-1-ND" H 7000 7700 60  0001 L CNN "Digi-Key_PN"
F 5 "INA219AIDCNR" H 7000 7800 60  0001 L CNN "MPN"
F 6 "Integrated Circuits (ICs)" H 7000 7900 60  0001 L CNN "Category"
F 7 "PMIC - Current Regulation/Management" H 7000 8000 60  0001 L CNN "Family"
F 8 "http://www.ti.com/general/docs/suppproductinfo.tsp?distId=10&gotoUrl=http%3A%2F%2Fwww.ti.com%2Flit%2Fgpn%2Fina219" H 7000 8100 60  0001 L CNN "DK_Datasheet_Link"
F 9 "/product-detail/en/texas-instruments/INA219AIDCNR/296-23770-1-ND/1952550" H 7000 8200 60  0001 L CNN "DK_Detail_Page"
F 10 "IC CURRENT MONITOR 1% SOT23-8" H 7000 8300 60  0001 L CNN "Description"
F 11 "Texas Instruments" H 7000 8400 60  0001 L CNN "Manufacturer"
F 12 "Active" H 7000 8500 60  0001 L CNN "Status"
	1    6800 7300
	1    0    0    -1  
$EndComp
$Comp
L SparkFun-PowerSymbols:GND #GND?
U 1 1 5EB930A8
P 6800 7800
AR Path="/5EB96250/5EB930A8" Ref="#GND?"  Part="1" 
AR Path="/5EBB5EBC/5EB930A8" Ref="#GND0138"  Part="1" 
AR Path="/5EB930A8" Ref="#GND?"  Part="1" 
AR Path="/5F7E9A9C/5EB930A8" Ref="#GND?"  Part="1" 
F 0 "#GND0138" H 6850 7750 45  0001 L BNN
F 1 "GND" H 6800 7630 45  0000 C CNN
F 2 "" H 6800 7700 60  0001 C CNN
F 3 "" H 6800 7700 60  0001 C CNN
	1    6800 7800
	1    0    0    -1  
$EndComp
Wire Notes Line
	1050 6550 1050 9900
Wire Notes Line
	1050 9900 7650 9900
Wire Notes Line
	7650 9900 7650 6550
Wire Notes Line
	1050 6550 7650 6550
Wire Notes Line
	7600 4000 7600 6500
Wire Notes Line
	7600 6500 1600 6500
Wire Notes Line
	1600 6500 1600 4000
Wire Notes Line
	1600 4000 7600 4000
Wire Wire Line
	4200 4450 6200 4450
$Comp
L SparkFun-PowerSymbols:5V #SUPPLY0130
U 1 1 5EA8A47E
P 1750 2100
F 0 "#SUPPLY0130" H 1800 2100 45  0001 L BNN
F 1 "5V" H 1750 2270 45  0000 C CNN
F 2 "" H 1750 2281 60  0000 C CNN
F 3 "" H 1750 2100 60  0001 C CNN
	1    1750 2100
	1    0    0    -1  
$EndComp
$EndSCHEMATC
