EESchema Schematic File Version 4
EELAYER 30 0
EELAYER END
$Descr A4 8268 11693 portrait
encoding utf-8
Sheet 6 7
Title ""
Date ""
Rev ""
Comp ""
Comment1 ""
Comment2 ""
Comment3 ""
Comment4 ""
$EndDescr
Wire Wire Line
	5200 -1400 6450 -1400
Wire Wire Line
	5200 -1500 6450 -1500
$Comp
L SparkFun-PowerSymbols:VCC #SUPPLY?
U 1 1 5F7EE01F
P 5100 1850
AR Path="/5EB96250/5F7EE01F" Ref="#SUPPLY?"  Part="1" 
AR Path="/5EBB5EBC/5F7EE01F" Ref="#SUPPLY?"  Part="1" 
AR Path="/5F7EE01F" Ref="#SUPPLY?"  Part="1" 
AR Path="/5F7E9A9C/5F7EE01F" Ref="#SUPPLY0123"  Part="1" 
F 0 "#SUPPLY0123" H 5150 1850 45  0001 L BNN
F 1 "VCC" H 5100 2020 45  0000 C CNN
F 2 "" H 5100 2031 60  0000 C CNN
F 3 "" H 5100 1850 60  0001 C CNN
	1    5100 1850
	1    0    0    -1  
$EndComp
$Comp
L SparkFun-PowerSymbols:GND #GND?
U 1 1 5F7EE025
P 5100 2150
AR Path="/5EB96250/5F7EE025" Ref="#GND?"  Part="1" 
AR Path="/5EBB5EBC/5F7EE025" Ref="#GND?"  Part="1" 
AR Path="/5F7EE025" Ref="#GND?"  Part="1" 
AR Path="/5F7E9A9C/5F7EE025" Ref="#GND0128"  Part="1" 
F 0 "#GND0128" H 5150 2100 45  0001 L BNN
F 1 "GND" H 5100 1980 45  0000 C CNN
F 2 "" H 5100 2050 60  0001 C CNN
F 3 "" H 5100 2050 60  0001 C CNN
	1    5100 2150
	1    0    0    -1  
$EndComp
$Comp
L SparkFun-PowerSymbols:GND #GND?
U 1 1 5F7EE02B
P 4150 2400
AR Path="/5EB96250/5F7EE02B" Ref="#GND?"  Part="1" 
AR Path="/5EBB5EBC/5F7EE02B" Ref="#GND?"  Part="1" 
AR Path="/5F7EE02B" Ref="#GND?"  Part="1" 
AR Path="/5F7E9A9C/5F7EE02B" Ref="#GND0129"  Part="1" 
F 0 "#GND0129" H 4200 2350 45  0001 L BNN
F 1 "GND" H 4150 2230 45  0000 C CNN
F 2 "" H 4150 2300 60  0001 C CNN
F 3 "" H 4150 2300 60  0001 C CNN
	1    4150 2400
	1    0    0    -1  
$EndComp
$Comp
L SparkFun-PowerSymbols:VCC #SUPPLY?
U 1 1 5F7EE031
P 4950 -1200
AR Path="/5EB96250/5F7EE031" Ref="#SUPPLY?"  Part="1" 
AR Path="/5EBB5EBC/5F7EE031" Ref="#SUPPLY?"  Part="1" 
AR Path="/5F7EE031" Ref="#SUPPLY?"  Part="1" 
AR Path="/5F7E9A9C/5F7EE031" Ref="#SUPPLY0124"  Part="1" 
F 0 "#SUPPLY0124" H 5000 -1200 45  0001 L BNN
F 1 "VCC" H 4950 -1030 45  0000 C CNN
F 2 "" H 4950 -1019 60  0000 C CNN
F 3 "" H 4950 -1200 60  0001 C CNN
	1    4950 -1200
	1    0    0    -1  
$EndComp
$Comp
L SparkFun-Jumpers:JUMPER-SMT_3_NO JP?
U 1 1 5F7EE038
P 5450 -900
AR Path="/5F7EE038" Ref="JP?"  Part="1" 
AR Path="/5EB96250/5F7EE038" Ref="JP?"  Part="1" 
AR Path="/5EBB5EBC/5F7EE038" Ref="JP?"  Part="1" 
AR Path="/5F7E9A9C/5F7EE038" Ref="JP22"  Part="1" 
F 0 "JP22" H 5554 -942 45  0000 L CNN
F 1 "JUMPER-SMT_3_NO" H 5554 -858 45  0000 L CNN
F 2 "SMT-JUMPER_3_NO" H 5450 -650 20  0001 C CNN
F 3 "" H 5450 -900 60  0001 C CNN
F 4 "" H 5554 -984 60  0000 L CNN "PROD_ID"
	1    5450 -900
	1    0    0    -1  
$EndComp
Text GLabel 5550 -2250 2    50   BiDi ~ 0
SCL
$Comp
L SparkFun-Jumpers:JUMPER-SMT_3_NO JP?
U 1 1 5F7EE040
P 5450 -1950
AR Path="/5F7EE040" Ref="JP?"  Part="1" 
AR Path="/5EB96250/5F7EE040" Ref="JP?"  Part="1" 
AR Path="/5EBB5EBC/5F7EE040" Ref="JP?"  Part="1" 
AR Path="/5F7E9A9C/5F7EE040" Ref="JP21"  Part="1" 
F 0 "JP21" H 5554 -1992 45  0000 L CNN
F 1 "JUMPER-SMT_3_NO" H 5554 -1908 45  0000 L CNN
F 2 "SMT-JUMPER_3_NO" H 5450 -1700 20  0001 C CNN
F 3 "" H 5450 -1950 60  0001 C CNN
F 4 "" H 5554 -2034 60  0000 L CNN "PROD_ID"
	1    5450 -1950
	1    0    0    -1  
$EndComp
Text GLabel 5550 -1600 2    50   BiDi ~ 0
SDA
$Comp
L SparkFun-Capacitors:0.1UF-0603-100V-10% C?
U 1 1 5F7EE048
P 5100 1950
AR Path="/5F7EE048" Ref="C?"  Part="1" 
AR Path="/5EB96250/5F7EE048" Ref="C?"  Part="1" 
AR Path="/5EBB5EBC/5F7EE048" Ref="C?"  Part="1" 
AR Path="/5F7E9A9C/5F7EE048" Ref="C20"  Part="1" 
F 0 "C20" H 5208 2095 45  0000 L CNN
F 1 "0.1UF-0603-100V-10%" H 5208 2011 45  0000 L CNN
F 2 "0603" H 5100 2200 20  0001 C CNN
F 3 "" H 5100 1950 50  0001 C CNN
F 4 "CAP-08390" H 5208 1916 60  0000 L CNN "Field4"
	1    5100 1950
	1    0    0    1   
$EndComp
$Comp
L dk_PMIC-Current-Regulation-Management:INA219AIDCNR U?
U 1 1 5F7EE057
P 4150 1900
AR Path="/5EB96250/5F7EE057" Ref="U?"  Part="1" 
AR Path="/5EBB5EBC/5F7EE057" Ref="U?"  Part="1" 
AR Path="/5F7EE057" Ref="U?"  Part="1" 
AR Path="/5F7E9A9C/5F7EE057" Ref="U7"  Part="1" 
F 0 "U7" H 4278 1903 60  0000 L CNN
F 1 "INA219AIDCNR" H 4278 1797 60  0000 L CNN
F 2 "digikey-footprints:SOT-23-8" H 4350 2100 60  0001 L CNN
F 3 "http://www.ti.com/general/docs/suppproductinfo.tsp?distId=10&gotoUrl=http%3A%2F%2Fwww.ti.com%2Flit%2Fgpn%2Fina219" H 4350 2200 60  0001 L CNN
F 4 "296-23770-1-ND" H 4350 2300 60  0001 L CNN "Digi-Key_PN"
F 5 "INA219AIDCNR" H 4350 2400 60  0001 L CNN "MPN"
F 6 "Integrated Circuits (ICs)" H 4350 2500 60  0001 L CNN "Category"
F 7 "PMIC - Current Regulation/Management" H 4350 2600 60  0001 L CNN "Family"
F 8 "http://www.ti.com/general/docs/suppproductinfo.tsp?distId=10&gotoUrl=http%3A%2F%2Fwww.ti.com%2Flit%2Fgpn%2Fina219" H 4350 2700 60  0001 L CNN "DK_Datasheet_Link"
F 9 "/product-detail/en/texas-instruments/INA219AIDCNR/296-23770-1-ND/1952550" H 4350 2800 60  0001 L CNN "DK_Detail_Page"
F 10 "IC CURRENT MONITOR 1% SOT23-8" H 4350 2900 60  0001 L CNN "Description"
F 11 "Texas Instruments" H 4350 3000 60  0001 L CNN "Manufacturer"
F 12 "Active" H 4350 3100 60  0001 L CNN "Status"
	1    4150 1900
	1    0    0    -1  
$EndComp
Text Notes 850  1050 0    47   ~ 0
Monitor the voltage and current and sends back\ninformation to master. Useful for logs
Text Notes 800  850  0    157  Italic 0
Power Monitor
Text GLabel 3750 1900 0    50   BiDi ~ 0
SCL
Text GLabel 3750 2000 0    50   BiDi ~ 0
SDA
Text Notes 4200 -1400 0    50   ~ 0
I2C Address Selection
$Comp
L SparkFun-PowerSymbols:GND #GND?
U 1 1 5F7EE064
P 4950 -550
AR Path="/5EB96250/5F7EE064" Ref="#GND?"  Part="1" 
AR Path="/5EBB5EBC/5F7EE064" Ref="#GND?"  Part="1" 
AR Path="/5F7EE064" Ref="#GND?"  Part="1" 
AR Path="/5F7E9A9C/5F7EE064" Ref="#GND0130"  Part="1" 
F 0 "#GND0130" H 5000 -600 45  0001 L BNN
F 1 "GND" H 4950 -720 45  0000 C CNN
F 2 "" H 4950 -650 60  0001 C CNN
F 3 "" H 4950 -650 60  0001 C CNN
	1    4950 -550
	1    0    0    -1  
$EndComp
$Comp
L SparkFun-PowerSymbols:VCC #SUPPLY?
U 1 1 5F7EE06A
P 4150 1500
AR Path="/5EB96250/5F7EE06A" Ref="#SUPPLY?"  Part="1" 
AR Path="/5EBB5EBC/5F7EE06A" Ref="#SUPPLY?"  Part="1" 
AR Path="/5F7EE06A" Ref="#SUPPLY?"  Part="1" 
AR Path="/5F7E9A9C/5F7EE06A" Ref="#SUPPLY0125"  Part="1" 
F 0 "#SUPPLY0125" H 4200 1500 45  0001 L BNN
F 1 "VCC" H 4150 1670 45  0000 C CNN
F 2 "" H 4150 1681 60  0000 C CNN
F 3 "" H 4150 1500 60  0001 C CNN
	1    4150 1500
	1    0    0    -1  
$EndComp
$Comp
L SparkFun-Jumpers:JUMPER-SMT_3_NO JP?
U 1 1 5F7EE071
P 4950 -1950
AR Path="/5EB96250/5F7EE071" Ref="JP?"  Part="1" 
AR Path="/5EBB5EBC/5F7EE071" Ref="JP?"  Part="1" 
AR Path="/5F7EE071" Ref="JP?"  Part="1" 
AR Path="/5F7E9A9C/5F7EE071" Ref="JP19"  Part="1" 
F 0 "JP19" H 5054 -1992 45  0000 L CNN
F 1 "JUMPER-SMT_3_NO" H 5054 -1908 45  0000 L CNN
F 2 "SMT-JUMPER_3_NO" H 4950 -1700 20  0001 C CNN
F 3 "" H 4950 -1950 60  0001 C CNN
F 4 "" H 5054 -2034 60  0000 L CNN "PROD_ID"
	1    4950 -1950
	-1   0    0    1   
$EndComp
$Comp
L SparkFun-Jumpers:JUMPER-SMT_3_1-NC JP?
U 1 1 5F7EE078
P 4950 -900
AR Path="/5EB96250/5F7EE078" Ref="JP?"  Part="1" 
AR Path="/5EBB5EBC/5F7EE078" Ref="JP?"  Part="1" 
AR Path="/5F7EE078" Ref="JP?"  Part="1" 
AR Path="/5F7E9A9C/5F7EE078" Ref="JP20"  Part="1" 
F 0 "JP20" H 5054 -942 45  0000 L CNN
F 1 "JUMPER-SMT_3_1-NC" H 5054 -858 45  0000 L CNN
F 2 "SMT-JUMPER_3_1-NC" H 4950 -650 20  0001 C CNN
F 3 "" V 4950 -955 60  0001 C CNN
F 4 "" H 5054 -816 60  0000 L CNN "PROD_ID"
	1    4950 -900
	-1   0    0    1   
$EndComp
Wire Wire Line
	5200 -1950 5300 -1950
Wire Wire Line
	5200 -1500 5200 -1950
Connection ~ 5200 -1950
Wire Wire Line
	5100 -1950 5200 -1950
Wire Wire Line
	5200 -1400 5200 -900
Wire Wire Line
	5100 -900 5200 -900
Connection ~ 5200 -900
Wire Wire Line
	5200 -900 5300 -900
Wire Wire Line
	5450 -550 5450 -700
Wire Wire Line
	4950 -550 5450 -550
Connection ~ 4950 -550
Wire Wire Line
	4950 -700 4950 -550
Wire Wire Line
	4950 -1200 4950 -1100
Connection ~ 4950 -1200
Wire Wire Line
	5450 -1200 4950 -1200
Wire Wire Line
	5450 -1100 5450 -1200
Wire Wire Line
	4950 -2250 4950 -2150
Wire Wire Line
	5450 -2250 5550 -2250
Wire Wire Line
	5450 -2250 4950 -2250
Connection ~ 5450 -2250
Wire Wire Line
	5450 -2150 5450 -2250
Wire Wire Line
	5550 -1600 5450 -1600
Wire Wire Line
	5450 -1600 4950 -1600
Connection ~ 5450 -1600
Wire Wire Line
	5450 -1600 5450 -1750
Wire Wire Line
	4950 -1750 4950 -1600
Text Notes 800  7050 0    157  Italic 0
Latching Power Switch Circuit
$Comp
L dk_Transistors-Bipolar-BJT-Single:2N3904 Q?
U 1 1 5EA03234
P 3350 8500
AR Path="/5EBB5EBC/5EA03234" Ref="Q?"  Part="1" 
AR Path="/5F7E9A9C/5EA03234" Ref="Q4"  Part="1" 
F 0 "Q4" H 3538 8553 60  0000 L CNN
F 1 "2N3904" H 3538 8447 60  0000 L CNN
F 2 "digikey-footprints:TO-92-3" H 3550 8700 60  0001 L CNN
F 3 "https://my.centralsemi.com/get_document.php?cmp=1&mergetype=pd&mergepath=pd&pdf_id=LSSGP072.PDF" H 3550 8800 60  0001 L CNN
F 4 "2N3904CS-ND" H 3550 8900 60  0001 L CNN "Digi-Key_PN"
F 5 "2N3904" H 3550 9000 60  0001 L CNN "MPN"
F 6 "Discrete Semiconductor Products" H 3550 9100 60  0001 L CNN "Category"
F 7 "Transistors - Bipolar (BJT) - Single" H 3550 9200 60  0001 L CNN "Family"
F 8 "https://my.centralsemi.com/get_document.php?cmp=1&mergetype=pd&mergepath=pd&pdf_id=LSSGP072.PDF" H 3550 9300 60  0001 L CNN "DK_Datasheet_Link"
F 9 "/product-detail/en/central-semiconductor-corp/2N3904/2N3904CS-ND/4806876" H 3550 9400 60  0001 L CNN "DK_Detail_Page"
F 10 "TRANS NPN 40V TO-92" H 3550 9500 60  0001 L CNN "Description"
F 11 "Central Semiconductor Corp" H 3550 9600 60  0001 L CNN "Manufacturer"
F 12 "Active" H 3550 9700 60  0001 L CNN "Status"
	1    3350 8500
	1    0    0    -1  
$EndComp
$Comp
L dk_Diodes-Rectifiers-Single:1N5819 D?
U 1 1 5EA03243
P 2350 9300
AR Path="/5EBB5EBC/5EA03243" Ref="D?"  Part="1" 
AR Path="/5F7E9A9C/5EA03243" Ref="D3"  Part="1" 
F 0 "D3" H 2350 9537 60  0000 C CNN
F 1 "1N5819" H 2350 9431 60  0000 C CNN
F 2 "digikey-footprints:DO-41" H 2550 9500 60  0001 L CNN
F 3 "https://www.onsemi.com/pub/Collateral/1N5817-D.PDF" H 2550 9600 60  0001 L CNN
F 4 "1N5819FSCT-ND" H 2550 9700 60  0001 L CNN "Digi-Key_PN"
F 5 "1N5819" H 2550 9800 60  0001 L CNN "MPN"
F 6 "Discrete Semiconductor Products" H 2550 9900 60  0001 L CNN "Category"
F 7 "Diodes - Rectifiers - Single" H 2550 10000 60  0001 L CNN "Family"
F 8 "https://www.onsemi.com/pub/Collateral/1N5817-D.PDF" H 2550 10100 60  0001 L CNN "DK_Datasheet_Link"
F 9 "/product-detail/en/on-semiconductor/1N5819/1N5819FSCT-ND/965482" H 2550 10200 60  0001 L CNN "DK_Detail_Page"
F 10 "DIODE SCHOTTKY 40V 1A DO41" H 2550 10300 60  0001 L CNN "Description"
F 11 "ON Semiconductor" H 2550 10400 60  0001 L CNN "Manufacturer"
F 12 "Active" H 2550 10500 60  0001 L CNN "Status"
	1    2350 9300
	1    0    0    -1  
$EndComp
$Comp
L SparkFun-Resistors:220KOHM-0603-1_10W-1% R?
U 1 1 5EA0324A
P 1350 8800
AR Path="/5EBB5EBC/5EA0324A" Ref="R?"  Part="1" 
AR Path="/5F7E9A9C/5EA0324A" Ref="R36"  Part="1" 
F 0 "R36" H 1350 9100 45  0000 C CNN
F 1 "220KOHM-0603-1_10W-1%" H 1350 9016 45  0000 C CNN
F 2 "0603" H 1350 8950 20  0001 C CNN
F 3 "" H 1350 8800 60  0001 C CNN
F 4 "RES-08969" H 1350 8921 60  0000 C CNN "Field4"
	1    1350 8800
	1    0    0    -1  
$EndComp
$Comp
L SparkFun-Resistors:100KOHM-0603-1_10W-1% R?
U 1 1 5EA03251
P 2350 8050
AR Path="/5EBB5EBC/5EA03251" Ref="R?"  Part="1" 
AR Path="/5F7E9A9C/5EA03251" Ref="R42"  Part="1" 
F 0 "R42" H 2350 8350 45  0000 C CNN
F 1 "100KOHM-0603-1_10W-1%" H 2350 8266 45  0000 C CNN
F 2 "0603" H 2350 8200 20  0001 C CNN
F 3 "" H 2350 8050 60  0001 C CNN
F 4 "RES-07828" H 2350 8171 60  0000 C CNN "Field4"
	1    2350 8050
	1    0    0    -1  
$EndComp
$Comp
L dk_Pushbutton-Switches:GPTS203211B S?
U 1 1 5EA03260
P 1300 7550
AR Path="/5EBB5EBC/5EA03260" Ref="S?"  Part="1" 
AR Path="/5F7E9A9C/5EA03260" Ref="S8"  Part="1" 
F 0 "S8" H 1300 7825 50  0000 C CNN
F 1 "GPTS203211B" H 1300 7734 50  0000 C CNN
F 2 "digikey-footprints:PushButton_12x12mm_THT_GPTS203211B" H 1500 7750 50  0001 L CNN
F 3 "http://switches-connectors-custom.cwind.com/Asset/GPTS203211BR2.pdf" H 1500 7850 60  0001 L CNN
F 4 "CW181-ND" H 1500 7950 60  0001 L CNN "Digi-Key_PN"
F 5 "GPTS203211B" H 1500 8050 60  0001 L CNN "MPN"
F 6 "Switches" H 1500 8150 60  0001 L CNN "Category"
F 7 "Pushbutton Switches" H 1500 8250 60  0001 L CNN "Family"
F 8 "http://switches-connectors-custom.cwind.com/Asset/GPTS203211BR2.pdf" H 1500 8350 60  0001 L CNN "DK_Datasheet_Link"
F 9 "/product-detail/en/cw-industries/GPTS203211B/CW181-ND/3190590" H 1500 8450 60  0001 L CNN "DK_Detail_Page"
F 10 "SWITCH PUSHBUTTON SPST 1A 30V" H 1500 8550 60  0001 L CNN "Description"
F 11 "CW Industries" H 1500 8650 60  0001 L CNN "Manufacturer"
F 12 "Active" H 1500 8750 60  0001 L CNN "Status"
	1    1300 7550
	1    0    0    -1  
$EndComp
$Comp
L SparkFun-PowerSymbols:GND #GND?
U 1 1 5EA03266
P 1750 8800
AR Path="/5EBB5EBC/5EA03266" Ref="#GND?"  Part="1" 
AR Path="/5F7E9A9C/5EA03266" Ref="#GND0131"  Part="1" 
F 0 "#GND0131" H 1800 8750 45  0001 L BNN
F 1 "GND" H 1750 8630 45  0000 C CNN
F 2 "" H 1750 8700 60  0001 C CNN
F 3 "" H 1750 8700 60  0001 C CNN
	1    1750 8800
	0    -1   -1   0   
$EndComp
$Comp
L SparkFun-Resistors:10KOHM-0603-1_10W-1% R?
U 1 1 5EA0326D
P 1350 9300
AR Path="/5EBB5EBC/5EA0326D" Ref="R?"  Part="1" 
AR Path="/5F7E9A9C/5EA0326D" Ref="R37"  Part="1" 
F 0 "R37" H 1350 9600 45  0000 C CNN
F 1 "10KOHM-0603-1_10W-1%" H 1350 9516 45  0000 C CNN
F 2 "0603" H 1350 9450 20  0001 C CNN
F 3 "" H 1350 9300 60  0001 C CNN
F 4 "RES-00824" H 1350 9421 60  0000 C CNN "Field4"
	1    1350 9300
	1    0    0    -1  
$EndComp
$Comp
L SparkFun-Resistors:100KOHM-0603-1_10W-1% R?
U 1 1 5EA03274
P 3350 9300
AR Path="/5EBB5EBC/5EA03274" Ref="R?"  Part="1" 
AR Path="/5F7E9A9C/5EA03274" Ref="R43"  Part="1" 
F 0 "R43" H 3350 9600 45  0000 C CNN
F 1 "100KOHM-0603-1_10W-1%" H 3350 9516 45  0000 C CNN
F 2 "0603" H 3350 9450 20  0001 C CNN
F 3 "" H 3350 9300 60  0001 C CNN
F 4 "RES-07828" H 3350 9421 60  0000 C CNN "Field4"
	1    3350 9300
	1    0    0    -1  
$EndComp
Wire Wire Line
	850  8800 850  9300
Wire Wire Line
	850  9300 1150 9300
Wire Wire Line
	850  8800 1150 8800
Wire Wire Line
	1550 9300 2150 9300
Wire Wire Line
	2550 9300 2850 9300
$Comp
L SparkFun-PowerSymbols:GND #GND?
U 1 1 5EA0327F
P 3550 9300
AR Path="/5EBB5EBC/5EA0327F" Ref="#GND?"  Part="1" 
AR Path="/5F7E9A9C/5EA0327F" Ref="#GND0132"  Part="1" 
F 0 "#GND0132" H 3600 9250 45  0001 L BNN
F 1 "GND" H 3550 9130 45  0000 C CNN
F 2 "" H 3550 9200 60  0001 C CNN
F 3 "" H 3550 9200 60  0001 C CNN
	1    3550 9300
	0    -1   -1   0   
$EndComp
$Comp
L dk_Diodes-Rectifiers-Single:1N5819 D?
U 1 1 5EA0328E
P 2350 9800
AR Path="/5EBB5EBC/5EA0328E" Ref="D?"  Part="1" 
AR Path="/5F7E9A9C/5EA0328E" Ref="D4"  Part="1" 
F 0 "D4" H 2350 10037 60  0000 C CNN
F 1 "1N5819" H 2350 9931 60  0000 C CNN
F 2 "digikey-footprints:DO-41" H 2550 10000 60  0001 L CNN
F 3 "https://www.onsemi.com/pub/Collateral/1N5817-D.PDF" H 2550 10100 60  0001 L CNN
F 4 "1N5819FSCT-ND" H 2550 10200 60  0001 L CNN "Digi-Key_PN"
F 5 "1N5819" H 2550 10300 60  0001 L CNN "MPN"
F 6 "Discrete Semiconductor Products" H 2550 10400 60  0001 L CNN "Category"
F 7 "Diodes - Rectifiers - Single" H 2550 10500 60  0001 L CNN "Family"
F 8 "https://www.onsemi.com/pub/Collateral/1N5817-D.PDF" H 2550 10600 60  0001 L CNN "DK_Datasheet_Link"
F 9 "/product-detail/en/on-semiconductor/1N5819/1N5819FSCT-ND/965482" H 2550 10700 60  0001 L CNN "DK_Detail_Page"
F 10 "DIODE SCHOTTKY 40V 1A DO41" H 2550 10800 60  0001 L CNN "Description"
F 11 "ON Semiconductor" H 2550 10900 60  0001 L CNN "Manufacturer"
F 12 "Active" H 2550 11000 60  0001 L CNN "Status"
	1    2350 9800
	1    0    0    -1  
$EndComp
Wire Wire Line
	2550 9800 2850 9800
Wire Wire Line
	2850 9800 2850 9300
Connection ~ 2850 9300
Wire Wire Line
	2850 9300 3150 9300
$Comp
L SparkFun-PowerSymbols:GND #GND?
U 1 1 5EA03298
P 3450 8700
AR Path="/5EBB5EBC/5EA03298" Ref="#GND?"  Part="1" 
AR Path="/5F7E9A9C/5EA03298" Ref="#GND0133"  Part="1" 
F 0 "#GND0133" H 3500 8650 45  0001 L BNN
F 1 "GND" H 3450 8530 45  0000 C CNN
F 2 "" H 3450 8600 60  0001 C CNN
F 3 "" H 3450 8600 60  0001 C CNN
	1    3450 8700
	1    0    0    -1  
$EndComp
Wire Wire Line
	2850 9300 2850 8500
Wire Wire Line
	2850 8500 3150 8500
Wire Wire Line
	1550 8800 1750 8800
$Comp
L SparkFun-DiscreteSemi:MOSFET_PCH-NDP6020P Q?
U 1 1 5EA032A2
P 3350 7650
AR Path="/5EBB5EBC/5EA032A2" Ref="Q?"  Part="1" 
AR Path="/5F7E9A9C/5EA032A2" Ref="Q3"  Part="1" 
F 0 "Q3" V 3747 7650 45  0000 C CNN
F 1 "MOSFET_PCH-NDP6020P" V 3663 7650 45  0000 C CNN
F 2 "TO220V" H 3350 7850 20  0001 C CNN
F 3 "" H 3350 7650 50  0001 C CNN
F 4 "TRANS-13060" V 3568 7650 60  0000 C CNN "Field4"
	1    3350 7650
	0    1    -1   0   
$EndComp
Wire Wire Line
	3250 8050 3250 7850
Wire Wire Line
	2550 8050 3250 8050
Wire Wire Line
	3250 8050 3450 8050
Connection ~ 3250 8050
Wire Wire Line
	2150 8050 1850 8050
Wire Wire Line
	1850 8050 1850 7550
Wire Wire Line
	1850 7550 3150 7550
Text GLabel 2150 9800 0    47   Input ~ 0
KEEPALIVE
Text Notes 850  7150 0    47   ~ 0
The KEEPALIVE must be HIGH to keep power flowing
Wire Wire Line
	3450 8050 3450 8300
Wire Wire Line
	1850 7550 1500 7550
Connection ~ 1850 7550
Wire Wire Line
	1100 7550 850  7550
Wire Wire Line
	850  7550 850  8800
Connection ~ 850  8800
$Comp
L SparkFun-Jumpers:JUMPER-SMT_2_NO JP17
U 1 1 5EA0E082
P 2150 1800
F 0 "JP17" V 2245 1696 45  0000 R CNN
F 1 "JUMPER-SMT_2_NO" V 2161 1696 45  0000 R CNN
F 2 "SMT-JUMPER_2_NO" H 2150 2000 20  0001 C CNN
F 3 "" H 2150 1800 60  0001 C CNN
F 4 "XXX-00000" V 2066 1696 60  0000 R CNN "PROD_ID"
	1    2150 1800
	0    -1   -1   0   
$EndComp
$Comp
L SparkFun-Jumpers:JUMPER-SMT_2_NO JP15
U 1 1 5EA100EE
P 1650 1800
F 0 "JP15" V 1745 1696 45  0000 R CNN
F 1 "JUMPER-SMT_2_NO" V 1661 1696 45  0000 R CNN
F 2 "SMT-JUMPER_2_NO" H 1650 2000 20  0001 C CNN
F 3 "" H 1650 1800 60  0001 C CNN
F 4 "XXX-00000" V 1566 1696 60  0000 R CNN "PROD_ID"
	1    1650 1800
	0    1    -1   0   
$EndComp
$Comp
L SparkFun-Resistors:10KOHM-0603-1_10W-1% R40
U 1 1 5EA110FA
P 2150 2450
F 0 "R40" V 2055 2518 45  0000 L CNN
F 1 "10KOHM-0603-1_10W-1%" V 2139 2518 45  0000 L CNN
F 2 "0603" H 2150 2600 20  0001 C CNN
F 3 "" H 2150 2450 60  0001 C CNN
F 4 "RES-00824" V 2234 2518 60  0000 L CNN "Field4"
	1    2150 2450
	0    1    1    0   
$EndComp
$Comp
L SparkFun-Resistors:10KOHM-0603-1_10W-1% R38
U 1 1 5EA1221C
P 1650 2450
F 0 "R38" V 1555 2518 45  0000 L CNN
F 1 "10KOHM-0603-1_10W-1%" V 1639 2518 45  0000 L CNN
F 2 "0603" H 1650 2600 20  0001 C CNN
F 3 "" H 1650 2450 60  0001 C CNN
F 4 "RES-00824" V 1734 2518 60  0000 L CNN "Field4"
	1    1650 2450
	0    -1   1    0   
$EndComp
$Comp
L SparkFun-PowerSymbols:VCC #SUPPLY?
U 1 1 5EA12EFC
P 1650 1650
AR Path="/5EB96250/5EA12EFC" Ref="#SUPPLY?"  Part="1" 
AR Path="/5EBB5EBC/5EA12EFC" Ref="#SUPPLY?"  Part="1" 
AR Path="/5EA12EFC" Ref="#SUPPLY?"  Part="1" 
AR Path="/5F7E9A9C/5EA12EFC" Ref="#SUPPLY0126"  Part="1" 
F 0 "#SUPPLY0126" H 1700 1650 45  0001 L BNN
F 1 "VCC" H 1650 1820 45  0000 C CNN
F 2 "" H 1650 1831 60  0000 C CNN
F 3 "" H 1650 1650 60  0001 C CNN
	1    1650 1650
	1    0    0    -1  
$EndComp
$Comp
L SparkFun-PowerSymbols:VCC #SUPPLY?
U 1 1 5EA13B49
P 2150 1650
AR Path="/5EB96250/5EA13B49" Ref="#SUPPLY?"  Part="1" 
AR Path="/5EBB5EBC/5EA13B49" Ref="#SUPPLY?"  Part="1" 
AR Path="/5EA13B49" Ref="#SUPPLY?"  Part="1" 
AR Path="/5F7E9A9C/5EA13B49" Ref="#SUPPLY0127"  Part="1" 
F 0 "#SUPPLY0127" H 2200 1650 45  0001 L BNN
F 1 "VCC" H 2150 1820 45  0000 C CNN
F 2 "" H 2150 1831 60  0000 C CNN
F 3 "" H 2150 1650 60  0001 C CNN
	1    2150 1650
	1    0    0    -1  
$EndComp
Wire Wire Line
	3750 2200 2150 2200
Wire Wire Line
	2150 2200 2150 2250
Wire Wire Line
	1650 1950 1650 2100
Wire Wire Line
	2150 1950 2150 2200
Connection ~ 2150 2200
Wire Wire Line
	3750 2100 1650 2100
Connection ~ 1650 2100
Wire Wire Line
	1650 2100 1650 2250
Text GLabel 3750 3300 0    47   Output ~ 0
OUT2A
Text GLabel 3750 3400 0    47   Output ~ 0
OUT2B
Text GLabel 3750 1800 0    47   Output ~ 0
OUT1B
Text GLabel 3750 1700 0    47   Output ~ 0
OUT1A
$Comp
L SparkFun-PowerSymbols:GND #GND?
U 1 1 5EA29FEA
P 2150 2650
AR Path="/5EB96250/5EA29FEA" Ref="#GND?"  Part="1" 
AR Path="/5EBB5EBC/5EA29FEA" Ref="#GND?"  Part="1" 
AR Path="/5EA29FEA" Ref="#GND?"  Part="1" 
AR Path="/5F7E9A9C/5EA29FEA" Ref="#GND0134"  Part="1" 
F 0 "#GND0134" H 2200 2600 45  0001 L BNN
F 1 "GND" H 2150 2480 45  0000 C CNN
F 2 "" H 2150 2550 60  0001 C CNN
F 3 "" H 2150 2550 60  0001 C CNN
	1    2150 2650
	1    0    0    -1  
$EndComp
$Comp
L SparkFun-PowerSymbols:GND #GND?
U 1 1 5EA2AEA4
P 1650 2650
AR Path="/5EB96250/5EA2AEA4" Ref="#GND?"  Part="1" 
AR Path="/5EBB5EBC/5EA2AEA4" Ref="#GND?"  Part="1" 
AR Path="/5EA2AEA4" Ref="#GND?"  Part="1" 
AR Path="/5F7E9A9C/5EA2AEA4" Ref="#GND0135"  Part="1" 
F 0 "#GND0135" H 1700 2600 45  0001 L BNN
F 1 "GND" H 1650 2480 45  0000 C CNN
F 2 "" H 1650 2550 60  0001 C CNN
F 3 "" H 1650 2550 60  0001 C CNN
	1    1650 2650
	1    0    0    -1  
$EndComp
$Comp
L SparkFun-PowerSymbols:GND #GND?
U 1 1 5EA46204
P 4150 4000
AR Path="/5EB96250/5EA46204" Ref="#GND?"  Part="1" 
AR Path="/5EBB5EBC/5EA46204" Ref="#GND?"  Part="1" 
AR Path="/5EA46204" Ref="#GND?"  Part="1" 
AR Path="/5F7E9A9C/5EA46204" Ref="#GND0136"  Part="1" 
F 0 "#GND0136" H 4200 3950 45  0001 L BNN
F 1 "GND" H 4150 3830 45  0000 C CNN
F 2 "" H 4150 3900 60  0001 C CNN
F 3 "" H 4150 3900 60  0001 C CNN
	1    4150 4000
	1    0    0    -1  
$EndComp
$Comp
L dk_PMIC-Current-Regulation-Management:INA219AIDCNR U?
U 1 1 5EA46213
P 4150 3500
AR Path="/5EB96250/5EA46213" Ref="U?"  Part="1" 
AR Path="/5EBB5EBC/5EA46213" Ref="U?"  Part="1" 
AR Path="/5EA46213" Ref="U?"  Part="1" 
AR Path="/5F7E9A9C/5EA46213" Ref="U8"  Part="1" 
F 0 "U8" H 4278 3503 60  0000 L CNN
F 1 "INA219AIDCNR" H 4278 3397 60  0000 L CNN
F 2 "digikey-footprints:SOT-23-8" H 4350 3700 60  0001 L CNN
F 3 "http://www.ti.com/general/docs/suppproductinfo.tsp?distId=10&gotoUrl=http%3A%2F%2Fwww.ti.com%2Flit%2Fgpn%2Fina219" H 4350 3800 60  0001 L CNN
F 4 "296-23770-1-ND" H 4350 3900 60  0001 L CNN "Digi-Key_PN"
F 5 "INA219AIDCNR" H 4350 4000 60  0001 L CNN "MPN"
F 6 "Integrated Circuits (ICs)" H 4350 4100 60  0001 L CNN "Category"
F 7 "PMIC - Current Regulation/Management" H 4350 4200 60  0001 L CNN "Family"
F 8 "http://www.ti.com/general/docs/suppproductinfo.tsp?distId=10&gotoUrl=http%3A%2F%2Fwww.ti.com%2Flit%2Fgpn%2Fina219" H 4350 4300 60  0001 L CNN "DK_Datasheet_Link"
F 9 "/product-detail/en/texas-instruments/INA219AIDCNR/296-23770-1-ND/1952550" H 4350 4400 60  0001 L CNN "DK_Detail_Page"
F 10 "IC CURRENT MONITOR 1% SOT23-8" H 4350 4500 60  0001 L CNN "Description"
F 11 "Texas Instruments" H 4350 4600 60  0001 L CNN "Manufacturer"
F 12 "Active" H 4350 4700 60  0001 L CNN "Status"
	1    4150 3500
	1    0    0    -1  
$EndComp
Text GLabel 3750 3500 0    50   BiDi ~ 0
SCL
Text GLabel 3750 3600 0    50   BiDi ~ 0
SDA
$Comp
L SparkFun-PowerSymbols:VCC #SUPPLY?
U 1 1 5EA4621B
P 4150 3100
AR Path="/5EB96250/5EA4621B" Ref="#SUPPLY?"  Part="1" 
AR Path="/5EBB5EBC/5EA4621B" Ref="#SUPPLY?"  Part="1" 
AR Path="/5EA4621B" Ref="#SUPPLY?"  Part="1" 
AR Path="/5F7E9A9C/5EA4621B" Ref="#SUPPLY0128"  Part="1" 
F 0 "#SUPPLY0128" H 4200 3100 45  0001 L BNN
F 1 "VCC" H 4150 3270 45  0000 C CNN
F 2 "" H 4150 3281 60  0000 C CNN
F 3 "" H 4150 3100 60  0001 C CNN
	1    4150 3100
	1    0    0    -1  
$EndComp
$Comp
L SparkFun-Jumpers:JUMPER-SMT_2_NO JP18
U 1 1 5EA46222
P 2150 3400
F 0 "JP18" V 2245 3296 45  0000 R CNN
F 1 "JUMPER-SMT_2_NO" V 2161 3296 45  0000 R CNN
F 2 "SMT-JUMPER_2_NO" H 2150 3600 20  0001 C CNN
F 3 "" H 2150 3400 60  0001 C CNN
F 4 "XXX-00000" V 2066 3296 60  0000 R CNN "PROD_ID"
	1    2150 3400
	0    -1   -1   0   
$EndComp
$Comp
L SparkFun-Jumpers:JUMPER-SMT_2_NO JP16
U 1 1 5EA46229
P 1650 3400
F 0 "JP16" V 1745 3296 45  0000 R CNN
F 1 "JUMPER-SMT_2_NO" V 1661 3296 45  0000 R CNN
F 2 "SMT-JUMPER_2_NO" H 1650 3600 20  0001 C CNN
F 3 "" H 1650 3400 60  0001 C CNN
F 4 "XXX-00000" V 1566 3296 60  0000 R CNN "PROD_ID"
	1    1650 3400
	0    1    -1   0   
$EndComp
$Comp
L SparkFun-Resistors:10KOHM-0603-1_10W-1% R41
U 1 1 5EA46230
P 2150 4050
F 0 "R41" V 2055 4118 45  0000 L CNN
F 1 "10KOHM-0603-1_10W-1%" V 2139 4118 45  0000 L CNN
F 2 "0603" H 2150 4200 20  0001 C CNN
F 3 "" H 2150 4050 60  0001 C CNN
F 4 "RES-00824" V 2234 4118 60  0000 L CNN "Field4"
	1    2150 4050
	0    1    1    0   
$EndComp
$Comp
L SparkFun-Resistors:10KOHM-0603-1_10W-1% R39
U 1 1 5EA46237
P 1650 4050
F 0 "R39" V 1555 4118 45  0000 L CNN
F 1 "10KOHM-0603-1_10W-1%" V 1639 4118 45  0000 L CNN
F 2 "0603" H 1650 4200 20  0001 C CNN
F 3 "" H 1650 4050 60  0001 C CNN
F 4 "RES-00824" V 1734 4118 60  0000 L CNN "Field4"
	1    1650 4050
	0    -1   1    0   
$EndComp
$Comp
L SparkFun-PowerSymbols:VCC #SUPPLY?
U 1 1 5EA4623D
P 1650 3250
AR Path="/5EB96250/5EA4623D" Ref="#SUPPLY?"  Part="1" 
AR Path="/5EBB5EBC/5EA4623D" Ref="#SUPPLY?"  Part="1" 
AR Path="/5EA4623D" Ref="#SUPPLY?"  Part="1" 
AR Path="/5F7E9A9C/5EA4623D" Ref="#SUPPLY0129"  Part="1" 
F 0 "#SUPPLY0129" H 1700 3250 45  0001 L BNN
F 1 "VCC" H 1650 3420 45  0000 C CNN
F 2 "" H 1650 3431 60  0000 C CNN
F 3 "" H 1650 3250 60  0001 C CNN
	1    1650 3250
	1    0    0    -1  
$EndComp
$Comp
L SparkFun-PowerSymbols:VCC #SUPPLY?
U 1 1 5EA46243
P 2150 3250
AR Path="/5EB96250/5EA46243" Ref="#SUPPLY?"  Part="1" 
AR Path="/5EBB5EBC/5EA46243" Ref="#SUPPLY?"  Part="1" 
AR Path="/5EA46243" Ref="#SUPPLY?"  Part="1" 
AR Path="/5F7E9A9C/5EA46243" Ref="#SUPPLY0130"  Part="1" 
F 0 "#SUPPLY0130" H 2200 3250 45  0001 L BNN
F 1 "VCC" H 2150 3420 45  0000 C CNN
F 2 "" H 2150 3431 60  0000 C CNN
F 3 "" H 2150 3250 60  0001 C CNN
	1    2150 3250
	1    0    0    -1  
$EndComp
Wire Wire Line
	3750 3800 2150 3800
Wire Wire Line
	2150 3800 2150 3850
Wire Wire Line
	1650 3550 1650 3700
Wire Wire Line
	2150 3550 2150 3800
Connection ~ 2150 3800
Wire Wire Line
	3750 3700 1650 3700
Connection ~ 1650 3700
Wire Wire Line
	1650 3700 1650 3850
$Comp
L SparkFun-PowerSymbols:GND #GND?
U 1 1 5EA46253
P 2150 4250
AR Path="/5EB96250/5EA46253" Ref="#GND?"  Part="1" 
AR Path="/5EBB5EBC/5EA46253" Ref="#GND?"  Part="1" 
AR Path="/5EA46253" Ref="#GND?"  Part="1" 
AR Path="/5F7E9A9C/5EA46253" Ref="#GND0137"  Part="1" 
F 0 "#GND0137" H 2200 4200 45  0001 L BNN
F 1 "GND" H 2150 4080 45  0000 C CNN
F 2 "" H 2150 4150 60  0001 C CNN
F 3 "" H 2150 4150 60  0001 C CNN
	1    2150 4250
	1    0    0    -1  
$EndComp
$Comp
L SparkFun-PowerSymbols:GND #GND?
U 1 1 5EA46259
P 1650 4250
AR Path="/5EB96250/5EA46259" Ref="#GND?"  Part="1" 
AR Path="/5EBB5EBC/5EA46259" Ref="#GND?"  Part="1" 
AR Path="/5EA46259" Ref="#GND?"  Part="1" 
AR Path="/5F7E9A9C/5EA46259" Ref="#GND0138"  Part="1" 
F 0 "#GND0138" H 1700 4200 45  0001 L BNN
F 1 "GND" H 1650 4080 45  0000 C CNN
F 2 "" H 1650 4150 60  0001 C CNN
F 3 "" H 1650 4150 60  0001 C CNN
	1    1650 4250
	1    0    0    -1  
$EndComp
$Comp
L SparkFun-PowerSymbols:VCC #SUPPLY?
U 1 1 5EA4C127
P 5100 3450
AR Path="/5EB96250/5EA4C127" Ref="#SUPPLY?"  Part="1" 
AR Path="/5EBB5EBC/5EA4C127" Ref="#SUPPLY?"  Part="1" 
AR Path="/5EA4C127" Ref="#SUPPLY?"  Part="1" 
AR Path="/5F7E9A9C/5EA4C127" Ref="#SUPPLY0131"  Part="1" 
F 0 "#SUPPLY0131" H 5150 3450 45  0001 L BNN
F 1 "VCC" H 5100 3620 45  0000 C CNN
F 2 "" H 5100 3631 60  0000 C CNN
F 3 "" H 5100 3450 60  0001 C CNN
	1    5100 3450
	1    0    0    -1  
$EndComp
$Comp
L SparkFun-PowerSymbols:GND #GND?
U 1 1 5EA4C12D
P 5100 3750
AR Path="/5EB96250/5EA4C12D" Ref="#GND?"  Part="1" 
AR Path="/5EBB5EBC/5EA4C12D" Ref="#GND?"  Part="1" 
AR Path="/5EA4C12D" Ref="#GND?"  Part="1" 
AR Path="/5F7E9A9C/5EA4C12D" Ref="#GND0139"  Part="1" 
F 0 "#GND0139" H 5150 3700 45  0001 L BNN
F 1 "GND" H 5100 3580 45  0000 C CNN
F 2 "" H 5100 3650 60  0001 C CNN
F 3 "" H 5100 3650 60  0001 C CNN
	1    5100 3750
	1    0    0    -1  
$EndComp
$Comp
L SparkFun-Capacitors:0.1UF-0603-100V-10% C?
U 1 1 5EA4C134
P 5100 3550
AR Path="/5EA4C134" Ref="C?"  Part="1" 
AR Path="/5EB96250/5EA4C134" Ref="C?"  Part="1" 
AR Path="/5EBB5EBC/5EA4C134" Ref="C?"  Part="1" 
AR Path="/5F7E9A9C/5EA4C134" Ref="C21"  Part="1" 
F 0 "C21" H 5208 3695 45  0000 L CNN
F 1 "0.1UF-0603-100V-10%" H 5208 3611 45  0000 L CNN
F 2 "0603" H 5100 3800 20  0001 C CNN
F 3 "" H 5100 3550 50  0001 C CNN
F 4 "CAP-08390" H 5208 3516 60  0000 L CNN "Field4"
	1    5100 3550
	1    0    0    1   
$EndComp
Text GLabel 7150 1850 0    47   Output ~ 0
OUT1B
Text GLabel 7150 1750 0    47   Output ~ 0
OUT1A
$EndSCHEMATC
