EESchema Schematic File Version 4
EELAYER 30 0
EELAYER END
$Descr A4 8268 11693 portrait
encoding utf-8
Sheet 5 6
Title "Lab Lifting Platform"
Date ""
Rev ""
Comp "Heriot Watt University, Dubai"
Comment1 ""
Comment2 ""
Comment3 ""
Comment4 ""
$EndDescr
$Comp
L SparkFun-Switches:JOYSTICK_THUMB S?
U 1 1 5F79BB1C
P 3950 3700
AR Path="/5F79BB1C" Ref="S?"  Part="1" 
AR Path="/5EC40A6A/5F79BB1C" Ref="S?"  Part="1" 
AR Path="/5F7937B3/5F79BB1C" Ref="S3"  Part="1" 
F 0 "S3" H 4228 3745 45  0000 L CNN
F 1 "JOYSTICK_THUMB" H 4228 3661 45  0000 L CNN
F 2 "JOYSTICK" H 3950 4350 20  0001 C CNN
F 3 "" H 3950 3700 50  0001 C CNN
F 4 "COMP-09744" H 4228 3566 60  0000 L CNN "Field4"
	1    3950 3700
	-1   0    0    -1  
$EndComp
Wire Wire Line
	4550 3700 4300 3700
Wire Wire Line
	4300 3300 4550 3300
Wire Wire Line
	4550 3300 4550 3700
Wire Wire Line
	4400 4200 4300 4200
Wire Wire Line
	4300 3500 4400 3500
Wire Wire Line
	4400 3500 4400 3900
Wire Wire Line
	4300 3900 4400 3900
Connection ~ 4400 3900
Wire Wire Line
	4400 3900 4400 4200
$Comp
L SparkFun-Switches:ROCKER_SWITCH-SPST_PTH_RIGHT_ANGLE S?
U 1 1 5F79BB2C
P 4100 7350
AR Path="/5F79BB2C" Ref="S?"  Part="1" 
AR Path="/5EC40A6A/5F79BB2C" Ref="S?"  Part="1" 
AR Path="/5F7937B3/5F79BB2C" Ref="S6"  Part="1" 
F 0 "S6" H 4100 7660 45  0000 C CNN
F 1 "ROCKER_SWITCH-SPST_PTH_RIGHT_ANGLE" H 3650 7550 45  0000 C CNN
F 2 "Switches:RockerSwitch_RA" H 4100 7550 20  0001 C CNN
F 3 "" H 4100 7350 50  0001 C CNN
F 4 "SWCH-08863" H 4000 7450 60  0000 C CNN "Field4"
	1    4100 7350
	1    0    0    -1  
$EndComp
Wire Wire Line
	4800 3800 4300 3800
Wire Wire Line
	4800 3400 4300 3400
Text Notes 5500 2600 2    157  Italic 0
Joystick + Button Control\n
Text GLabel 4800 3400 2    50   Input ~ 0
VER
Text GLabel 4800 3800 2    50   Input ~ 0
HOR
Text GLabel 6300 6000 2    50   Input ~ 0
SEL
Text GLabel 6300 6100 2    50   Input ~ 0
UP
Text GLabel 6300 6200 2    50   Input ~ 0
DOWN
Text GLabel 6300 6300 2    50   Input ~ 0
TOP
Text GLabel 6300 6400 2    50   Input ~ 0
BOTTOM
$Comp
L SparkFun-Resistors:1KOHM-0603-1_10W-1% R?
U 1 1 5F79BB3D
P 3800 7650
AR Path="/5EC40A6A/5F79BB3D" Ref="R?"  Part="1" 
AR Path="/5F79BB3D" Ref="R?"  Part="1" 
AR Path="/5F7937B3/5F79BB3D" Ref="R30"  Part="1" 
F 0 "R30" V 3705 7582 45  0000 R CNN
F 1 "1KOHM-0603-1_10W-1%" V 3789 7582 45  0000 R CNN
F 2 "0603" H 3800 7800 20  0001 C CNN
F 3 "" H 3800 7650 60  0001 C CNN
F 4 "RES-07856" V 3884 7582 60  0000 R CNN "Field4"
	1    3800 7650
	0    1    1    0   
$EndComp
$Comp
L SparkFun-Capacitors:0.1UF-0603-25V-5% C?
U 1 1 5F79BB44
P 4400 7650
AR Path="/5EC40A6A/5F79BB44" Ref="C?"  Part="1" 
AR Path="/5F79BB44" Ref="C?"  Part="1" 
AR Path="/5F7937B3/5F79BB44" Ref="C18"  Part="1" 
F 0 "C18" H 4508 7795 45  0000 L CNN
F 1 "0.1UF-0603-25V-5%" H 4508 7711 45  0000 L CNN
F 2 "0603" H 4400 7900 20  0001 C CNN
F 3 "" H 4400 7650 50  0001 C CNN
F 4 "CAP-08604" H 4508 7616 60  0000 L CNN "Field4"
	1    4400 7650
	1    0    0    -1  
$EndComp
Wire Wire Line
	4400 7750 4400 7850
Wire Wire Line
	4400 7450 4400 7350
Wire Wire Line
	4400 7350 4300 7350
Wire Wire Line
	3900 7350 3800 7350
Wire Wire Line
	3800 7350 3800 7450
$Comp
L SparkFun-Resistors:10KOHM-0603-1_10W-1% R?
U 1 1 5F79BB50
P 4400 7050
AR Path="/5EC40A6A/5F79BB50" Ref="R?"  Part="1" 
AR Path="/5F79BB50" Ref="R?"  Part="1" 
AR Path="/5F7937B3/5F79BB50" Ref="R34"  Part="1" 
F 0 "R34" V 4305 7118 45  0000 L CNN
F 1 "10KOHM-0603-1_10W-1%" V 4389 7118 45  0000 L CNN
F 2 "0603" H 4400 7200 20  0001 C CNN
F 3 "" H 4400 7050 60  0001 C CNN
F 4 "RES-00824" V 4484 7118 60  0000 L CNN "Field4"
	1    4400 7050
	0    1    1    0   
$EndComp
Wire Wire Line
	4400 7350 4400 7250
Connection ~ 4400 7350
$Comp
L SparkFun-Switches:ROCKER_SWITCH-SPST_PTH_RIGHT_ANGLE S?
U 1 1 5F79BB59
P 4100 8500
AR Path="/5F79BB59" Ref="S?"  Part="1" 
AR Path="/5EC40A6A/5F79BB59" Ref="S?"  Part="1" 
AR Path="/5F7937B3/5F79BB59" Ref="S7"  Part="1" 
F 0 "S7" H 4100 8810 45  0000 C CNN
F 1 "ROCKER_SWITCH-SPST_PTH_RIGHT_ANGLE" H 3650 8700 45  0000 C CNN
F 2 "Switches:RockerSwitch_RA" H 4100 8700 20  0001 C CNN
F 3 "" H 4100 8500 50  0001 C CNN
F 4 "SWCH-08863" H 4000 8600 60  0000 C CNN "Field4"
	1    4100 8500
	1    0    0    -1  
$EndComp
$Comp
L SparkFun-Resistors:1KOHM-0603-1_10W-1% R?
U 1 1 5F79BB60
P 3800 8800
AR Path="/5EC40A6A/5F79BB60" Ref="R?"  Part="1" 
AR Path="/5F79BB60" Ref="R?"  Part="1" 
AR Path="/5F7937B3/5F79BB60" Ref="R31"  Part="1" 
F 0 "R31" V 3705 8732 45  0000 R CNN
F 1 "1KOHM-0603-1_10W-1%" V 3789 8732 45  0000 R CNN
F 2 "0603" H 3800 8950 20  0001 C CNN
F 3 "" H 3800 8800 60  0001 C CNN
F 4 "RES-07856" V 3884 8732 60  0000 R CNN "Field4"
	1    3800 8800
	0    1    1    0   
$EndComp
$Comp
L SparkFun-Capacitors:0.1UF-0603-25V-5% C?
U 1 1 5F79BB67
P 4400 8800
AR Path="/5EC40A6A/5F79BB67" Ref="C?"  Part="1" 
AR Path="/5F79BB67" Ref="C?"  Part="1" 
AR Path="/5F7937B3/5F79BB67" Ref="C19"  Part="1" 
F 0 "C19" H 4508 8945 45  0000 L CNN
F 1 "0.1UF-0603-25V-5%" H 4508 8861 45  0000 L CNN
F 2 "0603" H 4400 9050 20  0001 C CNN
F 3 "" H 4400 8800 50  0001 C CNN
F 4 "CAP-08604" H 4508 8766 60  0000 L CNN "Field4"
	1    4400 8800
	1    0    0    -1  
$EndComp
Wire Wire Line
	4400 8900 4400 9000
Wire Wire Line
	4400 8600 4400 8500
Wire Wire Line
	4400 8500 4300 8500
Wire Wire Line
	3900 8500 3800 8500
Wire Wire Line
	3800 8500 3800 8600
Wire Wire Line
	4400 8500 4400 8400
Connection ~ 4400 8500
$Comp
L SparkFun-Resistors:10KOHM-0603-1_10W-1% R?
U 1 1 5F79BB75
P 4400 8200
AR Path="/5EC40A6A/5F79BB75" Ref="R?"  Part="1" 
AR Path="/5F79BB75" Ref="R?"  Part="1" 
AR Path="/5F7937B3/5F79BB75" Ref="R35"  Part="1" 
F 0 "R35" V 4305 8268 45  0000 L CNN
F 1 "10KOHM-0603-1_10W-1%" V 4389 8268 45  0000 L CNN
F 2 "0603" H 4400 8350 20  0001 C CNN
F 3 "" H 4400 8200 60  0001 C CNN
F 4 "RES-00824" V 4484 8268 60  0000 L CNN "Field4"
	1    4400 8200
	0    1    1    0   
$EndComp
$Comp
L SparkFun-Switches:ROCKER_SWITCH-SPST_PTH_RIGHT_ANGLE S?
U 1 1 5F79BB7C
P 4100 6200
AR Path="/5F79BB7C" Ref="S?"  Part="1" 
AR Path="/5EC40A6A/5F79BB7C" Ref="S?"  Part="1" 
AR Path="/5F7937B3/5F79BB7C" Ref="S5"  Part="1" 
F 0 "S5" H 4100 6510 45  0000 C CNN
F 1 "ROCKER_SWITCH-SPST_PTH_RIGHT_ANGLE" H 3650 6400 45  0000 C CNN
F 2 "Switches:RockerSwitch_RA" H 4100 6400 20  0001 C CNN
F 3 "" H 4100 6200 50  0001 C CNN
F 4 "SWCH-08863" H 4000 6300 60  0000 C CNN "Field4"
	1    4100 6200
	1    0    0    -1  
$EndComp
$Comp
L SparkFun-Resistors:1KOHM-0603-1_10W-1% R?
U 1 1 5F79BB83
P 3800 6500
AR Path="/5EC40A6A/5F79BB83" Ref="R?"  Part="1" 
AR Path="/5F79BB83" Ref="R?"  Part="1" 
AR Path="/5F7937B3/5F79BB83" Ref="R29"  Part="1" 
F 0 "R29" V 3705 6432 45  0000 R CNN
F 1 "1KOHM-0603-1_10W-1%" V 3789 6432 45  0000 R CNN
F 2 "0603" H 3800 6650 20  0001 C CNN
F 3 "" H 3800 6500 60  0001 C CNN
F 4 "RES-07856" V 3884 6432 60  0000 R CNN "Field4"
	1    3800 6500
	0    1    1    0   
$EndComp
$Comp
L SparkFun-Capacitors:0.1UF-0603-25V-5% C?
U 1 1 5F79BB8A
P 4400 6500
AR Path="/5EC40A6A/5F79BB8A" Ref="C?"  Part="1" 
AR Path="/5F79BB8A" Ref="C?"  Part="1" 
AR Path="/5F7937B3/5F79BB8A" Ref="C17"  Part="1" 
F 0 "C17" H 4508 6645 45  0000 L CNN
F 1 "0.1UF-0603-25V-5%" H 4508 6561 45  0000 L CNN
F 2 "0603" H 4400 6750 20  0001 C CNN
F 3 "" H 4400 6500 50  0001 C CNN
F 4 "CAP-08604" H 4508 6466 60  0000 L CNN "Field4"
	1    4400 6500
	1    0    0    -1  
$EndComp
Wire Wire Line
	4400 6600 4400 6700
Wire Wire Line
	4400 6300 4400 6200
Wire Wire Line
	4400 6200 4300 6200
Wire Wire Line
	3900 6200 3800 6200
Wire Wire Line
	3800 6200 3800 6300
Wire Wire Line
	4400 6200 4400 6100
Connection ~ 4400 6200
$Comp
L SparkFun-Resistors:10KOHM-0603-1_10W-1% R?
U 1 1 5F79BB98
P 4400 5900
AR Path="/5EC40A6A/5F79BB98" Ref="R?"  Part="1" 
AR Path="/5F79BB98" Ref="R?"  Part="1" 
AR Path="/5F7937B3/5F79BB98" Ref="R33"  Part="1" 
F 0 "R33" V 4305 5968 45  0000 L CNN
F 1 "10KOHM-0603-1_10W-1%" V 4389 5968 45  0000 L CNN
F 2 "0603" H 4400 6050 20  0001 C CNN
F 3 "" H 4400 5900 60  0001 C CNN
F 4 "RES-00824" V 4484 5968 60  0000 L CNN "Field4"
	1    4400 5900
	0    1    1    0   
$EndComp
$Comp
L SparkFun-Switches:ROCKER_SWITCH-SPST_PTH_RIGHT_ANGLE S?
U 1 1 5F79BB9F
P 4100 5050
AR Path="/5F79BB9F" Ref="S?"  Part="1" 
AR Path="/5EC40A6A/5F79BB9F" Ref="S?"  Part="1" 
AR Path="/5F7937B3/5F79BB9F" Ref="S4"  Part="1" 
F 0 "S4" H 4100 5360 45  0000 C CNN
F 1 "ROCKER_SWITCH-SPST_PTH_RIGHT_ANGLE" H 3650 5250 45  0000 C CNN
F 2 "Switches:RockerSwitch_RA" H 4100 5250 20  0001 C CNN
F 3 "" H 4100 5050 50  0001 C CNN
F 4 "SWCH-08863" H 4000 5150 60  0000 C CNN "Field4"
	1    4100 5050
	1    0    0    -1  
$EndComp
$Comp
L SparkFun-Resistors:1KOHM-0603-1_10W-1% R?
U 1 1 5F79BBA6
P 3800 5350
AR Path="/5EC40A6A/5F79BBA6" Ref="R?"  Part="1" 
AR Path="/5F79BBA6" Ref="R?"  Part="1" 
AR Path="/5F7937B3/5F79BBA6" Ref="R28"  Part="1" 
F 0 "R28" V 3705 5282 45  0000 R CNN
F 1 "1KOHM-0603-1_10W-1%" V 3789 5282 45  0000 R CNN
F 2 "0603" H 3800 5500 20  0001 C CNN
F 3 "" H 3800 5350 60  0001 C CNN
F 4 "RES-07856" V 3884 5282 60  0000 R CNN "Field4"
	1    3800 5350
	0    1    1    0   
$EndComp
$Comp
L SparkFun-Capacitors:0.1UF-0603-25V-5% C?
U 1 1 5F79BBAD
P 4400 5350
AR Path="/5EC40A6A/5F79BBAD" Ref="C?"  Part="1" 
AR Path="/5F79BBAD" Ref="C?"  Part="1" 
AR Path="/5F7937B3/5F79BBAD" Ref="C16"  Part="1" 
F 0 "C16" H 4508 5495 45  0000 L CNN
F 1 "0.1UF-0603-25V-5%" H 4508 5411 45  0000 L CNN
F 2 "0603" H 4400 5600 20  0001 C CNN
F 3 "" H 4400 5350 50  0001 C CNN
F 4 "CAP-08604" H 4508 5316 60  0000 L CNN "Field4"
	1    4400 5350
	1    0    0    -1  
$EndComp
Wire Wire Line
	4400 5450 4400 5550
Wire Wire Line
	4400 5150 4400 5050
Wire Wire Line
	4400 5050 4300 5050
Wire Wire Line
	3900 5050 3800 5050
Wire Wire Line
	3800 5050 3800 5150
Wire Wire Line
	4400 5050 4400 4950
Connection ~ 4400 5050
$Comp
L SparkFun-Resistors:10KOHM-0603-1_10W-1% R?
U 1 1 5F79BBBB
P 4400 4750
AR Path="/5EC40A6A/5F79BBBB" Ref="R?"  Part="1" 
AR Path="/5F79BBBB" Ref="R?"  Part="1" 
AR Path="/5F7937B3/5F79BBBB" Ref="R32"  Part="1" 
F 0 "R32" V 4305 4818 45  0000 L CNN
F 1 "10KOHM-0603-1_10W-1%" V 4389 4818 45  0000 L CNN
F 2 "0603" H 4400 4900 20  0001 C CNN
F 3 "" H 4400 4750 60  0001 C CNN
F 4 "RES-00824" V 4484 4818 60  0000 L CNN "Field4"
	1    4400 4750
	0    1    1    0   
$EndComp
Wire Wire Line
	4400 5550 3800 5550
Wire Wire Line
	4400 6700 3800 6700
Wire Wire Line
	4400 7850 3800 7850
Wire Wire Line
	4400 9000 3800 9000
Wire Wire Line
	3800 5550 2750 5550
Wire Wire Line
	2750 9000 3800 9000
Connection ~ 3800 5550
Connection ~ 3800 9000
Wire Wire Line
	3800 7850 2750 7850
Connection ~ 3800 7850
Connection ~ 2750 7850
Wire Wire Line
	2750 7850 2750 9000
Wire Wire Line
	3800 6700 2750 6700
Connection ~ 3800 6700
Connection ~ 2750 6700
Wire Wire Line
	2750 6700 2750 7850
Wire Wire Line
	2750 5550 2750 6700
Wire Wire Line
	4400 4550 2550 4550
Wire Wire Line
	2550 4550 2550 5700
Wire Wire Line
	4400 5700 2550 5700
Connection ~ 2550 5700
Wire Wire Line
	4400 6850 2550 6850
Wire Wire Line
	2550 5700 2550 6850
Wire Wire Line
	4400 8000 2550 8000
Wire Wire Line
	2550 8000 2550 6850
Connection ~ 2550 6850
$Comp
L SparkFun-PowerSymbols:3.3V #SUPPLY?
U 1 1 5F79BBDB
P 2550 3050
AR Path="/5EC40A6A/5F79BBDB" Ref="#SUPPLY?"  Part="1" 
AR Path="/5F79BBDB" Ref="#SUPPLY?"  Part="1" 
AR Path="/5F7937B3/5F79BBDB" Ref="#SUPPLY0122"  Part="1" 
F 0 "#SUPPLY0122" H 2600 3050 45  0001 L BNN
F 1 "3.3V" H 2550 3220 45  0000 C CNN
F 2 "" H 2550 3231 60  0000 C CNN
F 3 "" H 2550 3050 60  0001 C CNN
	1    2550 3050
	1    0    0    -1  
$EndComp
$Comp
L SparkFun-PowerSymbols:GND #GND?
U 1 1 5F79BBE1
P 2750 9000
AR Path="/5F79BBE1" Ref="#GND?"  Part="1" 
AR Path="/5EC40A6A/5F79BBE1" Ref="#GND?"  Part="1" 
AR Path="/5F7937B3/5F79BBE1" Ref="#GND0126"  Part="1" 
F 0 "#GND0126" H 2800 8950 45  0001 L BNN
F 1 "GND" H 2750 8830 45  0000 C CNN
F 2 "" H 2750 8900 60  0001 C CNN
F 3 "" H 2750 8900 60  0001 C CNN
	1    2750 9000
	1    0    0    -1  
$EndComp
$Comp
L dk_Logic-Gates-and-Inverters:SN74HC14N U?
U 1 1 5F79BBF0
P 6000 6300
AR Path="/5EC40A6A/5F79BBF0" Ref="U?"  Part="1" 
AR Path="/5F79BBF0" Ref="U?"  Part="1" 
AR Path="/5F7937B3/5F79BBF0" Ref="U6"  Part="1" 
F 0 "U6" H 5850 6950 60  0000 C CNN
F 1 "SN74HC14N" H 5650 6850 60  0000 C CNN
F 2 "digikey-footprints:DIP-14_W3mm" H 6200 6500 60  0001 L CNN
F 3 "http://www.ti.com/general/docs/suppproductinfo.tsp?distId=10&gotoUrl=http%3A%2F%2Fwww.ti.com%2Flit%2Fgpn%2Fsn74hc14" H 6200 6600 60  0001 L CNN
F 4 "296-1577-5-ND" H 6200 6700 60  0001 L CNN "Digi-Key_PN"
F 5 "SN74HC14N" H 6200 6800 60  0001 L CNN "MPN"
F 6 "Integrated Circuits (ICs)" H 6200 6900 60  0001 L CNN "Category"
F 7 "Logic - Gates and Inverters" H 6200 7000 60  0001 L CNN "Family"
F 8 "http://www.ti.com/general/docs/suppproductinfo.tsp?distId=10&gotoUrl=http%3A%2F%2Fwww.ti.com%2Flit%2Fgpn%2Fsn74hc14" H 6200 7100 60  0001 L CNN "DK_Datasheet_Link"
F 9 "/product-detail/en/texas-instruments/SN74HC14N/296-1577-5-ND/277223" H 6200 7200 60  0001 L CNN "DK_Detail_Page"
F 10 "IC INVERTER SCHMITT 6CH 14DIP" H 6200 7300 60  0001 L CNN "Description"
F 11 "Texas Instruments" H 6200 7400 60  0001 L CNN "Manufacturer"
F 12 "Active" H 6200 7500 60  0001 L CNN "Status"
	1    6000 6300
	1    0    0    -1  
$EndComp
NoConn ~ 6300 6500
$Comp
L SparkFun-PowerSymbols:GND #GND?
U 1 1 5F79BBF7
P 6000 6800
AR Path="/5F79BBF7" Ref="#GND?"  Part="1" 
AR Path="/5EC40A6A/5F79BBF7" Ref="#GND?"  Part="1" 
AR Path="/5F7937B3/5F79BBF7" Ref="#GND0127"  Part="1" 
F 0 "#GND0127" H 6050 6750 45  0001 L BNN
F 1 "GND" H 6000 6630 45  0000 C CNN
F 2 "" H 6000 6700 60  0001 C CNN
F 3 "" H 6000 6700 60  0001 C CNN
	1    6000 6800
	1    0    0    -1  
$EndComp
Connection ~ 2750 9000
Wire Wire Line
	4550 3300 4550 3050
Wire Wire Line
	4550 3050 2550 3050
Wire Wire Line
	2550 3050 2550 4550
Connection ~ 4550 3300
Connection ~ 2550 4550
Connection ~ 2550 3050
Wire Wire Line
	2750 5550 2750 4400
Wire Wire Line
	2750 4400 4400 4400
Wire Wire Line
	4400 4400 4400 4200
Connection ~ 2750 5550
Connection ~ 4400 4200
Wire Wire Line
	4400 6200 5700 6200
Wire Wire Line
	4400 5050 5500 5050
Wire Wire Line
	5500 5050 5500 6100
Wire Wire Line
	5500 6100 5700 6100
Wire Wire Line
	5600 4100 5600 6000
Wire Wire Line
	5600 6000 5700 6000
Wire Wire Line
	4300 4100 5600 4100
Wire Wire Line
	4400 7350 5500 7350
Wire Wire Line
	5500 7350 5500 6300
Wire Wire Line
	5500 6300 5700 6300
Wire Wire Line
	4400 8500 5600 8500
Wire Wire Line
	5600 8500 5600 6400
Wire Wire Line
	5600 6400 5700 6400
NoConn ~ 5700 6500
Text Notes 6400 6750 0    47   ~ 0
TODO!!! Limit Switch
$EndSCHEMATC
